[gd_scene load_steps=51 format=2]

[ext_resource path="res://scripts/Game.gd" type="Script" id=1]
[ext_resource path="res://ui/MorrisRomanBlack.ttf" type="DynamicFontData" id=2]
[ext_resource path="res://ui/shadow.png" type="Texture" id=3]
[ext_resource path="res://ui/button-disabled.png" type="Texture" id=4]
[ext_resource path="res://ui/button-focus.png" type="Texture" id=5]
[ext_resource path="res://ui/button-hilite.png" type="Texture" id=6]
[ext_resource path="res://ui/button-normal.png" type="Texture" id=7]
[ext_resource path="res://ui/button-pressed.png" type="Texture" id=8]
[ext_resource path="res://ui/panel-bg.png" type="Texture" id=9]
[ext_resource path="res://ui/Berry Rotunda.ttf" type="DynamicFontData" id=10]
[ext_resource path="res://actors/Player.tscn" type="PackedScene" id=11]
[ext_resource path="res://scenes/Dungeon.meshlib" type="MeshLibrary" id=12]
[ext_resource path="res://scenes/default_env.tres" type="Environment" id=13]
[ext_resource path="res://actors/Barrel.tscn" type="PackedScene" id=14]
[ext_resource path="res://actors/Torch.tscn" type="PackedScene" id=15]
[ext_resource path="res://actors/Imp.tscn" type="PackedScene" id=16]
[ext_resource path="res://actors/Spawner.tscn" type="PackedScene" id=17]
[ext_resource path="res://actors/Key.tscn" type="PackedScene" id=18]
[ext_resource path="res://actors/LockedDoor.tscn" type="PackedScene" id=19]
[ext_resource path="res://actors/Coin.tscn" type="PackedScene" id=20]
[ext_resource path="res://models/bars/model.obj" type="ArrayMesh" id=21]

[sub_resource type="DynamicFont" id=1]

size = 48
outline_size = 2
outline_color = Color( 0, 0, 0, 1 )
use_mipmaps = false
use_filter = false
font_data = ExtResource( 2 )
_sections_unfolded = [ "Font", "Settings" ]

[sub_resource type="StyleBoxTexture" id=2]

content_margin_left = -1.0
content_margin_right = -1.0
content_margin_top = -1.0
content_margin_bottom = -1.0
texture = ExtResource( 3 )
region_rect = Rect2( -11, -11, 115, 122 )
margin_left = 45.625
margin_right = 38.75
margin_top = 42.5
margin_bottom = 46.375
expand_margin_left = 0.0
expand_margin_right = 0.0
expand_margin_top = 0.0
expand_margin_bottom = 0.0
modulate_color = Color( 1, 1, 1, 1 )
draw_center = true
_sections_unfolded = [ "texture" ]

[sub_resource type="Theme" id=3]

Panel/styles/panel = SubResource( 2 )
Panel/styles/panelf = SubResource( 2 )
Panel/styles/panelnc = SubResource( 2 )
_sections_unfolded = [ "Panel", "Panel/styles" ]

[sub_resource type="StyleBoxTexture" id=4]

content_margin_left = -1.0
content_margin_right = -1.0
content_margin_top = -1.0
content_margin_bottom = -1.0
texture = ExtResource( 4 )
region_rect = Rect2( 0, 0, 200, 41 )
margin_left = 6.0
margin_right = 6.0
margin_top = 5.0
margin_bottom = 9.25
expand_margin_left = 0.0
expand_margin_right = 0.0
expand_margin_top = 0.0
expand_margin_bottom = 0.0
modulate_color = Color( 1, 1, 1, 1 )
draw_center = true
_sections_unfolded = [ "Margin" ]

[sub_resource type="StyleBoxTexture" id=5]

content_margin_left = -1.0
content_margin_right = -1.0
content_margin_top = -1.0
content_margin_bottom = -1.0
texture = ExtResource( 5 )
region_rect = Rect2( -6, -3.79475, 41.625, 41.625 )
margin_left = 9.75
margin_right = 10.25
margin_top = 7.625
margin_bottom = 12.75
expand_margin_left = 0.0
expand_margin_right = 0.0
expand_margin_top = 0.0
expand_margin_bottom = 0.0
modulate_color = Color( 1, 1, 1, 1 )
draw_center = true

[sub_resource type="StyleBoxTexture" id=6]

content_margin_left = -1.0
content_margin_right = -1.0
content_margin_top = -1.0
content_margin_bottom = -1.0
texture = ExtResource( 6 )
region_rect = Rect2( 0, 0, 200, 41 )
margin_left = 6.0
margin_right = 6.0
margin_top = 4.625
margin_bottom = 9.375
expand_margin_left = 0.0
expand_margin_right = 0.0
expand_margin_top = 0.0
expand_margin_bottom = 0.0
modulate_color = Color( 1, 1, 1, 1 )
draw_center = true

[sub_resource type="StyleBoxTexture" id=7]

content_margin_left = -1.0
content_margin_right = -1.0
content_margin_top = -1.0
content_margin_bottom = -1.0
texture = ExtResource( 7 )
region_rect = Rect2( 0, 0, 200, 41 )
margin_left = 6.0
margin_right = 6.0
margin_top = 5.0
margin_bottom = 9.25
expand_margin_left = 0.0
expand_margin_right = 0.0
expand_margin_top = 0.0
expand_margin_bottom = 0.0
modulate_color = Color( 1, 1, 1, 1 )
draw_center = true
_sections_unfolded = [ "Margin" ]

[sub_resource type="StyleBoxTexture" id=8]

content_margin_left = -1.0
content_margin_right = -1.0
content_margin_top = -1.0
content_margin_bottom = -1.0
texture = ExtResource( 8 )
region_rect = Rect2( 0, 0, 200, 41 )
margin_left = 6.0
margin_right = 6.0
margin_top = 6.375
margin_bottom = 7.625
expand_margin_left = 0.0
expand_margin_right = 0.0
expand_margin_top = 0.0
expand_margin_bottom = 0.0
modulate_color = Color( 1, 1, 1, 1 )
draw_center = true
_sections_unfolded = [ "Margin" ]

[sub_resource type="StyleBoxTexture" id=9]

content_margin_left = -1.0
content_margin_right = -1.0
content_margin_top = -1.0
content_margin_bottom = -1.0
texture = ExtResource( 9 )
region_rect = Rect2( 0, 0, 256, 256 )
margin_left = 0.0
margin_right = 0.0
margin_top = 0.0
margin_bottom = 0.0
expand_margin_left = 0.0
expand_margin_right = 0.0
expand_margin_top = 0.0
expand_margin_bottom = 0.0
modulate_color = Color( 1, 1, 1, 1 )
draw_center = true

[sub_resource type="DynamicFont" id=10]

size = 14
outline_size = 0
outline_color = Color( 1, 1, 1, 1 )
use_mipmaps = false
use_filter = false
font_data = ExtResource( 10 )
_sections_unfolded = [ "Font", "Settings" ]

[sub_resource type="StyleBoxFlat" id=11]

content_margin_left = -1.0
content_margin_right = -1.0
content_margin_top = -1.0
content_margin_bottom = -1.0
bg_color = Color( 0.976471, 1, 0.717647, 1 )
draw_center = true
border_width_left = 0
border_width_top = 0
border_width_right = 0
border_width_bottom = 0
border_color = Color( 0.8, 0.8, 0.8, 1 )
border_blend = false
corner_radius_top_left = 0
corner_radius_top_right = 0
corner_radius_bottom_right = 0
corner_radius_bottom_left = 0
corner_detail = 8
expand_margin_left = 6.0
expand_margin_right = 6.0
expand_margin_top = 10.0
expand_margin_bottom = 6.0
shadow_color = Color( 0, 0, 0, 0.278431 )
shadow_size = 6
anti_aliasing = true
anti_aliasing_size = 1
_sections_unfolded = [ "Border", "Border Width", "Expand Margin", "Shadow" ]

[sub_resource type="DynamicFont" id=12]

size = 16
outline_size = 1
outline_color = Color( 0, 0, 0, 1 )
use_mipmaps = false
use_filter = false
extra_spacing_top = 9
extra_spacing_bottom = 3
extra_spacing_char = 1
font_data = ExtResource( 10 )

[sub_resource type="Theme" id=13]

default_font = SubResource( 12 )
Button/colors/font_color = Color( 0.878431, 0.878431, 0.878431, 1 )
Button/colors/font_color_disabled = Color( 0.898039, 0.898039, 0.898039, 0.592157 )
Button/colors/font_color_hover = Color( 0.941176, 0.941176, 0.941176, 1 )
Button/colors/font_color_pressed = Color( 1, 1, 1, 1 )
Button/constants/hseparation = 0
Button/fonts/font = null
Button/styles/disabled = SubResource( 4 )
Button/styles/focus = SubResource( 5 )
Button/styles/hover = SubResource( 6 )
Button/styles/normal = SubResource( 7 )
Button/styles/pressed = SubResource( 8 )
Panel/styles/panel = SubResource( 9 )
Panel/styles/panelf = SubResource( 9 )
Panel/styles/panelnc = SubResource( 9 )
TooltipLabel/colors/font_color = Color( 0.105882, 0.0823529, 0.0588235, 1 )
TooltipLabel/colors/font_color_shadow = Color( 0, 0, 0, 0.1 )
TooltipLabel/constants/shadow_offset_x = 1
TooltipLabel/constants/shadow_offset_y = 1
TooltipLabel/fonts/font = SubResource( 10 )
TooltipPanel/styles/panel = SubResource( 11 )
_sections_unfolded = [ "Button/colors", "Button/styles", "Panel", "Panel/icons", "Panel/styles", "Panel/styles/panel", "TooltipLabel/colors", "TooltipLabel/fonts", "TooltipLabel/fonts/font", "TooltipPanel/styles", "TooltipPanel/styles/panel", "default_font" ]

[sub_resource type="DynamicFont" id=14]

size = 28
outline_size = 1
outline_color = Color( 0, 0, 0, 1 )
use_mipmaps = false
use_filter = false
extra_spacing_top = 10
extra_spacing_bottom = 10
font_data = ExtResource( 10 )
_sections_unfolded = [ "Extra Spacing", "Font", "Settings" ]

[sub_resource type="InputEventKey" id=15]

device = 0
alt = false
shift = false
control = false
meta = false
command = false
pressed = true
scancode = 71
unicode = 0
echo = false

[sub_resource type="ShortCut" id=16]

shortcut = SubResource( 15 )
_sections_unfolded = [ "shortcut" ]

[sub_resource type="InputEventKey" id=17]

device = 0
alt = false
shift = false
control = false
meta = false
command = false
pressed = true
scancode = 82
unicode = 0
echo = false

[sub_resource type="ShortCut" id=18]

shortcut = SubResource( 17 )
_sections_unfolded = [ "shortcut" ]

[sub_resource type="InputEventKey" id=19]

device = 0
alt = false
shift = false
control = false
meta = false
command = false
pressed = true
scancode = 69
unicode = 0
echo = false

[sub_resource type="ShortCut" id=20]

shortcut = SubResource( 19 )
_sections_unfolded = [ "shortcut" ]

[sub_resource type="InputEventKey" id=21]

device = 0
alt = false
shift = false
control = false
meta = false
command = false
pressed = true
scancode = 84
unicode = 0
echo = false

[sub_resource type="ShortCut" id=22]

shortcut = SubResource( 21 )
_sections_unfolded = [ "shortcut" ]

[sub_resource type="BoxShape" id=26]

margin = 0.04
extents = Vector3( 2, 1, 1 )

[sub_resource type="BoxShape" id=29]

margin = 0.04
extents = Vector3( 4, 1, 1 )

[sub_resource type="SpatialMaterial" id=23]

render_priority = 0
flags_transparent = false
flags_unshaded = false
flags_vertex_lighting = false
flags_no_depth_test = false
flags_use_point_size = false
flags_world_triplanar = false
flags_fixed_size = false
flags_albedo_tex_force_srgb = false
flags_do_not_receive_shadows = false
flags_disable_ambient_light = false
flags_ensure_correct_normals = false
vertex_color_use_as_albedo = false
vertex_color_is_srgb = false
params_diffuse_mode = 0
params_specular_mode = 0
params_blend_mode = 0
params_cull_mode = 2
params_depth_draw_mode = 0
params_line_width = 1.0
params_point_size = 1.0
params_billboard_mode = 0
params_billboard_keep_scale = false
params_grow = false
params_use_alpha_scissor = false
albedo_color = Color( 1, 1, 1, 1 )
metallic = 0.0
metallic_specular = 0.5
metallic_texture_channel = 0
roughness = 1.0
roughness_texture_channel = 0
emission_enabled = false
normal_enabled = false
rim_enabled = false
clearcoat_enabled = false
anisotropy_enabled = false
ao_enabled = false
depth_enabled = false
subsurf_scatter_enabled = false
transmission_enabled = false
refraction_enabled = false
detail_enabled = false
uv1_scale = Vector3( 1, 1, 1 )
uv1_offset = Vector3( 0, 0, 0 )
uv1_triplanar = false
uv1_triplanar_sharpness = 1.0
uv2_scale = Vector3( 1, 1, 1 )
uv2_offset = Vector3( 0, 0, 0 )
uv2_triplanar = false
uv2_triplanar_sharpness = 1.0
proximity_fade_enable = false
distance_fade_mode = 0
_sections_unfolded = [ "Parameters" ]

[sub_resource type="PlaneMesh" id=24]

material = SubResource( 23 )
custom_aabb = AABB( 0, 0, 0, 0, 0, 0 )
flip_faces = false
size = Vector2( 16, 12 )
subdivide_width = 0
subdivide_depth = 0

[sub_resource type="PlaneMesh" id=25]

material = SubResource( 23 )
custom_aabb = AABB( 0, 0, 0, 0, 0, 0 )
flip_faces = false
size = Vector2( 16, 16 )
subdivide_width = 0
subdivide_depth = 0

[sub_resource type="BoxShape" id=27]

margin = 0.04
extents = Vector3( 3, 1, 1 )

[sub_resource type="BoxShape" id=28]

margin = 0.04
extents = Vector3( 1, 1, 4 )

[node name="Root" type="Spatial"]
pause_mode = 2
script = ExtResource( 1 )
_sections_unfolded = [ "Pause", "Script", "Transform" ]

[node name="HUD" type="Control" parent="."]
anchor_left = 0.0
anchor_top = 0.0
anchor_right = 1.0
anchor_bottom = 1.0
rect_pivot_offset = Vector2( 0, 0 )
rect_clip_content = false
mouse_filter = 0
mouse_default_cursor_shape = 0
size_flags_horizontal = 1
size_flags_vertical = 1

[node name="HP" type="Label" parent="HUD"]
anchor_left = 0.5
anchor_top = 0.0
anchor_right = 0.5
anchor_bottom = 0.0
margin_left = -69.0
margin_top = 30.0
margin_right = 131.0
margin_bottom = 65.0
rect_pivot_offset = Vector2( 0, 0 )
rect_clip_content = false
mouse_filter = 2
mouse_default_cursor_shape = 0
size_flags_horizontal = 1
size_flags_vertical = 4
custom_fonts/font = SubResource( 1 )
percent_visible = 1.0
lines_skipped = 0
max_lines_visible = -1
_sections_unfolded = [ "Margin", "Rect", "Theme", "custom_fonts", "custom_fonts/font" ]

[node name="EXP" type="Label" parent="HUD"]
anchor_left = 0.0
anchor_top = 0.0
anchor_right = 0.0
anchor_bottom = 0.0
margin_left = 30.0
margin_top = 30.0
margin_right = 286.0
margin_bottom = 72.0
rect_pivot_offset = Vector2( 0, 0 )
rect_clip_content = false
mouse_filter = 2
mouse_default_cursor_shape = 0
size_flags_horizontal = 1
size_flags_vertical = 4
custom_fonts/font = SubResource( 1 )
percent_visible = 1.0
lines_skipped = 0
max_lines_visible = -1
_sections_unfolded = [ "Margin", "Rect", "Theme", "custom_fonts" ]

[node name="Coins" type="Label" parent="HUD"]
anchor_left = 1.0
anchor_top = 0.0
anchor_right = 1.0
anchor_bottom = 0.0
margin_left = -230.0
margin_top = 30.0
margin_right = -30.0
margin_bottom = 72.0
rect_pivot_offset = Vector2( 0, 0 )
rect_clip_content = false
mouse_filter = 2
mouse_default_cursor_shape = 0
size_flags_horizontal = 1
size_flags_vertical = 4
custom_fonts/font = SubResource( 1 )
percent_visible = 1.0
lines_skipped = 0
max_lines_visible = -1
_sections_unfolded = [ "Margin", "Rect", "Theme", "custom_fonts" ]

[node name="PauseOverlay" type="ColorRect" parent="."]
pause_mode = 2
anchor_left = 0.0
anchor_top = 0.0
anchor_right = 1.0
anchor_bottom = 1.0
margin_left = 1.0
margin_right = 1.0
grow_horizontal = 2
grow_vertical = 2
rect_pivot_offset = Vector2( 0, 0 )
rect_clip_content = false
mouse_filter = 0
mouse_default_cursor_shape = 0
size_flags_horizontal = 3
size_flags_vertical = 3
color = Color( 0, 0, 0, 0.752941 )
_sections_unfolded = [ "Mouse", "Pause", "Theme", "Visibility" ]

[node name="Shadow" type="Panel" parent="PauseOverlay"]
anchor_left = 0.5
anchor_top = 0.5
anchor_right = 0.5
anchor_bottom = 0.5
margin_left = -160.0
margin_top = -178.5
margin_right = 160.0
margin_bottom = 178.5
rect_pivot_offset = Vector2( 0, 0 )
rect_clip_content = false
mouse_filter = 0
mouse_default_cursor_shape = 0
size_flags_horizontal = 3
size_flags_vertical = 3
theme = SubResource( 3 )
_sections_unfolded = [ "Rect", "Theme", "texture", "theme" ]

[node name="Border" type="ColorRect" parent="PauseOverlay/Shadow"]
anchor_left = 0.5
anchor_top = 0.5
anchor_right = 0.5
anchor_bottom = 0.5
margin_left = -135.0
margin_top = -155.0
margin_right = 134.0
margin_bottom = 136.0
rect_pivot_offset = Vector2( 0, 0 )
rect_clip_content = false
mouse_filter = 0
mouse_default_cursor_shape = 0
size_flags_horizontal = 1
size_flags_vertical = 1
color = Color( 0.270588, 0.235294, 0.188235, 1 )
_sections_unfolded = [ "Margin" ]

[node name="PauseMenu" type="Panel" parent="PauseOverlay/Shadow/Border"]
anchor_left = 0.5
anchor_top = 0.5
anchor_right = 0.5
anchor_bottom = 0.5
margin_left = -132.5
margin_top = -143.5
margin_right = 132.5
margin_bottom = 143.5
rect_pivot_offset = Vector2( 0, 0 )
rect_clip_content = false
mouse_filter = 0
mouse_default_cursor_shape = 0
size_flags_horizontal = 1
size_flags_vertical = 1
theme = SubResource( 13 )
_sections_unfolded = [ "Anchor", "Margin", "Material", "Popup", "Theme" ]

[node name="ButtonContainer" type="VBoxContainer" parent="PauseOverlay/Shadow/Border/PauseMenu"]
anchor_left = 0.5
anchor_top = 0.5
anchor_right = 0.5
anchor_bottom = 0.5
margin_left = -109.5
margin_top = -122.5
margin_right = 109.5
margin_bottom = 122.5
rect_pivot_offset = Vector2( 0, 0 )
rect_clip_content = false
mouse_filter = 1
mouse_default_cursor_shape = 0
size_flags_horizontal = 1
size_flags_vertical = 1
custom_constants/separation = 6
alignment = 1
_sections_unfolded = [ "Anchor", "Grow Direction", "Margin", "Theme", "custom_constants", "theme" ]

[node name="PauseHeader" type="Label" parent="PauseOverlay/Shadow/Border/PauseMenu/ButtonContainer"]
anchor_left = 0.0
anchor_top = 0.0
anchor_right = 0.0
anchor_bottom = 0.0
margin_top = 24.0
margin_right = 219.0
margin_bottom = 73.0
rect_pivot_offset = Vector2( 0, 0 )
rect_clip_content = false
mouse_filter = 2
mouse_default_cursor_shape = 0
size_flags_horizontal = 1
size_flags_vertical = 4
custom_fonts/font = SubResource( 14 )
text = "Paused"
align = 1
percent_visible = 1.0
lines_skipped = 0
max_lines_visible = -1
_sections_unfolded = [ "custom_constants", "custom_fonts", "custom_fonts/font" ]

[node name="ResumeButton" type="Button" parent="PauseOverlay/Shadow/Border/PauseMenu/ButtonContainer"]
anchor_left = 0.0
anchor_top = 0.0
anchor_right = 0.0
anchor_bottom = 0.0
margin_top = 79.0
margin_right = 219.0
margin_bottom = 122.0
rect_pivot_offset = Vector2( 0, 0 )
rect_clip_content = false
focus_mode = 2
mouse_filter = 0
mouse_default_cursor_shape = 0
size_flags_horizontal = 1
size_flags_vertical = 1
toggle_mode = false
enabled_focus_mode = 2
shortcut = SubResource( 16 )
group = null
flat = false
align = 1
_sections_unfolded = [ "Anchor", "Margin", "Theme", "custom_colors", "custom_constants", "custom_styles", "custom_styles/normal", "shortcut" ]

[node name="RichTextLabel" type="RichTextLabel" parent="PauseOverlay/Shadow/Border/PauseMenu/ButtonContainer/ResumeButton"]
anchor_left = 0.0
anchor_top = 0.0
anchor_right = 1.0
anchor_bottom = 1.0
margin_left = 2.0
margin_top = 5.0
margin_right = -1.0
margin_bottom = -3.0
grow_horizontal = 2
grow_vertical = 2
rect_pivot_offset = Vector2( 0, 0 )
rect_clip_content = true
mouse_filter = 2
mouse_default_cursor_shape = 0
size_flags_horizontal = 12
size_flags_vertical = 12
bbcode_enabled = true
bbcode_text = "[center]Back to [color=#ffff40]G[/color]ame[/center]"
visible_characters = -1
percent_visible = 1.0
meta_underlined = true
tab_size = 4
text = "Back to Game"
scroll_active = true
scroll_following = false
selection_enabled = false
override_selected_font_color = false
_sections_unfolded = [ "BBCode", "Mouse", "Size Flags" ]

[node name="RestartButton" type="Button" parent="PauseOverlay/Shadow/Border/PauseMenu/ButtonContainer"]
anchor_left = 0.0
anchor_top = 0.0
anchor_right = 0.0
anchor_bottom = 0.0
margin_top = 128.0
margin_right = 219.0
margin_bottom = 171.0
rect_pivot_offset = Vector2( 0, 0 )
rect_clip_content = false
focus_mode = 2
mouse_filter = 0
mouse_default_cursor_shape = 0
size_flags_horizontal = 1
size_flags_vertical = 1
toggle_mode = false
enabled_focus_mode = 2
shortcut = SubResource( 18 )
group = null
flat = false
align = 1
_sections_unfolded = [ "shortcut" ]

[node name="RichTextLabel2" type="RichTextLabel" parent="PauseOverlay/Shadow/Border/PauseMenu/ButtonContainer/RestartButton"]
anchor_left = 0.5
anchor_top = 0.5
anchor_right = 0.5
anchor_bottom = 0.5
margin_left = -95.0
margin_top = -17.0
margin_right = 96.0
margin_bottom = 26.0
grow_horizontal = 2
grow_vertical = 2
rect_pivot_offset = Vector2( 0, 0 )
rect_clip_content = true
mouse_filter = 2
mouse_default_cursor_shape = 0
size_flags_horizontal = 12
size_flags_vertical = 12
bbcode_enabled = true
bbcode_text = "[center][color=#ffff40]R[/color]estart Level[/center]"
visible_characters = -1
percent_visible = 1.0
meta_underlined = true
tab_size = 4
text = "Restart Level"
scroll_active = true
scroll_following = false
selection_enabled = false
override_selected_font_color = false
_sections_unfolded = [ "Mouse" ]

[node name="EditButton" type="Button" parent="PauseOverlay/Shadow/Border/PauseMenu/ButtonContainer"]
visible = false
anchor_left = 0.0
anchor_top = 0.0
anchor_right = 0.0
anchor_bottom = 0.0
margin_top = 153.0
margin_right = 219.0
margin_bottom = 196.0
rect_pivot_offset = Vector2( 0, 0 )
rect_clip_content = false
focus_mode = 2
mouse_filter = 0
mouse_default_cursor_shape = 0
size_flags_horizontal = 1
size_flags_vertical = 1
toggle_mode = false
enabled_focus_mode = 2
shortcut = SubResource( 20 )
group = null
flat = false
align = 1
_sections_unfolded = [ "shortcut" ]

[node name="RichTextLabel3" type="RichTextLabel" parent="PauseOverlay/Shadow/Border/PauseMenu/ButtonContainer/EditButton"]
anchor_left = 0.0
anchor_top = 0.0
anchor_right = 1.0
anchor_bottom = 1.0
margin_top = 5.0
margin_bottom = 5.0
grow_horizontal = 2
grow_vertical = 2
rect_pivot_offset = Vector2( 0, 0 )
rect_clip_content = true
mouse_filter = 2
mouse_default_cursor_shape = 0
size_flags_horizontal = 12
size_flags_vertical = 12
bbcode_enabled = true
bbcode_text = "[center]Return to [color=#ffff40]E[/color]ditor[/center]"
visible_characters = -1
percent_visible = 1.0
meta_underlined = false
tab_size = 4
text = "Return to Editor"
scroll_active = true
scroll_following = false
selection_enabled = false
override_selected_font_color = false
_sections_unfolded = [ "BBCode", "Mouse" ]

[node name="QuitButton" type="Button" parent="PauseOverlay/Shadow/Border/PauseMenu/ButtonContainer"]
anchor_left = 0.0
anchor_top = 0.0
anchor_right = 0.0
anchor_bottom = 0.0
margin_top = 177.0
margin_right = 219.0
margin_bottom = 220.0
rect_pivot_offset = Vector2( 0, 0 )
rect_clip_content = false
focus_mode = 2
mouse_filter = 0
mouse_default_cursor_shape = 0
size_flags_horizontal = 1
size_flags_vertical = 1
toggle_mode = false
enabled_focus_mode = 2
shortcut = SubResource( 22 )
group = null
flat = false
align = 1
_sections_unfolded = [ "shortcut" ]

[node name="RichTextLabel3" type="RichTextLabel" parent="PauseOverlay/Shadow/Border/PauseMenu/ButtonContainer/QuitButton"]
anchor_left = 0.0
anchor_top = 0.0
anchor_right = 1.0
anchor_bottom = 1.0
margin_top = 5.0
margin_bottom = 5.0
grow_horizontal = 2
grow_vertical = 2
rect_pivot_offset = Vector2( 0, 0 )
rect_clip_content = true
mouse_filter = 2
mouse_default_cursor_shape = 0
size_flags_horizontal = 12
size_flags_vertical = 12
bbcode_enabled = true
bbcode_text = "[center]Quit to [color=#ffff40]T[/color]itle[/center]"
visible_characters = -1
percent_visible = 1.0
meta_underlined = false
tab_size = 4
text = "Quit to Title"
scroll_active = true
scroll_following = false
selection_enabled = false
override_selected_font_color = false
_sections_unfolded = [ "BBCode", "Mouse" ]

[node name="PauseTween" type="Tween" parent="."]
repeat = false
playback_process_mode = 1
playback_speed = 1.0
playback/active = false
playback/repeat = false
playback/speed = 1.0

[node name="Playfield" type="Spatial" parent="."]
pause_mode = 1
_sections_unfolded = [ "Pause" ]

[node name="Player" parent="Playfield" instance=ExtResource( 11 )]
transform = Transform( 1, 0, 0, 0, 1, 0, 0, 0, 1, -27, 1, 65 )
_sections_unfolded = [ "Axis Lock", "Collision", "Pause", "Transform", "collision", "physics_material_override" ]

[node name="Flashlight" type="OmniLight" parent="Playfield/Player"]
transform = Transform( 1, 0, 0, 0, 1, 0, 0, 0, 1, 0, 0, 0 )
layers = 1
light_color = Color( 1, 1, 1, 1 )
light_energy = 2.0
light_indirect_energy = 1.0
light_negative = false
light_specular = 0.5
light_bake_mode = 1
light_cull_mask = -1
shadow_enabled = true
shadow_color = Color( 0, 0, 0, 1 )
shadow_bias = 1.0
shadow_contact = 0.0
shadow_reverse_cull_face = false
editor_only = false
omni_range = 8.0
omni_attenuation = 1.0
omni_shadow_mode = 1
omni_shadow_detail = 1
_sections_unfolded = [ "Light", "Omni", "Shadow" ]

[node name="Listener" type="Listener" parent="Playfield/Player"]
current = true

[node name="GridMap" type="GridMap" parent="Playfield"]
mesh_library = ExtResource( 12 )
cell_size = Vector3( 2, 2, 2 )
cell_octant_size = 8
cell_center_x = true
cell_center_y = true
cell_center_z = true
cell_scale = 1.0
collision_layer = 2
collision_mask = 0
data = {
"cells": PoolIntArray( 0, 0, 1, 1, 0, 1, 2, 0, 1, 3, 0, 0, 65509, 0, -536870912, 65510, 0, 0, 65511, 0, 1, 65512, 0, 1, 65513, 0, 1, 65514, 0, 1, 65515, 0, 1, 65516, 0, 1, 65517, 0, 0, 65518, 0, -536870912, 65527, 0, 0, 65528, 0, 1, 65529, 0, 1, 65530, 0, 1, 65531, 0, 1, 65532, 0, 1, 65533, 0, 536870913, 65534, 0, -536870911, 65535, 0, 536870913, 65539, 0, 0, 131045, 0, 0, 131046, 0, -536870912, 131049, 0, 2, 131053, 0, 0, 131054, 0, 0, 131063, 0, -536870912, -27, 0, 0, -26, 0, 0, -19, 0, 0, -18, 0, 536870912, 0, 1, 1, 1, 1, -536870911, 2, 1, 1, 3, 1, 0, 65510, 1, 0, 65511, 1, 0, 65512, 1, 0, 65513, 1, 0, 65514, 1, 0, 65515, 1, 0, 65516, 1, 0, 65517, 1, -536870912, 65527, 1, 0, 65528, 1, 1, 65529, 1, 536870913, 65530, 1, 1, 65531, 1, 536870913, 65532, 1, 1, 65533, 1, 1, 65534, 1, 1, 65535, 1, -536870911, 65539, 1, 0, 131046, 1, 0, 131047, 1, 0, 131048, 1, 0, 131049, 1, 2, 131050, 1, 0, 131051, 1, 0, 131052, 1, -536870912, 131053, 1, 0, 131063, 1, 0, -26, 1, 0, -25, 1, 0, -24, 1, -536870912, -23, 1, 0, -22, 1, 0, -21, 1, 0, -20, 1, 0, -19, 1, -536870912, 0, 2, 1, 1, 2, 1, 2, 2, 1, 3, 2, -536870912, 65513, 2, 2, 65527, 2, 0, 65528, 2, 1, 65529, 2, 1, 65530, 2, -536870911, 65531, 2, 1, 65532, 2, 1, 65533, 2, 1, 65534, 2, 1, 65535, 2, 1, 65537, 2, 2, 65539, 2, 0, 131049, 2, 2, 131063, 2, 0, 131065, 2, 2, -23, 2, 2, 0, 3, 1, 1, 3, -536870911, 2, 3, 1, 3, 3, 0, 65527, 3, 0, 65528, 3, 1, 65529, 3, 1, 65530, 3, 1, 65531, 3, 1, 65532, 3, 1, 65533, 3, 1, 65534, 3, -536870911, 65535, 3, 1, 65539, 3, 0, 131063, 3, 0, 0, 4, -536870911, 1, 4, 0, 2, 4, 0, 3, 4, 0, 65527, 4, -536870912, 65528, 4, 0, 65529, 4, -536870912, 65530, 4, 0, 65531, 4, 0, 65532, 4, 1, 65533, 4, 1, 65534, 4, 1, 65535, 4, 1, 65536, 4, 0, 65537, 4, 0, 65538, 4, 0, 65539, 4, -536870912, 131063, 4, 0, 131064, 4, 0, 131065, 4, 0, 131066, 4, 0, 131067, 4, 0, 131068, 4, 0, 131069, 4, 0, 131071, 4, -536870912, 0, 5, 1, 1, 5, 0, 65531, 5, 0, 65532, 5, 1, 65533, 5, 1, 65534, 5, 1, 65535, 5, 1, 65537, 5, 0, 131067, 5, 0, 0, 6, 1, 1, 6, 0, 65531, 6, 0, 65532, 6, 1, 65533, 6, 1, 65534, 6, 1, 65535, 6, 1, 65537, 6, 0, 131067, 6, -536870912, 0, 7, 1, 1, 7, 0, 65531, 7, -536870912, 65532, 7, 1, 65533, 7, 1, 65534, 7, 1, 65535, 7, 1, 65537, 7, 0, 131067, 7, 0, 131070, 7, 2, 0, 8, 1, 1, 8, 0, 65531, 8, 0, 65532, 8, 1, 65533, 8, -536870911, 65534, 8, 1, 65535, 8, -536870911, 65537, 8, 0, 131067, 8, -536870912, 0, 9, 1, 1, 9, 0, 65531, 9, 0, 65532, 9, 1, 65533, 9, 1, 65534, 9, 1, 65535, 9, 1610612737, 65537, 9, 0, 131067, 9, 0, 0, 10, 1048577, 1, 10, -536870912, 2, 10, 0, 3, 10, 0, 65529, 10, 0, 65530, 10, 0, 65531, 10, 0, 65532, 10, 0, 65533, 10, -536870912, 65534, 10, 0, 65535, 10, 0, 65537, 10, -536870912, 65538, 10, 0, 65539, 10, 0, 131065, 10, 0, 131066, 10, 0, 131067, 10, 0, 131068, 10, 0, 131069, 10, 0, 131070, 10, 0, 131071, 10, 0, -65536, 10, -535822335, -65535, 10, 0, -65534, 10, -536870912, -65533, 10, 0, -7, 10, 0, -6, 10, -536870912, -5, 10, 0, -4, 10, 0, -3, 10, -536870912, -2, 10, 0, -1, 10, 0, 0, 11, 1611661313, 3, 11, 0, 65529, 11, 0, 65532, 11, 1441795, 65534, 11, 1048577, 65535, 11, -535822335, 65539, 11, 0, 131065, 11, 0, -65536, 11, 1, -65535, 11, 1, -65534, 11, -536870911, -65533, 11, 0, -7, 11, 0, -6, 11, 1, -5, 11, 1, -4, 11, 1, -3, 11, -536870911, -2, 11, 1, -1, 11, 1, 3, 12, 0, 65529, 12, 0, 65539, 12, 0, 131065, 12, 0, -65536, 12, 1, -65535, 12, 1, -65534, 12, -536870911, -65533, 12, 0, -7, 12, 0, -6, 12, -536870911, -5, 12, 1, -4, 12, 1, -3, 12, 1, -2, 12, 1, -1, 12, -536870911, 3, 13, 0, 65529, 13, 0, 65539, 13, 0, 131065, 13, 0, -65536, 13, -536870911, -65535, 13, 1, -65534, 13, 1, -65533, 13, 0, -7, 13, 0, -6, 13, 1, -5, 13, 1, -4, 13, 1, -3, 13, -1610612735, -2, 13, 1, -1, 13, 1, 3, 14, -536870912, 65529, 14, 0, 65539, 14, 0, 131065, 14, 0, -65536, 14, 1, -65535, 14, 1, -65534, 14, 1, -65533, 14, 0, -7, 14, 0, -6, 14, 1, -5, 14, 1610612737, -4, 14, 1, -3, 14, -536870911, -2, 14, 1, -1, 14, 1, 0, 15, 0, 2, 15, 0, 3, 15, 0, 4, 15, -536870912, 5, 15, 0, 6, 15, 0, 7, 15, 0, 8, 15, -536870912, 9, 15, 0, 10, 15, 0, 11, 15, 0, 12, 15, 0, 65517, 15, 0, 65518, 15, 0, 65519, 15, 0, 65520, 15, 0, 65521, 15, -536870912, 65522, 15, 0, 65523, 15, 0, 65524, 15, 0, 65525, 15, 1441796, 65526, 15, 1441796, 65527, 15, -535429116, 65528, 15, 0, 65529, 15, 0, 65530, 15, -536870912, 65531, 15, 0, 65532, 15, -536870912, 65533, 15, 0, 65534, 15, 0, 65535, 15, 1073741824, 65539, 15, 0, 131065, 15, 0, -65536, 15, 0, -65535, 15, 1, -65534, 15, 0, -65533, 15, 0, -65532, 15, -536870912, -65531, 15, 0, -65530, 15, 0, -65529, 15, 0, -65528, 15, 0, -65527, 15, 0, -65526, 15, -536870912, -65525, 15, 0, -65524, 15, -536870912, -19, 15, 0, -18, 15, 0, -17, 15, 0, -16, 15, 0, -15, 15, 0, -14, 15, 0, -13, 15, 0, -12, 15, 0, -11, 15, 0, -10, 15, 0, -9, 15, -536870912, -8, 15, 0, -7, 15, 1610612736, -6, 15, 0, -5, 15, 0, -4, 15, 0, -3, 15, -536870912, -2, 15, 0, -1, 15, 0, 12, 16, 0, 65517, 16, 0, -65536, 16, 1, -65535, 16, 1, -65534, 16, -536870911, -65533, 16, 1, -65532, 16, 1, -65531, 16, 1, -65530, 16, 1, -65529, 16, 1, -65528, 16, 1, -65527, 16, 1, -65526, 16, -536870911, -65525, 16, 1, -65524, 16, 0, -19, 16, -536870912, -18, 16, 1, -17, 16, 1, -16, 16, 1, -15, 16, 1, -14, 16, 1, -13, 16, 1, -12, 16, 1, -11, 16, 1, -10, 16, 1, -9, 16, -536870911, -8, 16, 1, -7, 16, 1, -6, 16, 1, -5, 16, 1, -4, 16, -536870911, -3, 16, 1, -2, 16, -536870911, -1, 16, 1, 12, 17, 655364, 65517, 17, -1073741824, -65536, 17, 1, -65535, 17, 1, -65534, 17, 1, -65533, 17, 1, -65532, 17, 1, -65531, 17, 1, -65530, 17, 1, -65529, 17, 1, -65528, 17, 1, -65527, 17, 1, -65526, 17, 1, -65525, 17, -536870911, -65524, 17, 0, -19, 17, 0, -18, 17, 1, -17, 17, 1, -16, 17, 1, -15, 17, 1, -14, 17, 1, -13, 17, 1, -12, 17, 1, -11, 17, 1, -10, 17, -536870911, -9, 17, 1, -8, 17, 1, -7, 17, 1, -6, 17, 1, -5, 17, 1, -4, 17, 1, -3, 17, -536870911, -2, 17, 1, -1, 17, 1, 12, 18, -536870912, 65517, 18, 0, -65536, 18, -536870911, -65535, 18, 1, -65534, 18, 1, -65533, 18, 1, -65532, 18, 1, -65531, 18, 1, -65530, 18, 1, -65529, 18, 1, -65528, 18, 1, -65527, 18, -536870911, -65526, 18, 1, -65525, 18, 1, -65524, 18, 0, -19, 18, 0, -18, 18, 1, -17, 18, 1, -16, 18, -536870911, -15, 18, 1, -14, 18, 1, -13, 18, 1, -12, 18, 1, -11, 18, 1, -10, 18, 1, -9, 18, 1, -8, 18, 1, -7, 18, 1, -6, 18, 1, -5, 18, 1, -4, 18, 1, -3, 18, 1, -2, 18, 1, -1, 18, 1610612737, 12, 19, 0, 65517, 19, 0, -65536, 19, 1, -65535, 19, 1, -65534, 19, 1, -65533, 19, 1, -65532, 19, 1, -65531, 19, 1, -65530, 19, 1, -65529, 19, 1, -65528, 19, 1, -65527, 19, 1, -65526, 19, 1, -65525, 19, 1, -65524, 19, 1610612736, -19, 19, 0, -18, 19, 1, -17, 19, 1610612737, -16, 19, 1, -15, 19, 1, -14, 19, 1, -13, 19, 1610612737, -12, 19, 1, -11, 19, 1, -10, 19, -536870911, -9, 19, 1, -8, 19, 1, -7, 19, 1, -6, 19, 1, -5, 19, 1, -4, 19, 1, -3, 19, 536870913, -2, 19, 1, -1, 19, -536870911, 0, 20, 0, 1, 20, 0, 2, 20, 0, 3, 20, 0, 4, 20, 1441796, 5, 20, 0, 6, 20, 0, 7, 20, 0, 8, 20, 0, 9, 20, 0, 11, 20, 0, 12, 20, 0, 65517, 20, -536870912, 65518, 20, 0, 65519, 20, 0, 65520, 20, 0, 65524, 20, 0, 65525, 20, 0, 65526, 20, 0, 65527, 20, 0, 65529, 20, 0, 65530, 20, 0, 65531, 20, 0, 65532, 20, 0, 65533, 20, 0, 65534, 20, 1441796, 65535, 20, 0, -65536, 20, -536870912, -65535, 20, 0, -65534, 20, -536870912, -65533, 20, 536870912, -65532, 20, 1, -65531, 20, 536870912, -65530, 20, 0, -65529, 20, 0, -65528, 20, 0, -65527, 20, 0, -65526, 20, 1, -65525, 20, 0, -65524, 20, 0, -19, 20, -536870912, -18, 20, 0, -17, 20, 0, -16, 20, 0, -15, 20, -536870911, -14, 20, 1, -13, 20, 1, -12, 20, 0, -11, 20, 0, -10, 20, 0, -9, 20, 0, -8, 20, 1, -7, 20, -536870912, -6, 20, 0, -5, 20, 0, -4, 20, 0, -3, 20, -536870912, -2, 20, 536870913, -1, 20, 0, 0, 21, 0, 6, 21, 0, 12, 21, 0, 65520, 21, -536870912, 65524, 21, 0, 65530, 21, 0, -65536, 21, 0, -65535, 21, -536870911, -65534, 21, 1, -65533, 21, 1, -65532, 21, -536870911, -65531, 21, 1, -65530, 21, 0, -65529, 21, 1, -65528, 21, -536870911, -65527, 21, 1, -65526, 21, 1, -65525, 21, 1, -65524, 21, 0, -16, 21, 0, -15, 21, 1, -14, 21, 536870913, -13, 21, 1, -12, 21, 0, -11, 21, 1, -10, 21, 1, -9, 21, 1, -8, 21, 1, -7, 21, 1, -6, 21, -536870912, -5, 21, 1, -4, 21, 1, -3, 21, 1, -2, 21, 1, -1, 21, 536870913, 0, 22, 0, 6, 22, 0, 12, 22, 0, 65520, 22, -536870912, 65524, 22, 0, 65530, 22, 0, -65536, 22, 0, -65535, 22, 1, -65534, 22, 536870913, -65533, 22, 1, -65532, 22, 536870913, -65531, 22, 1, -65530, 22, 0, -65529, 22, -536870911, -65528, 22, 1, -65527, 22, 1, -65526, 22, 1, -65525, 22, -536870911, -65524, 22, 0, -16, 22, 0, -15, 22, 1, -14, 22, 1, -13, 22, -536870911, -12, 22, 536870912, -11, 22, -536870911, -10, 22, -536870911, -9, 22, 1, -8, 22, 1, -7, 22, 1, -6, 22, 0, -5, 22, 1, -4, 22, 1, -3, 22, 1, -2, 22, 1, -1, 22, 1, 12, 23, 0, 65520, 23, 0, 65524, 23, 0, 65530, 23, 0, -65536, 23, -536870911, -65535, 23, 1, -65534, 23, 1, -65533, 23, 1, -65532, 23, 1, -65531, 23, 1, -65530, 23, 536870913, -65529, 23, 1, -65528, 23, 1, -65527, 23, 1, -65526, 23, 1, -65525, 23, 1, -65524, 23, 0, -16, 23, 536870912, -15, 23, 1, -14, 23, -536870911, -13, 23, 1, -12, 23, 0, -11, 23, 1, -10, 23, 1, -9, 23, 1, -8, 23, -536870911, -7, 23, 1, -6, 23, -536870912, -5, 23, 1, -4, 23, 1, -3, 23, 1, -2, 23, 1, -1, 23, 1, 0, 24, -536870912, 6, 24, 536870912, 12, 24, 0, 65520, 24, -536870912, 65524, 24, 0, 65530, 24, 0, -65536, 24, 536870912, -65535, 24, 1, -65534, 24, 1, -65533, 24, 1, -65532, 24, 1, -65531, 24, -536870911, -65530, 24, 0, -65529, 24, 1, -65528, 24, 1, -65527, 24, -536870911, -65526, 24, 1, -65525, 24, 536870913, -65524, 24, 0, -16, 24, 0, -15, 24, 1, -14, 24, 1, -13, 24, 1, -12, 24, 0, -11, 24, 1, -10, 24, 1, -9, 24, -536870911, -8, 24, 1, -7, 24, 1, -6, 24, 0, -5, 24, 1, -4, 24, 1, -3, 24, 1, -2, 24, -536870911, -1, 24, 536870913, 0, 25, 0, 1, 25, 0, 2, 25, 536870912, 3, 25, 0, 4, 25, 0, 5, 25, 0, 6, 25, 536870912, 7, 25, 0, 8, 25, 0, 9, 25, 0, 10, 25, 0, 11, 25, -536870912, 12, 25, 0, 65520, 25, 536870912, 65524, 25, -536870912, 65525, 25, 0, 65526, 25, 0, 65527, 25, 0, 65528, 25, 0, 65529, 25, -536870912, 65530, 25, 0, 65531, 25, 0, 65532, 25, 1610612736, 65533, 25, -536870912, 65534, 25, 0, 65535, 25, 0, -65536, 25, 0, -65535, 25, 0, -65534, 25, 0, -65533, 25, 0, -65532, 25, 0, -65531, 25, 0, -65530, 25, 0, -65529, 25, 0, -65528, 25, 0, -65527, 25, -536870912, -65526, 25, -536870912, -65525, 25, 0, -65524, 25, 0, -16, 25, -536870912, -15, 25, 1, -14, 25, 1, -13, 25, 536870913, -12, 25, 0, -11, 25, 0, -10, 25, 1610612736, -9, 25, 0, -8, 25, 0, -7, 25, 0, -6, 25, -536870912, -5, 25, -536870912, -4, 25, 0, -3, 25, -536870912, -2, 25, 0, -1, 25, 0, 65520, 26, 0, 65524, 26, 0, -16, 26, 0, -15, 26, -536870911, -14, 26, -536870911, -13, 26, 536870913, -12, 26, 0, 65520, 27, 1610612736, 65524, 27, 1610612736, -16, 27, -536870912, -15, 27, -536870911, -14, 27, 1, -13, 27, 1, -12, 27, 0, 65520, 28, 0, 65524, 28, -536870912, -16, 28, 0, -15, 28, 1, -14, 28, 1, -13, 28, 1, -12, 28, 0, 65520, 29, 0, 65524, 29, 0, -16, 29, 0, -15, 29, 1, -14, 29, 1, -13, 29, 1, -12, 29, 1610612736, 65520, 30, 0, 65524, 30, 0, -16, 30, 0, -15, 30, 1, -14, 30, 1, -13, 30, 1, -12, 30, 0, 65520, 31, 0, 65524, 31, 0, -16, 31, -536870912, -15, 31, 1, -14, 31, 1, -13, 31, 1, -12, 31, 0, 65520, 32, 0, 65524, 32, -536870912, -16, 32, 0, -15, 32, 1, -14, 32, 1, -13, 32, 1610612737, -12, 32, 0, 65520, 33, 0, 65524, 33, 0, -16, 33, 0, -15, 33, 1, -14, 33, 1, -13, 33, 1, -12, 33, 0, 65520, 34, 0, 65521, 34, 1610612736, 65522, 34, 1441796, 65523, 34, 0, 65524, 34, 0, -16, 34, 0, -15, 34, 0, -14, 34, 1, -13, 34, 0, -12, 34, -536870912, 393237, 65444, 1610612736, 393238, 65444, 1, 393239, 65444, 1, 393240, 65444, -536870911, 393241, 65444, 1, 393242, 65444, 0, 458773, 65444, 536870912, 458778, 65444, 0, 393237, 65445, 1610612736, 393238, 65445, 1, 393239, 65445, 1, 393240, 65445, 1, 393241, 65445, 1, 393242, 65445, 0, 458773, 65445, -536870912, 458778, 65445, 0, 393237, 65446, 0, 393238, 65446, -536870911, 393239, 65446, 1, 393240, 65446, 1, 393241, 65446, 1, 393242, 65446, 0, 458773, 65446, 1073741824, 458778, 65446, 0, 393237, 65447, 0, 393238, 65447, 1, 393239, 65447, 1, 393240, 65447, 1, 393241, 65447, -536870911, 393242, 65447, 0, 458773, 65447, 0, 458778, 65447, 0, 393237, 65448, 0, 393238, 65448, 1, 393239, 65448, 1, 393240, 65448, 1, 393241, 65448, 1, 393242, 65448, 0, 458773, 65448, 0, 458778, 65448, 0, 393237, 65449, 0, 393238, 65449, 1, 393239, 65449, 1, 393240, 65449, 1, 393241, 65449, 1, 393242, 65449, -536870912, 458773, 65449, 1073741824, 458778, 65449, 0, 393237, 65450, 0, 393238, 65450, 1, 393239, 65450, 1610612737, 393240, 65450, 1, 393241, 65450, 1, 393242, 65450, 0, 458773, 65450, 0, 458778, 65450, 0, 393237, 65451, 0, 393238, 65451, 1, 393239, 65451, 1, 393240, 65451, 1610612737, 393241, 65451, 1, 393242, 65451, 1610612736, 458773, 65451, 0, 458778, 65451, 0, 393237, 65452, 0, 393238, 65452, 1, 393239, 65452, 1, 393240, 65452, 1, 393241, 65452, -536870911, 393242, 65452, 0, 458773, 65452, 0, 458778, 65452, 0, 393237, 65453, 0, 393238, 65453, 1, 393239, 65453, 1, 393240, 65453, 1610612737, 393241, 65453, 1073741825, 393242, 65453, 1073741824, 458773, 65453, 0, 458778, 65453, 0, 393237, 65454, 1610612736, 393238, 65454, 1, 393239, 65454, 1, 393240, 65454, 1, 393241, 65454, 1610612737, 393242, 65454, 0, 458773, 65454, 0, 458778, 65454, 1610612736, 393237, 65455, 1610612736, 393238, 65455, 1, 393239, 65455, 1, 393240, 65455, 1, 393241, 65455, 1, 393242, 65455, 0, 458773, 65455, 0, 458778, 65455, 0, 393237, 65456, 0, 393238, 65456, 1, 393239, 65456, 1, 393240, 65456, 1, 393241, 65456, 1610612737, 393242, 65456, 0, 458773, 65456, 1610612736, 458778, 65456, 0, 393237, 65457, 0, 393238, 65457, 1, 393239, 65457, 1, 393240, 65457, 1610612737, 393241, 65457, 1610612737, 393242, 65457, 0, 458773, 65457, 0, 458778, 65457, 0, 393237, 65458, 0, 393238, 65458, 1, 393239, 65458, 1, 393240, 65458, 1, 393241, 65458, 1610612737, 393242, 65458, 1610612736, 458773, 65458, 0, 458778, 65458, 0, 393237, 65459, 0, 393238, 65459, 1, 393239, 65459, 1, 393240, 65459, -536870911, 393241, 65459, 1610612737, 393242, 65459, 1610612736, 458773, 65459, 0, 458778, 65459, 0, 393237, 65460, 0, 393238, 65460, 1, 393239, 65460, 1, 393240, 65460, 1, 393241, 65460, 1610612737, 393242, 65460, 0, 458773, 65460, -536870912, 458778, 65460, 0, 393237, 65461, 0, 393238, 65461, 1, 393239, 65461, 1, 393240, 65461, 1, 393241, 65461, 1073741825, 393242, 65461, -1610612736, 458773, 65461, 1073741824, 458778, 65461, 0, 393237, 65462, 0, 393238, 65462, 1, 393239, 65462, 1, 393240, 65462, 1073741825, 393241, 65462, 1, 393242, 65462, 0, 458773, 65462, 0, 458778, 65462, 0, 393237, 65463, 0, 393238, 65463, 1, 393239, 65463, 1, 393240, 65463, 1, 393241, 65463, 1, 393242, 65463, 0, 458773, 65463, 0, 458778, 65463, 0, 393237, 65464, 1610612736, 393238, 65464, 1, 393239, 65464, 1, 393240, 65464, 1, 393241, 65464, 1, 393242, 65464, 0, 458773, 65464, 0, 458778, 65464, 0, 393237, 65465, 0, 393238, 65465, 1, 393239, 65465, 1, 393240, 65465, 1, 393241, 65465, 1, 393242, 65465, 1610612736, 458773, 65465, 0, 458778, 65465, 0, 393237, 65466, 0, 393238, 65466, 1, 393239, 65466, 1, 393240, 65466, 1, 393241, 65466, 1, 393242, 65466, 0, 458773, 65466, 0, 458778, 65466, -536870912, 393237, 65467, 0, 393238, 65467, -536870911, 393239, 65467, 1, 393240, 65467, 1, 393241, 65467, 1, 393242, 65467, 0, 458773, 65467, 0, 458778, 65467, 0, 393237, 65468, 0, 393238, 65468, 1073741825, 393239, 65468, 1, 393240, 65468, 536870913, 393241, 65468, 1610612737, 393242, 65468, 1610612736, 458773, 65468, 0, 458778, 65468, 0, 393237, 65469, 0, 393238, 65469, 536870913, 393239, 65469, 1, 393240, 65469, 1, 393241, 65469, 1, 393242, 65469, 0, 458773, 65469, 536870912, 458778, 65469, 0, 393237, 65470, 0, 393238, 65470, 536870913, 393239, 65470, 1610612737, 393240, 65470, 1073741825, 393241, 65470, 1, 393242, 65470, 0, 458773, 65470, 0, 458778, 65470, 0, 393237, 65471, 0, 393238, 65471, 1, 393239, 65471, 1, 393240, 65471, 1, 393241, 65471, 1, 393242, 65471, 0, 458773, 65471, 0, 458778, 65471, 0, 393237, 65472, 0, 393238, 65472, 536870913, 393239, 65472, 1, 393240, 65472, 1, 393241, 65472, 1, 393242, 65472, 0, 458773, 65472, 0, 458778, 65472, 0, 393237, 65473, 0, 393238, 65473, 1, 393239, 65473, 1, 393240, 65473, 1, 393241, 65473, 1, 393242, 65473, 1073741824, 458773, 65473, 0, 458778, 65473, 0, 393237, 65474, 0, 393238, 65474, -536870911, 393239, 65474, 1, 393240, 65474, 1, 393241, 65474, 1, 393242, 65474, 0, 458773, 65474, 0, 458778, 65474, 0, 393237, 65475, 0, 393238, 65475, 1610612737, 393239, 65475, 1, 393240, 65475, 1, 393241, 65475, 1, 393242, 65475, 0, 458773, 65475, 1610612736, 458778, 65475, 0, 393237, 65476, 0, 393238, 65476, 1, 393239, 65476, 1, 393240, 65476, 1610612737, 393241, 65476, 1, 393242, 65476, 0, 458773, 65476, 0, 458778, 65476, 0, 393237, 65477, 0, 393238, 65477, 536870913, 393239, 65477, -536870911, 393240, 65477, 1, 393241, 65477, 1, 393242, 65477, 0, 458773, 65477, -536870912, 458778, 65477, 0, 393237, 65478, 536870912, 393238, 65478, 1, 393239, 65478, 1073741825, 393240, 65478, 1, 393241, 65478, -536870911, 393242, 65478, 0, 458773, 65478, 0, 458778, 65478, 0, 393237, 65479, 0, 393242, 65479, -536870912, 458773, 65479, 0, 458778, 65479, 536870912, 327699, 65480, 536870912, 327700, 65480, 0, 393237, 65480, 0, 393238, 65480, 536870915, 393239, 65480, 3, 393240, 65480, 3, 393241, 65480, 3, 393242, 65480, 0, 458773, 65480, 536870912, 458778, 65480, 536870912, 262171, 65481, 0, 327699, 65481, 0, 327700, 65481, 0, 327701, 65481, 0, 327702, 65481, 1, 327703, 65481, 1, 327704, 65481, 1, 327705, 65481, 1, 327706, 65481, 0, 327707, 65481, 0, 327708, 65481, 0, 327709, 65481, 0, 393237, 65481, 0, 393242, 65481, 0, 458773, 65481, 0, 458778, 65481, 0, 196636, 65482, 0, 327699, 65482, 0, 327700, 65482, 0, 327701, 65482, 0, 327702, 65482, 1, 327703, 65482, 1, 327704, 65482, 1, 327705, 65482, 1, 327706, 65482, 0, 327708, 65482, 0, 327709, 65482, 0, 393237, 65482, 1073741824, 393242, 65482, 0, 327699, 65483, 0, 327700, 65483, 0, 327701, 65483, 0, 327706, 65483, 0, 327707, 65483, 0, 327708, 65483, -536870912, 327709, 65483, 0, 393233, 65483, -536870912, 393234, 65483, 0, 393235, 65483, 1441796, 393236, 65483, 1441796, 393237, 65483, -536870912, 393242, 65483, 0, 393243, 65483, 1441796, 393244, 65483, 1441796, 458769, 65483, 536870912, 458771, 65483, 1441796, 458772, 65483, -535429116, 458773, 65483, 0, 458779, 65483, 1441796, 458780, 65483, 1441796, 524305, 65483, 0, 524307, 65483, 1441796, 524308, 65483, 1441796, 524309, 65483, -536870912, 524315, 65483, 1441796, 524316, 65483, -535429116, 589841, 65483, -536870912, 589842, 65483, 0, 589843, 65483, 0, 589844, 65483, -536870912, 589845, 65483, 0, 655377, 65483, -536870912, 655378, 65483, 0, 655379, 65483, 0, 655380, 65483, 0, 655381, 65483, -536870912, 720915, 65483, 0, 720916, 65483, 0, 720923, 65483, 0, 720924, 65483, 0, 786460, 65483, -536870912, 327699, 65484, 0, 327700, 65484, -536870912, 327701, 65484, 0, 327702, 65484, 3, 327703, 65484, -536870909, 327704, 65484, -536870909, 327705, 65484, 3, 327706, 65484, -536870912, 327707, 65484, 0, 327708, 65484, -536870912, 327709, 65484, 0, 393233, 65484, 0, 393234, 65484, 0, 393237, 65484, -536870912, 393242, 65484, 0, 458769, 65484, 0, 458770, 65484, 0, 458773, 65484, 2, 458778, 65484, 2, 524305, 65484, -536870912, 524306, 65484, 0, 524307, 65484, 1245187, 524309, 65484, 2, 524314, 65484, -536870910, 589842, 65484, 0, 589845, 65484, -536870910, 589850, 65484, 2, 589851, 65484, -536870912, 589852, 65484, 0, 589853, 65484, -536870912, 655378, 65484, 0, 655379, 65484, 0, 655380, 65484, 0, 655381, 65484, 0, 655386, 65484, 0, 655387, 65484, 0, 655388, 65484, 0, 655389, 65484, 0, 720914, 65484, 1441795, 720916, 65484, 0, 720917, 65484, -536870912, 720918, 65484, 0, 720919, 65484, 0, 720920, 65484, -536870912, 720921, 65484, -536870912, 720922, 65484, -536870912, 720923, 65484, -536870912, 262165, 65485, -536870912, 262166, 65485, 1, 262167, 65485, -536870911, 262168, 65485, -536870911, 262169, 65485, 1, 262170, 65485, 0, 327699, 65485, 0, 327701, 65485, 0, 327706, 65485, 0, 327708, 65485, 0, 327709, 65485, 0, 393233, 65485, 0, 393234, 65485, -536870912, 393237, 65485, 0, 393242, 65485, 0, 393243, 65485, -536215549, 393245, 65485, 0, 458769, 65485, -536870912, 458781, 65485, 0, 458782, 65485, -536870912, 524305, 65485, 0, 524317, 65485, 0, 524318, 65485, -536870912, 589851, 65485, -536412157, 589853, 65485, 0, 589854, 65485, -536870912, 655389, 65485, 0, 262165, 65486, -536870912, 262166, 65486, 1, 262167, 65486, 1, 262168, 65486, 1, 262169, 65486, 1, 262170, 65486, 0, 327699, 65486, 0, 327700, 65486, -536870909, 327701, 65486, 0, 327706, 65486, 0, 327708, 65486, -536870912, 393233, 65486, 0, 393234, 65486, 0, 393237, 65486, 0, 393242, 65486, 0, 393245, 65486, 0, 458769, 65486, 0, 458770, 65486, -536674301, 524317, 65486, 393219, 196627, 65487, 0, 196636, 65487, 536870912, 262163, 65487, 536870912, 262164, 65487, 0, 262165, 65487, 0, 262170, 65487, 536870912, 262171, 65487, 0, 262172, 65487, 536870912, 327699, 65487, 0, 327700, 65487, 536870912, 327701, 65487, 536870912, 327707, 65487, 0, 327708, 65487, 0, 393234, 65487, 536870912, 393235, 65487, 536870912, 393236, 65487, 536870912, 393237, 65487, 536870912, 393242, 65487, 0, 393243, 65487, 1073741824, 393244, 65487, 0, 393245, 65487, 0, 196627, 65488, 0, 196628, 65488, 0, 196629, 65488, 0, 196634, 65488, 0, 196635, 65488, 1073741824, 196636, 65488, 536870912, 262163, 65488, 536870914, 262164, 65488, 0, 262165, 65488, 2, 262166, 65488, 3, 262167, 65488, 3, 262168, 65488, 536870915, 262169, 65488, 536870915, 262170, 65488, 2, 262171, 65488, 0, 262172, 65488, 2, 327699, 65488, 2, 327700, 65488, 536870912, 327701, 65488, 2, 327706, 65488, 2, 327707, 65488, 0, 327708, 65488, 2, 393235, 65488, 0, 393236, 65488, -536870912, 393237, 65488, 0, 393242, 65488, 0, 393243, 65488, 1073741824, 393244, 65488, 0, 196628, 65489, 1, 196629, 65489, 1, 196630, 65489, 1, 196631, 65489, 1, 196632, 65489, 1, 196633, 65489, 1, 196634, 65489, -536870911, 196635, 65489, 1, 131099, 65490, 1, 196628, 65490, 1, 196629, 65490, 536870913, 196630, 65490, 1, 196631, 65490, 1, 196632, 65490, 1, 196633, 65490, 1, 196634, 65490, 1, 196635, 65490, 1, 65557, 65491, 536870913, 131093, 65491, -536870911, 196629, 65491, 1, 196630, 65491, 1, 196631, 65491, -536870911, 196632, 65491, 1, 196633, 65491, 1, 196634, 65491, 1073741825, 65561, 65492, 536870913, 131094, 65492, 1, 131097, 65492, 1, 196630, 65492, 1, 196631, 65492, 1, 196632, 65492, 1073741825, 196633, 65492, 1, 196631, 65493, 1073741825, 196632, 65493, 1, 196631, 65494, 536870913, 196632, 65494, 1, 196631, 65495, 536870913, 196632, 65495, 1, 196631, 65496, 1073741825, 196632, 65496, 1, 196631, 65497, 1, 196632, 65497, 1, 196631, 65498, 536870913, 196632, 65498, 1, 196633, 65498, 1, 196631, 65499, 1, 196632, 65499, 1, 196633, 65499, 1, 196632, 65500, 1, 196633, 65500, 1, 196633, 65501, 1, 196634, 65501, 1, 196634, 65502, 1, 196635, 65502, 1, 196635, 65503, -536870911, 196637, 65503, 1, 196638, 65503, 1, 196634, 65504, 1, 196635, 65504, -536870911, 196636, 65504, 1, 196637, 65504, 1, 196628, 65505, 1, 196633, 65505, 1, 196634, 65505, 1, 196635, 65505, 1, 196628, 65506, 1, 196629, 65506, -536870911, 196630, 65506, 1, 196632, 65506, 1, 196633, 65506, 1, 196634, 65506, 1, 196630, 65507, 536870913, 196631, 65507, 1, 196632, 65507, 1, 196633, 65507, 1, 196634, 65507, 1, 196630, 65508, 1, 196631, 65508, 536870913, 196632, 65508, 1610612737, 196633, 65508, 1, 196629, 65509, 1, 196630, 65509, 1, 196631, 65509, -536870911, 196629, 65510, 1, 196630, 65510, -536870911, 196631, 65510, 1, 196630, 65511, 1, 196631, 65511, 1, 196632, 65511, 1, 196632, 65512, 1, 196633, 65512, 1, 196633, 65513, 1, 196634, 65513, -536870911, 196635, 65513, 1, 196634, 65514, 1, 196635, 65514, 1, 196636, 65514, 1, 196634, 65515, 1610612737, 196635, 65515, 1, 196636, 65515, 1, 196629, 65516, 1, 196634, 65516, 536870913, 196635, 65516, 1, 196636, 65516, 1, 196629, 65517, 1, 196630, 65517, 1, 196631, 65517, 1, 196633, 65517, 1, 196634, 65517, 1, 196635, 65517, 536870913, 196630, 65518, -536870911, 196631, 65518, 1, 196632, 65518, -536870911, 196633, 65518, 1, 196634, 65518, 1, 65523, 65519, 0, 65524, 65519, -536870912, 65525, 65519, 0, 65526, 65519, 0, 65527, 65519, 0, 65528, 65519, -536870912, 65529, 65519, -536870912, 65530, 65519, 0, 65531, 65519, -536870912, 65532, 65519, 0, 131059, 65519, 0, 131060, 65519, 536870912, 131061, 65519, -536870912, 131062, 65519, 0, 131063, 65519, 0, 131064, 65519, 536870912, 131065, 65519, 0, 131066, 65519, 1073741824, 131067, 65519, 1073741824, 131068, 65519, 0, 196598, 65519, 0, 196599, 65519, 0, 196600, 65519, 0, 196601, 65519, 1073741824, 196631, 65519, 1, 196632, 65519, 1, 196633, 65519, 1, 196634, 65519, 1, 262134, 65519, 0, 262135, 65519, 0, 262136, 65519, 0, 262137, 65519, 0, 327671, 65519, 0, 327672, 65519, 1610612736, 393207, 65519, 0, 393208, 65519, 0, 65523, 65520, 536870912, 65524, 65520, 1073741825, 65525, 65520, -536870911, 65526, 65520, 1, 65527, 65520, 1, 65528, 65520, 1, 65529, 65520, 1, 65530, 65520, 1, 65531, 65520, 536870913, 65532, 65520, 1610612736, 131059, 65520, 2, 131063, 65520, 1610612737, 131064, 65520, 1, 131068, 65520, 2, 196595, 65520, 536870914, 196604, 65520, 2, 196632, 65520, -536870911, 196633, 65520, 1, 5, 65521, 0, 6, 65521, -536870912, 7, 65521, 0, 8, 65521, 0, 9, 65521, 1073741824, 10, 65521, 0, 11, 65521, 0, 12, 65521, 0, 13, 65521, 0, 14, 65521, 0, 15, 65521, 0, 16, 65521, 0, 17, 65521, 0, 65523, 65521, 0, 65524, 65521, 1, 65525, 65521, 1, 65526, 65521, 1, 65527, 65521, 1, 65528, 65521, 1, 65529, 65521, -536870911, 65530, 65521, 1, 65531, 65521, 1, 65532, 65521, 0, 65541, 65521, -536870912, 65542, 65521, 0, 65543, 65521, 0, 65544, 65521, 0, 65545, 65521, 0, 65546, 65521, 0, 65547, 65521, 0, 65548, 65521, 0, 65549, 65521, 0, 65550, 65521, 0, 65551, 65521, 0, 65552, 65521, 0, 65553, 65521, 0, 131059, 65521, 536870912, 131068, 65521, 0, 131077, 65521, 0, 131078, 65521, -536870912, 131079, 65521, 0, 131080, 65521, 0, 131081, 65521, -536870912, 131082, 65521, 0, 131083, 65521, -536870912, 131084, 65521, -536870912, 131085, 65521, -536870912, 131086, 65521, 0, 131087, 65521, 0, 131088, 65521, 0, 131089, 65521, 0, 196632, 65521, 1, 196633, 65521, 1, 5, 65522, 0, 6, 65522, 1441793, 7, 65522, 1441793, 8, 65522, -535429119, 9, 65522, 1441793, 10, 65522, 1441793, 11, 65522, 1441793, 12, 65522, 1441793, 17, 65522, 0, 18, 65522, 0, 19, 65522, 0, 20, 65522, 0, 21, 65522, 0, 22, 65522, 0, 23, 65522, 0, 26, 65522, 0, 27, 65522, 0, 28, 65522, 0, 29, 65522, 0, 30, 65522, 0, 31, 65522, -536870912, 32, 65522, -536870912, 65523, 65522, 0, 65524, 65522, 1, 65525, 65522, -536870911, 65526, 65522, 1, 65527, 65522, 1, 65528, 65522, 1, 65529, 65522, 1, 65530, 65522, -536870911, 65531, 65522, -536870911, 65532, 65522, 0, 65541, 65522, 0, 65542, 65522, 2, 65549, 65522, 1441795, 65551, 65522, 1, 65552, 65522, 1, 65553, 65522, 0, 65554, 65522, 0, 65555, 65522, 0, 65556, 65522, 0, 65557, 65522, 0, 65558, 65522, -536870912, 65559, 65522, 0, 65562, 65522, 0, 65563, 65522, 0, 65564, 65522, 0, 65565, 65522, 0, 65566, 65522, 0, 65567, 65522, 0, 65568, 65522, 0, 131059, 65522, 2, 131068, 65522, -536870910, 131077, 65522, -536870912, 131078, 65522, 2, 131088, 65522, 2, 131089, 65522, -536870912, 131090, 65522, -536870912, 131091, 65522, 0, 131092, 65522, 0, 131093, 65522, 0, 131094, 65522, 0, 131095, 65522, 0, 131098, 65522, 0, 131099, 65522, 0, 131100, 65522, 0, 131101, 65522, 0, 131102, 65522, 0, 131103, 65522, -536870912, 131104, 65522, 536870912, 196595, 65522, 2, 196604, 65522, 2, 196625, 65522, 0, 196626, 65522, 0, 196627, 65522, 0, 196628, 65522, 0, 196629, 65522, 1610612736, 196630, 65522, 0, 196631, 65522, 0, 196632, 65522, 1, 196633, 65522, 1, 196634, 65522, 0, 196635, 65522, 0, 196636, 65522, 0, 196637, 65522, 1610612736, 196638, 65522, -536870912, 196639, 65522, -536870912, 196640, 65522, 536870912, 262161, 65522, 1611399168, 262162, 65522, 786432, 262163, 65522, -536346622, 262164, 65522, -536346622, 262165, 65522, 524290, 262166, 65522, -536346622, 262167, 65522, 0, 262170, 65522, 1048576, 262171, 65522, -536346622, 262172, 65522, -536346622, 262173, 65522, 524290, 262174, 65522, 524290, 262175, 65522, -536084480, 262176, 65522, 786432, 327697, 65522, 0, 327698, 65522, 0, 327699, 65522, 0, 327700, 65522, 0, 327701, 65522, 0, 327702, 65522, 0, 327703, 65522, 0, 327704, 65522, 0, 327705, 65522, 0, 327706, 65522, 0, 327707, 65522, 0, 327708, 65522, -536870912, 327709, 65522, 1610612736, 327710, 65522, 0, 327711, 65522, -536870912, 327712, 65522, 0, 5, 65523, 1610612736, 6, 65523, 1441793, 7, 65523, -535429119, 8, 65523, 1441793, 9, 65523, -535429119, 10, 65523, -535429119, 11, 65523, 1441793, 17, 65523, 0, 18, 65523, 1, 19, 65523, 1, 20, 65523, -536870911, 21, 65523, 1, 22, 65523, 1, 23, 65523, 1, 24, 65523, -536870911, 25, 65523, 1, 26, 65523, -536870911, 27, 65523, 1, 28, 65523, 1, 29, 65523, 1, 30, 65523, 1, 31, 65523, 1, 32, 65523, 0, 65523, 65523, 0, 65524, 65523, 1, 65525, 65523, 1, 65526, 65523, -536870911, 65527, 65523, 1, 65528, 65523, 1, 65529, 65523, 1, 65530, 65523, 1, 65531, 65523, -536870911, 65532, 65523, 0, 65541, 65523, -536870912, 65547, 65523, 1, 65548, 65523, -536870911, 65549, 65523, 1, 65550, 65523, -536870911, 65551, 65523, 1, 65552, 65523, 1, 65553, 65523, -536870912, 65555, 65523, -536870911, 65556, 65523, 1, 65557, 65523, 1, 65558, 65523, 1, 65559, 65523, 1, 65560, 65523, -536870911, 65561, 65523, 1, 65562, 65523, 1, 65563, 65523, -536870911, 65564, 65523, 1, 65565, 65523, 1, 65566, 65523, 1, 65568, 65523, 0, 131059, 65523, -536870912, 131061, 65523, 1441797, 131062, 65523, -535429115, 131065, 65523, 1441797, 131066, 65523, 1441797, 131068, 65523, -536870912, 131077, 65523, 0, 131089, 65523, -536870912, 131093, 65523, 1441795, 131095, 65523, 1441793, 131096, 65523, 1441793, 131097, 65523, 1048577, 131098, 65523, 1048577, 131100, 65523, 1048579, 131104, 65523, -536870912, 196625, 65523, 0, 196632, 65523, 1048577, 196633, 65523, 1048577, 196640, 65523, -536870912, 5, 65524, 0, 6, 65524, 1441793, 7, 65524, 1441793, 8, 65524, 1441793, 9, 65524, 1441793, 17, 65524, 0, 18, 65524, 1, 19, 65524, 1, 20, 65524, 1, 21, 65524, 1, 22, 65524, 1, 23, 65524, -536870911, 24, 65524, 536870913, 25, 65524, 1, 26, 65524, 1, 27, 65524, -536870911, 28, 65524, 1, 29, 65524, 1, 30, 65524, -536870911, 31, 65524, 1, 32, 65524, 0, 65523, 65524, 0, 65524, 65524, 1, 65525, 65524, -536870911, 65526, 65524, -536870911, 65527, 65524, 1, 65528, 65524, 1, 65529, 65524, 1, 65530, 65524, 1, 65531, 65524, -536870911, 65532, 65524, 0, 65541, 65524, -536870912, 65546, 65524, 1, 65547, 65524, -536870911, 65548, 65524, -536870911, 65549, 65524, 1, 65550, 65524, 1, 65551, 65524, 536870913, 65552, 65524, 1, 65553, 65524, 0, 65555, 65524, 1, 65556, 65524, 1, 65557, 65524, 1, 65558, 65524, 1, 65559, 65524, -536870911, 65560, 65524, 1, 65561, 65524, 1, 65562, 65524, 1, 65563, 65524, -536870911, 65564, 65524, -536870911, 65565, 65524, 1, 65566, 65524, 1, 65568, 65524, 0, 131059, 65524, 2, 131068, 65524, 2, 131077, 65524, 0, 131089, 65524, 0, 131094, 65524, -535429119, 131095, 65524, -535429119, 131096, 65524, 1441793, 131097, 65524, 538312705, 131098, 65524, -535822335, 131099, 65524, 1048577, 131104, 65524, -536870912, 196595, 65524, -536870910, 196604, 65524, -536870910, 196625, 65524, 0, 196632, 65524, 1048577, 196633, 65524, 1048577, 196640, 65524, 0, 5, 65525, 536870912, 6, 65525, 1441793, 7, 65525, 1441793, 8, 65525, 1441793, 9, 65525, 1441793, 17, 65525, 0, 18, 65525, 1, 19, 65525, 1, 20, 65525, 1, 21, 65525, 1, 22, 65525, 1, 23, 65525, -536870911, 24, 65525, 1, 25, 65525, 1, 26, 65525, 1, 27, 65525, -536870911, 28, 65525, 1, 29, 65525, 1, 30, 65525, 536870913, 31, 65525, 1, 32, 65525, 0, 65513, 65525, 2, 65523, 65525, 0, 65524, 65525, 1, 65525, 65525, 1, 65526, 65525, 1, 65527, 65525, 1, 65528, 65525, 1, 65529, 65525, 1, 65530, 65525, 1, 65531, 65525, 1, 65532, 65525, -536870912, 65541, 65525, 0, 65546, 65525, 1, 65547, 65525, 1, 65548, 65525, 1, 65549, 65525, 1, 65550, 65525, 1, 65551, 65525, 1, 65552, 65525, 1, 65553, 65525, 0, 65558, 65525, 1, 65559, 65525, 1, 65560, 65525, 1, 65561, 65525, 1, 65562, 65525, 1, 65563, 65525, 1, 65568, 65525, 0, 131049, 65525, 2, 131059, 65525, 0, 131061, 65525, 1441797, 131062, 65525, -535429115, 131065, 65525, -535429115, 131066, 65525, 1441797, 131068, 65525, 0, 131077, 65525, 0, 131089, 65525, -536870912, 131094, 65525, 1441793, 131095, 65525, 1441793, 131096, 65525, 1441793, 131097, 65525, 1441793, 131098, 65525, -535822335, 131099, 65525, -535822335, 131104, 65525, 0, 196625, 65525, 0, 196640, 65525, 0, -23, 65525, 2, 2, 65526, 2, 5, 65526, 0, 6, 65526, 1441793, 7, 65526, 1441793, 8, 65526, -535429119, 9, 65526, -535429119, 17, 65526, -536870912, 18, 65526, 1, 19, 65526, 1, 20, 65526, 1, 21, 65526, -536870911, 22, 65526, 1, 23, 65526, -536870911, 24, 65526, 1, 25, 65526, 1, 26, 65526, -536870911, 27, 65526, 1, 28, 65526, 1, 29, 65526, 1, 30, 65526, -536870911, 31, 65526, 1, 32, 65526, -536870912, 65510, 65526, 0, 65511, 65526, 0, 65512, 65526, 0, 65513, 65526, -536870912, 65514, 65526, 0, 65515, 65526, 536870912, 65516, 65526, 0, 65517, 65526, 0, 65523, 65526, 0, 65524, 65526, 1, 65525, 65526, 1, 65526, 65526, 1, 65527, 65526, 1, 65528, 65526, 1, 65529, 65526, 1, 65530, 65526, 1, 65531, 65526, 1, 65532, 65526, 0, 65535, 65526, 1441794, 65538, 65526, -536870910, 65541, 65526, 0, 65546, 65526, 1, 65547, 65526, 1, 65548, 65526, 1, 65549, 65526, 1, 65550, 65526, 1, 65551, 65526, 1, 65552, 65526, -536870911, 65553, 65526, 0, 65555, 65526, -536870909, 65558, 65526, 1, 65559, 65526, 1, 65560, 65526, -536870911, 65561, 65526, -536870911, 65562, 65526, 1, 65563, 65526, 1, 65566, 65526, -536870909, 65568, 65526, 0, 131046, 65526, 0, 131047, 65526, 0, 131048, 65526, -536870912, 131049, 65526, 2, 131050, 65526, -536870912, 131051, 65526, 0, 131052, 65526, 0, 131053, 65526, 0, 131059, 65526, 2, 131068, 65526, -536870910, 131071, 65526, -535429118, 131074, 65526, 2, 131077, 65526, 0, 131089, 65526, 0, 131094, 65526, 1441793, 131095, 65526, 1441793, 131096, 65526, 1441793, 131097, 65526, 1441793, 131098, 65526, 1048577, 131099, 65526, 1048577, 131104, 65526, 0, 196595, 65526, 2, 196604, 65526, 2, 196607, 65526, 1441794, 196610, 65526, 2, 196625, 65526, 0, 196632, 65526, 3, 196633, 65526, 3, 196640, 65526, 0, 262143, 65526, 1441794, 262146, 65526, -536870910, 327679, 65526, 1441794, 327682, 65526, 2, 393215, 65526, -535429118, 393218, 65526, -536870910, 458751, 65526, 1441794, 458754, 65526, 2, 524287, 65526, 1441794, 524290, 65526, 2, 589823, 65526, 1441794, 589826, 65526, -536870910, 655359, 65526, 1441794, 655362, 65526, 2, 720895, 65526, -535429118, 720898, 65526, 2, 786431, 65526, 1441794, 786434, 65526, 2, 851967, 65526, -535429118, -655358, 65526, 2, -589825, 65526, -535429118, -589822, 65526, 2, -524289, 65526, -535429118, -524286, 65526, 2, -458753, 65526, -535429118, -458750, 65526, 2, -393217, 65526, 1441794, -393214, 65526, -536870910, -327681, 65526, 1441794, -327678, 65526, 2, -262145, 65526, 1441794, -262142, 65526, 2, -196609, 65526, 1441794, -196606, 65526, 2, -131073, 65526, 1441794, -131070, 65526, 2, -65537, 65526, 1441794, -65534, 65526, -536870910, -26, 65526, 0, -25, 65526, 0, -24, 65526, 0, -23, 65526, -536870912, -22, 65526, 0, -21, 65526, 0, -20, 65526, -536870912, -19, 65526, 0, -1, 65526, 1441794, 5, 65527, 0, 6, 65527, 1441793, 7, 65527, 1441793, 8, 65527, 1441793, 9, 65527, 1441793, 10, 65527, -535429119, 17, 65527, 0, 18, 65527, 1, 19, 65527, 1, 20, 65527, 1, 21, 65527, 1, 22, 65527, 1, 23, 65527, -536870911, 24, 65527, 1, 25, 65527, 1, 26, 65527, 1, 27, 65527, 1, 28, 65527, 1, 29, 65527, 1, 30, 65527, 1, 31, 65527, -536870911, 32, 65527, 0, 65509, 65527, -536870912, 65510, 65527, 0, 65511, 65527, 1, 65512, 65527, 1, 65513, 65527, 1, 65514, 65527, -536870911, 65515, 65527, -536870911, 65516, 65527, -536870911, 65517, 65527, 0, 65518, 65527, -536870912, 65523, 65527, 0, 65524, 65527, 1, 65525, 65527, 1, 65526, 65527, 1, 65527, 65527, 1, 65528, 65527, -536870911, 65529, 65527, 1, 65530, 65527, 1, 65531, 65527, 1, 65532, 65527, -536870912, 65541, 65527, 0, 65547, 65527, 1, 65548, 65527, 1, 65549, 65527, 0, 65550, 65527, -536870911, 65551, 65527, 1, 65552, 65527, 1, 65553, 65527, -536870912, 65558, 65527, 1, 65559, 65527, -536870911, 65560, 65527, 1, 65561, 65527, 1, 65562, 65527, -536870911, 65563, 65527, 1, 65568, 65527, 0, 131045, 65527, 0, 131046, 65527, 0, 131049, 65527, 2, 131053, 65527, 0, 131054, 65527, 0, 131059, 65527, -536870912, 131068, 65527, -536870912, 131077, 65527, 0, 131085, 65527, 0, 131089, 65527, 536870912, 131094, 65527, 1441793, 131095, 65527, 1441793, 131096, 65527, 1441793, 131097, 65527, 1441793, 131098, 65527, 1048577, 131099, 65527, -535822335, 131104, 65527, 0, 196625, 65527, 0, 196640, 65527, 0, -27, 65527, 0, -26, 65527, 0, -19, 65527, 0, -18, 65527, -536870912, 5, 65528, 0, 6, 65528, -535429119, 7, 65528, 1441793, 8, 65528, 1075183617, 9, 65528, 1441793, 10, 65528, 1, 11, 65528, -536870911, 12, 65528, 1, 13, 65528, 0, 14, 65528, -536870911, 15, 65528, 1, 16, 65528, 1, 17, 65528, 0, 18, 65528, 1, 19, 65528, -536870911, 20, 65528, 1, 21, 65528, 1, 22, 65528, -536870911, 23, 65528, 1, 24, 65528, 1610612737, 25, 65528, 1, 26, 65528, -536870911, 27, 65528, 1, 28, 65528, 1, 29, 65528, 1, 30, 65528, 1, 31, 65528, 1610612737, 32, 65528, -536870912, 65508, 65528, 1610612736, 65509, 65528, 1610612736, 65510, 65528, 1, 65511, 65528, 1, 65512, 65528, 1, 65513, 65528, -536870911, 65514, 65528, -536870911, 65515, 65528, 1, 65516, 65528, -536870911, 65517, 65528, 1, 65518, 65528, -536870912, 65519, 65528, -536870912, 65523, 65528, -536870912, 65524, 65528, 1, 65525, 65528, -536870911, 65526, 65528, 1, 65527, 65528, 1, 65528, 65528, -536870911, 65529, 65528, 1, 65530, 65528, 1, 65531, 65528, -536870911, 65532, 65528, 0, 65541, 65528, -536870912, 65549, 65528, 0, 65550, 65528, -536870911, 65551, 65528, 1, 65552, 65528, 1610612737, 65553, 65528, 0, 65558, 65528, 1, 65559, 65528, 1610612737, 65560, 65528, 1, 65561, 65528, 1610612737, 65562, 65528, 1, 65563, 65528, -536870911, 65568, 65528, 0, 131044, 65528, 0, 131045, 65528, 0, 131049, 65528, 2, 131054, 65528, 0, 131055, 65528, 0, 131059, 65528, 2, 131063, 65528, 2, 131064, 65528, 1610612738, 131068, 65528, 1610612738, 131077, 65528, 0, 131085, 65528, 0, 131089, 65528, 0, 131094, 65528, -535429119, 131095, 65528, 538312705, 131096, 65528, -535429119, 131097, 65528, -535429119, 131098, 65528, -535822335, 131099, 65528, 1048577, 131104, 65528, 0, 196595, 65528, 2, 196604, 65528, 2, 196625, 65528, 1610612736, 196640, 65528, 0, -28, 65528, 0, -27, 65528, 1610612736, -18, 65528, 0, -17, 65528, 0, 5, 65529, 0, 6, 65529, 1, 7, 65529, -536870911, 8, 65529, 1, 9, 65529, 1, 10, 65529, 1, 11, 65529, 1, 12, 65529, 1, 13, 65529, 1610612736, 14, 65529, 1, 15, 65529, 1, 16, 65529, 1, 17, 65529, 1073741825, 18, 65529, 1, 19, 65529, 1073741825, 20, 65529, 1, 21, 65529, -536870911, 22, 65529, 1, 23, 65529, 1, 24, 65529, 1, 25, 65529, 1, 26, 65529, 1, 27, 65529, 1, 28, 65529, 1073741825, 29, 65529, 1, 30, 65529, 1, 31, 65529, 1, 32, 65529, 0, 65508, 65529, 536870912, 65509, 65529, 1, 65510, 65529, 1, 65511, 65529, 1, 65512, 65529, 1, 65513, 65529, 1, 65514, 65529, 1, 65515, 65529, 1, 65516, 65529, 1, 65517, 65529, 1610612737, 65518, 65529, 1, 65519, 65529, 0, 65523, 65529, 0, 65524, 65529, 1, 65525, 65529, 1, 65526, 65529, 1, 65527, 65529, 1, 65528, 65529, 1, 65529, 65529, 1, 65530, 65529, 1, 65531, 65529, 1, 65532, 65529, 0, 65541, 65529, 0, 65542, 65529, -536870910, 65549, 65529, 536870912, 65553, 65529, 4, 65560, 65529, 1048577, 65561, 65529, 1048577, 65568, 65529, 0, 131044, 65529, 0, 131055, 65529, 0, 131059, 65529, 1610612736, 131068, 65529, 0, 131077, 65529, 0, 131078, 65529, -536870910, 131085, 65529, -536870912, 131096, 65529, 1048577, 131097, 65529, 1048577, 131104, 65529, 0, 196640, 65529, 536870912, -28, 65529, 0, -27, 65529, 1, -26, 65529, 1, -17, 65529, 0, 0, 65530, 0, 1, 65530, 0, 2, 65530, 0, 3, 65530, -536870912, 4, 65530, 0, 5, 65530, 0, 6, 65530, 0, 7, 65530, 0, 8, 65530, 1, 9, 65530, 536870912, 10, 65530, 0, 11, 65530, 0, 12, 65530, 0, 13, 65530, 0, 14, 65530, 1, 15, 65530, 1, 16, 65530, 1, 17, 65530, 0, 18, 65530, 1, 19, 65530, 1, 20, 65530, 1, 21, 65530, 1, 22, 65530, 1, 23, 65530, 1, 24, 65530, 1, 25, 65530, 1, 26, 65530, 1, 27, 65530, 1, 28, 65530, 1, 29, 65530, -536870911, 30, 65530, 1, 31, 65530, 1, 32, 65530, 0, 65508, 65530, 0, 65510, 65530, 1, 65511, 65530, -536870911, 65512, 65530, 1, 65513, 65530, 1, 65514, 65530, 1, 65515, 65530, 1, 65516, 65530, 536870913, 65517, 65530, 1, 65518, 65530, 1, 65519, 65530, 0, 65520, 65530, 0, 65521, 65530, 0, 65522, 65530, 0, 65523, 65530, 0, 65524, 65530, 0, 65525, 65530, 0, 65526, 65530, 0, 65527, 65530, 1, 65528, 65530, 1, 65529, 65530, 0, 65530, 65530, 0, 65531, 65530, 0, 65532, 65530, 0, 65533, 65530, 0, 65534, 65530, -536870912, 65535, 65530, 0, 65536, 65530, 0, 65537, 65530, 0, 65538, 65530, 0, 65539, 65530, 0, 65540, 65530, 0, 65541, 65530, 0, 65542, 65530, 0, 65543, 65530, 0, 65545, 65530, 0, 65546, 65530, 536870912, 65547, 65530, 0, 65548, 65530, -536870912, 65549, 65530, 0, 65553, 65530, 0, 65560, 65530, 1048577, 65561, 65530, -535822335, 65568, 65530, 0, 131044, 65530, 0, 131055, 65530, -536870912, 131056, 65530, 0, 131057, 65530, 0, 131058, 65530, 0, 131059, 65530, 0, 131060, 65530, 0, 131061, 65530, 0, 131062, 65530, 0, 131065, 65530, 0, 131066, 65530, 1610612736, 131067, 65530, 0, 131068, 65530, 536870912, 131069, 65530, 0, 131070, 65530, 0, 131071, 65530, 0, 131085, 65530, 0, 131096, 65530, 1048577, 131097, 65530, 1048577, 131104, 65530, 0, 196640, 65530, 1610612736, -28, 65530, 0, -27, 65530, 1, -26, 65530, 536870913, -17, 65530, 0, 0, 65531, 1, 1, 65531, 1, 2, 65531, 1, 3, 65531, 1610612737, 4, 65531, 1, 5, 65531, 1, 6, 65531, 1, 7, 65531, 1, 8, 65531, 1, 9, 65531, 1, 10, 65531, 1, 11, 65531, 1, 12, 65531, 1, 13, 65531, 1, 14, 65531, 1, 15, 65531, 1610612737, 16, 65531, 1, 17, 65531, 1, 18, 65531, 1, 19, 65531, 1, 20, 65531, 1, 21, 65531, 1, 22, 65531, 1, 23, 65531, 1, 24, 65531, 1, 25, 65531, 1, 26, 65531, 1, 27, 65531, 1, 28, 65531, 1, 29, 65531, 1, 30, 65531, 1, 31, 65531, -536870911, 32, 65531, 0, 65508, 65531, 0, 65509, 65531, 3, 65510, 65531, 1, 65511, 65531, 1610612737, 65512, 65531, 1, 65513, 65531, 1, 65514, 65531, 1, 65515, 65531, -536870911, 65516, 65531, 1, 65517, 65531, 536870913, 65518, 65531, 1, 65519, 65531, 1, 65520, 65531, 1, 65521, 65531, 1, 65522, 65531, 1610612737, 65523, 65531, 1, 65524, 65531, 1, 65525, 65531, 1, 65526, 65531, 1, 65527, 65531, 1073741825, 65528, 65531, 1073741825, 65529, 65531, 1, 65530, 65531, 1, 65531, 65531, 1, 65532, 65531, 1, 65533, 65531, -536870911, 65534, 65531, 1, 65535, 65531, 1, 65547, 65531, 1, 65549, 65531, 1048579, 65565, 65531, 1441795, 65567, 65531, 1, 65568, 65531, 0, 131044, 65531, 0, 131104, 65531, 0, 196640, 65531, 1610612736, -28, 65531, 0, -27, 65531, 1, -26, 65531, 1, 0, 65532, 1, 1, 65532, 1610612737, 2, 65532, 1, 3, 65532, 1, 4, 65532, 1, 5, 65532, 1, 6, 65532, 1, 7, 65532, 1, 8, 65532, 1, 9, 65532, 1, 10, 65532, 1, 11, 65532, 1, 12, 65532, 1610612737, 13, 65532, 1, 14, 65532, 1, 15, 65532, 536870913, 16, 65532, 1, 17, 65532, 0, 18, 65532, -536870911, 19, 65532, 1, 20, 65532, 1, 21, 65532, 1, 22, 65532, 1, 23, 65532, 1, 24, 65532, 1, 25, 65532, 1, 26, 65532, 1, 27, 65532, 1, 28, 65532, 1, 29, 65532, 1, 30, 65532, 1, 31, 65532, 1, 32, 65532, 0, 65508, 65532, 0, 65510, 65532, 1, 65511, 65532, 1, 65512, 65532, -1610612735, 65513, 65532, 1, 65514, 65532, 1, 65515, 65532, 1, 65516, 65532, 1, 65517, 65532, 1, 65518, 65532, 1, 65519, 65532, 1, 65520, 65532, 1, 65521, 65532, 1, 65522, 65532, 1, 65523, 65532, 1, 65524, 65532, 1, 65525, 65532, 1, 65526, 65532, 1, 65527, 65532, -536870911, 65528, 65532, 1, 65529, 65532, 1, 65530, 65532, 1, 65531, 65532, 1, 65532, 65532, -1610612735, 65533, 65532, 1, 65534, 65532, 1, 65535, 65532, 1, 65547, 65532, 1, 65549, 65532, 1048579, 65553, 65532, 0, 65565, 65532, 1, 65566, 65532, -1610612735, 65567, 65532, 1, 65568, 65532, 536870912, 131044, 65532, 0, 131104, 65532, 0, 196640, 65532, 0, -28, 65532, 0, -27, 65532, 1, -26, 65532, 1, 0, 65533, 0, 1, 65533, 0, 2, 65533, 0, 3, 65533, 0, 4, 65533, 0, 5, 65533, 0, 6, 65533, 0, 7, 65533, 0, 8, 65533, 0, 9, 65533, 0, 10, 65533, 0, 11, 65533, 0, 12, 65533, 0, 13, 65533, 0, 14, 65533, 1, 15, 65533, 1, 16, 65533, 1, 17, 65533, 1, 18, 65533, 1, 19, 65533, 1, 20, 65533, 1, 21, 65533, 1, 22, 65533, 1, 23, 65533, 1, 24, 65533, 1, 25, 65533, 1, 26, 65533, 1, 27, 65533, 1, 28, 65533, 1, 29, 65533, 1, 30, 65533, 1, 31, 65533, -536870911, 32, 65533, 0, 65508, 65533, 0, 65510, 65533, 1, 65511, 65533, 1, 65512, 65533, 1, 65513, 65533, 1, 65514, 65533, 1, 65515, 65533, 1, 65516, 65533, 1, 65517, 65533, 1, 65518, 65533, 1, 65519, 65533, 0, 65520, 65533, 0, 65521, 65533, 0, 65522, 65533, 0, 65523, 65533, 0, 65524, 65533, 0, 65525, 65533, 0, 65526, 65533, 0, 65527, 65533, 0, 65528, 65533, 0, 65529, 65533, 0, 65530, 65533, 0, 65531, 65533, 0, 65532, 65533, 0, 65533, 65533, -536870911, 65534, 65533, 0, 65535, 65533, 0, 65536, 65533, 0, 65537, 65533, 0, 65538, 65533, 0, 65539, 65533, 0, 65540, 65533, 0, 65541, 65533, 0, 65542, 65533, 0, 65543, 65533, 0, 65544, 65533, 0, 65545, 65533, 0, 65546, 65533, 0, 65547, 65533, 1610612736, 65548, 65533, 1610612736, 65549, 65533, 1610612736, 65553, 65533, 4, 65565, 65533, 536870913, 65566, 65533, 1, 65567, 65533, 1, 65568, 65533, 0, 131044, 65533, 1610612736, 131055, 65533, 0, 131056, 65533, -1073741824, 131057, 65533, 536870912, 131058, 65533, -536870912, 131059, 65533, 1073741824, 131060, 65533, 0, 131061, 65533, 0, 131062, 65533, 0, 131063, 65533, -536870912, 131064, 65533, 0, 131065, 65533, 0, 131066, 65533, 0, 131067, 65533, 0, 131068, 65533, 0, 131070, 65533, 536870912, 131071, 65533, 1610612736, 131104, 65533, 0, 196640, 65533, 0, -28, 65533, -536870912, -27, 65533, 1, -26, 65533, 1, -17, 65533, -1073741824, 0, 65534, -536870911, 1, 65534, 1, 2, 65534, 1610612737, 3, 65534, 0, 13, 65534, 0, 14, 65534, 0, 15, 65534, 0, 16, 65534, 0, 17, 65534, 0, 18, 65534, 536870912, 19, 65534, 536870912, 20, 65534, 0, 21, 65534, 0, 22, 65534, 0, 23, 65534, 1610612736, 24, 65534, 0, 25, 65534, 1610612736, 26, 65534, 0, 27, 65534, 1610612736, 28, 65534, 0, 29, 65534, 0, 30, 65534, 0, 31, 65534, 0, 32, 65534, 0, 65508, 65534, 0, 65509, 65534, 1, 65510, 65534, 1, 65511, 65534, 1, 65512, 65534, 1610612737, 65513, 65534, 1, 65514, 65534, 1, 65515, 65534, 1, 65516, 65534, 1, 65517, 65534, -536870911, 65518, 65534, -536870911, 65519, 65534, 0, 65527, 65534, -536870912, 65528, 65534, 1, 65529, 65534, 1, 65530, 65534, 1, 65531, 65534, 1, 65532, 65534, 1, 65533, 65534, 1, 65534, 65534, 1, 65535, 65534, 1, 65539, 65534, 536870912, 65549, 65534, 0, 65550, 65534, 0, 65551, 65534, 0, 65552, 65534, 0, 65553, 65534, 0, 65554, 65534, 536870912, 65555, 65534, -1610612736, 65556, 65534, 0, 65557, 65534, 0, 65558, 65534, 0, 65559, 65534, -536870912, 65560, 65534, 0, 65561, 65534, 0, 65562, 65534, 0, 65563, 65534, 0, 65564, 65534, 0, 65565, 65534, 1610612736, 65566, 65534, 0, 65567, 65534, 1610612736, 65568, 65534, -536870912, 131044, 65534, 0, 131055, 65534, 0, 131063, 65534, 0, 131104, 65534, 0, 196640, 65534, 0, -28, 65534, 0, -27, 65534, 1, -26, 65534, 1610612737, -17, 65534, 0, 0, 65535, 1, 1, 65535, 1, 2, 65535, 1, 3, 65535, 536870912, 65508, 65535, 536870912, 65509, 65535, 0, 65510, 65535, 1610612737, 65511, 65535, 1, 65512, 65535, 1610612737, 65513, 65535, 1, 65514, 65535, -536870911, 65515, 65535, 1, 65516, 65535, 1, 65517, 65535, 1, 65518, 65535, 0, 65519, 65535, 0, 65527, 65535, 0, 65528, 65535, 1, 65529, 65535, -536870911, 65530, 65535, 1, 65531, 65535, 1, 65532, 65535, 1, 65533, 65535, 1, 65534, 65535, 1, 65535, 65535, 1, 65537, 65535, 2, 65539, 65535, 0, 131044, 65535, 0, 131045, 65535, 0, 131049, 65535, 536870914, 131054, 65535, 536870912, 131055, 65535, 0, 131063, 65535, 0, 131065, 65535, 2, -28, 65535, 0, -18, 65535, 0, -17, 65535, 536870912 )
}
_sections_unfolded = [ "Collision", "mesh_library" ]
__meta__ = {
"_editor_clip_": 0,
"_editor_floor_": Vector3( 0, 1, -10 )
}

[node name="Camera" type="Camera" parent="Playfield"]
transform = Transform( 1, 0, 0, 0, 0.34202, 0.939693, 0, -0.939693, 0.34202, -30, 16, 74 )
keep_aspect = 1
cull_mask = 1048575
environment = ExtResource( 13 )
h_offset = 0.0
v_offset = 0.0
doppler_tracking = 0
projection = 1
current = false
fov = 70.0
size = 24.0
near = 0.05
far = 64.0
_sections_unfolded = [ "Pause", "Transform" ]

[node name="Ambient" type="Spatial" parent="Playfield"]
transform = Transform( 1, 0, 0, 0, 1, 0, 0, 0, 1, -35, 0, 18 )

[node name="DirectionalLight2" type="DirectionalLight" parent="Playfield/Ambient"]
transform = Transform( 0.984808, -0.142244, -0.0996006, -0.163176, -0.561882, -0.810964, 0.0593912, 0.814896, -0.576556, -16, 11, 0 )
layers = 1
light_color = Color( 1, 1, 1, 1 )
light_energy = 0.12
light_indirect_energy = 1.0
light_negative = false
light_specular = 0.5
light_bake_mode = 1
light_cull_mask = -1
shadow_enabled = false
shadow_color = Color( 0, 0, 0, 1 )
shadow_bias = 0.01
shadow_contact = 0.0
shadow_reverse_cull_face = false
editor_only = false
directional_shadow_mode = 0
directional_shadow_split_1 = 0.1
directional_shadow_split_2 = 0.2
directional_shadow_split_3 = 0.5
directional_shadow_blend_splits = false
directional_shadow_normal_bias = 0.6
directional_shadow_bias_split_scale = 0.25
directional_shadow_depth_range = 0
directional_shadow_max_distance = 20.0
_sections_unfolded = [ "Light", "Shadow", "Transform" ]

[node name="DirectionalLight" type="DirectionalLight" parent="Playfield/Ambient"]
transform = Transform( 0.984808, -0.142244, 0.0996005, 0, 0.573577, 0.819152, -0.173648, -0.806707, 0.564863, -16, 11, 0 )
layers = 1
light_color = Color( 1, 1, 1, 1 )
light_energy = 0.06
light_indirect_energy = 1.0
light_negative = false
light_specular = 0.5
light_bake_mode = 1
light_cull_mask = -1
shadow_enabled = false
shadow_color = Color( 0, 0, 0, 1 )
shadow_bias = 0.01
shadow_contact = 0.0
shadow_reverse_cull_face = false
editor_only = false
directional_shadow_mode = 0
directional_shadow_split_1 = 0.1
directional_shadow_split_2 = 0.2
directional_shadow_split_3 = 0.5
directional_shadow_blend_splits = false
directional_shadow_normal_bias = 0.6
directional_shadow_bias_split_scale = 0.25
directional_shadow_depth_range = 0
directional_shadow_max_distance = 20.0
_sections_unfolded = [ "Light", "Shadow", "Transform" ]

[node name="Barrel19" parent="Playfield" instance=ExtResource( 14 )]
transform = Transform( 1, 0, 0, 0, 1, 0, 0, 0, 1, 18.7411, 2.8695, -23 )

[node name="Barrel20" parent="Playfield" instance=ExtResource( 14 )]
transform = Transform( 1, 0, 0, 0, 1, 0, 0, 0, 1, 16.4001, 2.8695, -25 )

[node name="Barrel21" parent="Playfield" instance=ExtResource( 14 )]
transform = Transform( 1, 0, 0, 0, 1, 0, 0, 0, 1, 18.5965, 2.8695, -25.1635 )

[node name="Barrel23" parent="Playfield" instance=ExtResource( 14 )]
transform = Transform( 1, 0, 0, 0, 1, 0, 0, 0, 1, 17.3591, 2.8695, -23.7157 )

[node name="Barrel24" parent="Playfield" instance=ExtResource( 14 )]
transform = Transform( 1, 0, 0, 0, 1, 0, 0, 0, 1, 17.3846, 2.8695, -27 )

[node name="Barrel25" parent="Playfield" instance=ExtResource( 14 )]
transform = Transform( 1, 0, 0, 0, 1, 0, 0, 0, 1, 19.1644, 2.8695, -26.8332 )

[node name="Barrel26" parent="Playfield" instance=ExtResource( 14 )]
transform = Transform( 1, 0, 0, 0, 1, 0, 0, 0, 1, 21, 2.8695, -26.8365 )

[node name="Barrel27" parent="Playfield" instance=ExtResource( 14 )]
transform = Transform( 1, 0, 0, 0, 1, 0, 0, 0, 1, 20.6664, 2.8695, -24.9532 )

[node name="Barrel28" parent="Playfield" instance=ExtResource( 14 )]
transform = Transform( 1, 0, 0, 0, 1, 0, 0, 0, 1, 23, 2.8695, -27.143 )

[node name="Barrel29" parent="Playfield" instance=ExtResource( 14 )]
transform = Transform( 1, 0, 0, 0, 1, 0, 0, 0, 1, 15.1413, 2.8695, -26.7666 )

[node name="Barrel13" parent="Playfield" instance=ExtResource( 14 )]
transform = Transform( 1, 0, 0, 0, 1, 0, 0, 0, 1, 63, 2.8695, -25 )

[node name="Barrel14" parent="Playfield" instance=ExtResource( 14 )]
transform = Transform( 1, 0, 0, 0, 1, 0, 0, 0, 1, 37, 2.8695, -25 )

[node name="Barrel15" parent="Playfield" instance=ExtResource( 14 )]
transform = Transform( 1, 0, 0, 0, 1, 0, 0, 0, 1, 43, 2.8695, -21 )

[node name="Barrel16" parent="Playfield" instance=ExtResource( 14 )]
transform = Transform( 1, 0, 0, 0, 1, 0, 0, 0, 1, 47, 2.8695, -13 )

[node name="Barrel17" parent="Playfield" instance=ExtResource( 14 )]
transform = Transform( 1, 0, 0, 0, 1, 0, 0, 0, 1, 53, 2.8695, -13 )

[node name="Barrel18" parent="Playfield" instance=ExtResource( 14 )]
transform = Transform( 1, 0, 0, 0, 1, 0, 0, 0, 1, 57, 2.8695, -21 )

[node name="Torch7" parent="Playfield" instance=ExtResource( 15 )]
transform = Transform( 1, 0, 0, 0, 1, 0, 0, 0, 1, -16, 4.7616, -31 )
_sections_unfolded = [ "Collision", "Transform" ]
light_range = 15.0

[node name="Torch3" parent="Playfield" instance=ExtResource( 15 )]
transform = Transform( 1, 0, 0, 0, 1, 0, 0, 0, 1, 50, 7, -12 )
_sections_unfolded = [ "Collision", "Transform" ]
light_range = 15.0

[node name="Torch4" parent="Playfield" instance=ExtResource( 15 )]
transform = Transform( 1, 0, 0, 0, 1, 0, 0, 0, 1, 48, 25, -103 )
_sections_unfolded = [ "Collision", "Transform" ]
light_range = 10.0

[node name="Torch5" parent="Playfield" instance=ExtResource( 15 )]
transform = Transform( 1, 0, 0, 0, 1, 0, 0, 0, 1, 43, 15, -95 )
_sections_unfolded = [ "Collision", "Transform" ]
light_range = 10.0

[node name="Torch6" parent="Playfield" instance=ExtResource( 15 )]
transform = Transform( 1, 0, 0, 0, 1, 0, 0, 0, 1, 53, 15, -95 )
_sections_unfolded = [ "Collision", "Transform" ]
light_range = 10.0

[node name="Imp15" parent="Playfield" instance=ExtResource( 16 )]
transform = Transform( 1, 0, 0, 0, 1, 0, 0, 0, 1, 43, 3, -7 )

[node name="Imp18" parent="Playfield" instance=ExtResource( 16 )]
transform = Transform( 1, 0, 0, 0, 1, 0, 0, 0, 1, 59, 3, -15 )

[node name="Imp20" parent="Playfield" instance=ExtResource( 16 )]
transform = Transform( 1, 0, 0, 0, 1, 0, 0, 0, 1, 55, 7, -15 )

[node name="Imp19" parent="Playfield" instance=ExtResource( 16 )]
transform = Transform( 1, 0, 0, 0, 1, 0, 0, 0, 1, 47, 7, -17 )

[node name="Imp16" parent="Playfield" instance=ExtResource( 16 )]
transform = Transform( 1, 0, 0, 0, 1, 0, 0, 0, 1, 43, 3, -11 )

[node name="Imp17" parent="Playfield" instance=ExtResource( 16 )]
transform = Transform( 1, 0, 0, 0, 1, 0, 0, 0, 1, 39, 3, -17 )

[node name="Imp21" parent="Playfield" instance=ExtResource( 16 )]
transform = Transform( 1, 0, 0, 0, 1, 0, 0, 0, 1, -19, 3, -27 )

[node name="Imp22" parent="Playfield" instance=ExtResource( 16 )]
transform = Transform( 1, 0, 0, 0, 1, 0, 0, 0, 1, -21, 3, -27 )

[node name="Imp23" parent="Playfield" instance=ExtResource( 16 )]
transform = Transform( 1, 0, 0, 0, 1, 0, 0, 0, 1, -13, 3, -27 )

[node name="Imp24" parent="Playfield" instance=ExtResource( 16 )]
transform = Transform( 1, 0, 0, 0, 1, 0, 0, 0, 1, -11, 3, -27 )

[node name="Imp25" parent="Playfield" instance=ExtResource( 16 )]
transform = Transform( 1, 0, 0, 0, 1, 0, 0, 0, 1, -11, 3, -23 )

[node name="Imp26" parent="Playfield" instance=ExtResource( 16 )]
transform = Transform( 1, 0, 0, 0, 1, 0, 0, 0, 1, -13, 3, -23 )

[node name="Imp27" parent="Playfield" instance=ExtResource( 16 )]
transform = Transform( 1, 0, 0, 0, 1, 0, 0, 0, 1, -19, 3, -23 )

[node name="Imp28" parent="Playfield" instance=ExtResource( 16 )]
transform = Transform( 1, 0, 0, 0, 1, 0, 0, 0, 1, -21, 3, -23 )

[node name="Spawner" parent="Playfield" instance=ExtResource( 17 )]
transform = Transform( 1, 0, 0, 0, 1, 0, 0, 0, 1, -45, 3, -9 )
actor_type = ExtResource( 16 )
max_spawns = 10
spawn_active_radius = 12.0
spawn_interval = 0.7

[node name="Spawner2" parent="Playfield" instance=ExtResource( 17 )]
transform = Transform( 1, 0, 0, 0, 1, 0, 0, 0, 1, 23, 5, -21 )
actor_type = ExtResource( 16 )
max_spawns = 5
spawn_active_radius = 10.0
spawn_interval = 0.6

[node name="Spawner3" parent="Playfield" instance=ExtResource( 17 )]
transform = Transform( 1, 0, 0, 0, 1, 0, 0, 0, 1, 31, 5, -21 )
actor_type = ExtResource( 16 )
max_spawns = 5
spawn_active_radius = 10.0
spawn_interval = 0.6

[node name="Key2" parent="Playfield" instance=ExtResource( 18 )]
transform = Transform( 1, 0, 0, 0, 1, 0, 0, 0, 1, -53, 0, -6 )

[node name="LockedDoor2" parent="Playfield" instance=ExtResource( 19 )]
transform = Transform( 1, 0, 0, 0, 1, 0, 0, 0, 1, 17, 3, -11 )

[node name="SpawnA" type="Spatial" parent="Playfield"]
transform = Transform( 1, 0, 0, 0, 1, 0, 0, 0, 1, -27, 1, 65 )
_sections_unfolded = [ "Transform" ]

[node name="SpawnB" type="Spatial" parent="Playfield"]
transform = Transform( 1, 0, 0, 0, 1, 0, 0, 0, 1, 50, 9, -23 )

[node name="Coin" parent="Playfield" instance=ExtResource( 20 )]
transform = Transform( 1, 0, 0, 0, 1, 0, 0, 0, 1, 43, 8, -39 )

[node name="Coin4" parent="Playfield" instance=ExtResource( 20 )]
transform = Transform( 1, 0, 0, 0, 1, 0, 0, 0, 1, 59, 4, -7 )

[node name="Coin5" parent="Playfield" instance=ExtResource( 20 )]
transform = Transform( 1, 0, 0, 0, 1, 0, 0, 0, 1, 61, 4, -7 )

[node name="Coin6" parent="Playfield" instance=ExtResource( 20 )]
transform = Transform( 1, 0, 0, 0, 1, 0, 0, 0, 1, 63, 4, -7 )

[node name="Coin7" parent="Playfield" instance=ExtResource( 20 )]
transform = Transform( 1, 0, 0, 0, 1, 0, 0, 0, 1, 63, 4, -5 )

[node name="Coin8" parent="Playfield" instance=ExtResource( 20 )]
transform = Transform( 1, 0, 0, 0, 1, 0, 0, 0, 1, 61, 4, -5 )

[node name="Coin9" parent="Playfield" instance=ExtResource( 20 )]
transform = Transform( 1, 0, 0, 0, 1, 0, 0, 0, 1, 59, 4, -5 )

[node name="Coin2" parent="Playfield" instance=ExtResource( 20 )]
transform = Transform( 1, 0, 0, 0, 1, 0, 0, 0, 1, 41, 8, -61 )

[node name="Coin3" parent="Playfield" instance=ExtResource( 20 )]
transform = Transform( 1, 0, 0, 0, 1, 0, 0, 0, 1, 61, 8, -65 )

[node name="CheckpointB" type="Area" parent="Playfield"]
transform = Transform( 1, 0, 0, 0, 1, 0, 0, 0, 1, 50, 9, -29 )
input_ray_pickable = false
input_capture_on_drag = false
space_override = 0
gravity_point = false
gravity_distance_scale = 0.0
gravity_vec = Vector3( 0, -1, 0 )
gravity = 9.8
linear_damp = 0.1
angular_damp = 1.0
priority = 0.0
monitoring = true
monitorable = true
collision_layer = 0
collision_mask = 1
audio_bus_override = false
audio_bus_name = "Master"
reverb_bus_enable = false
reverb_bus_name = "Master"
reverb_bus_amount = 0.0
reverb_bus_uniformity = 0.0
_sections_unfolded = [ "Collision" ]

[node name="CollisionShape" type="CollisionShape" parent="Playfield/CheckpointB"]
shape = SubResource( 26 )
disabled = false
_sections_unfolded = [ "shape" ]

[node name="EndTrigger" type="Area" parent="Playfield"]
transform = Transform( 1, 0, 0, 0, 1, 0, 0, 0, 1, 48, 15, -144 )
input_ray_pickable = false
input_capture_on_drag = false
space_override = 0
gravity_point = false
gravity_distance_scale = 0.0
gravity_vec = Vector3( 0, -1, 0 )
gravity = 9.8
linear_damp = 0.1
angular_damp = 1.0
priority = 0.0
monitoring = true
monitorable = true
collision_layer = 0
collision_mask = 1
audio_bus_override = false
audio_bus_name = "Master"
reverb_bus_enable = false
reverb_bus_name = "Master"
reverb_bus_amount = 0.0
reverb_bus_uniformity = 0.0
_sections_unfolded = [ "Collision" ]

[node name="CollisionShape" type="CollisionShape" parent="Playfield/EndTrigger"]
transform = Transform( 1, 0, 0, 0, 1, 0, 0, 0, 1, 0, 0, -3 )
shape = SubResource( 29 )
disabled = false
_sections_unfolded = [ "shape" ]

[node name="OmniLight" type="OmniLight" parent="Playfield"]
transform = Transform( 1, 0, 0, 0, 1, 0, 0, 0, 1, -5, 8, 1 )
layers = 1
light_color = Color( 1, 1, 1, 1 )
light_energy = 0.25
light_indirect_energy = 1.0
light_negative = false
light_specular = 0.5
light_bake_mode = 1
light_cull_mask = -1
shadow_enabled = true
shadow_color = Color( 0, 0, 0, 1 )
shadow_bias = 0.15
shadow_contact = 0.0
shadow_reverse_cull_face = false
editor_only = false
omni_range = 15.0
omni_attenuation = 0.5
omni_shadow_mode = 1
omni_shadow_detail = 1
_sections_unfolded = [ "Light", "Omni", "Shadow" ]

[node name="Barrel" parent="Playfield" instance=ExtResource( 14 )]
transform = Transform( 1, 0, 0, 0, 1, 0, 0, 0, 1, -9, 2.8695, 1 )

[node name="Barrel2" parent="Playfield" instance=ExtResource( 14 )]
transform = Transform( 1, 0, 0, 0, 1, 0, 0, 0, 1, -7, 2.8695, 1 )

[node name="Barrel3" parent="Playfield" instance=ExtResource( 14 )]
transform = Transform( 1, 0, 0, 0, 1, 0, 0, 0, 1, -5, 2.8695, 1 )

[node name="Barrel4" parent="Playfield" instance=ExtResource( 14 )]
transform = Transform( 1, 0, 0, 0, 1, 0, 0, 0, 1, -3, 2.8695, 1 )

[node name="Barrel5" parent="Playfield" instance=ExtResource( 14 )]
transform = Transform( 1, 0, 0, 0, 1, 0, 0, 0, 1, -1, 2.8695, 1 )

[node name="Imp" parent="Playfield" instance=ExtResource( 16 )]
transform = Transform( 1, 0, 0, 0, 1, 0, 0, 0, 1, -11, 3, -3 )

[node name="Imp9" parent="Playfield" instance=ExtResource( 16 )]
transform = Transform( 1, 0, 0, 0, 1, 0, 0, 0, 1, -15, 3, 3 )

[node name="Imp10" parent="Playfield" instance=ExtResource( 16 )]
transform = Transform( 1, 0, 0, 0, 1, 0, 0, 0, 1, 5, 3, 3 )

[node name="Imp8" parent="Playfield" instance=ExtResource( 16 )]
transform = Transform( 1, 0, 0, 0, 1, 0, 0, 0, 1, 1, 3, -3 )

[node name="ShadowCatcher" type="MeshInstance" parent="Playfield"]
transform = Transform( -4.37114e-08, 0, 1, 1, -4.37114e-08, 4.37114e-08, 4.37114e-08, 1, 1.91069e-15, 2, 12, -6 )
layers = 1
material_override = null
cast_shadow = 3
extra_cull_margin = 0.0
use_in_baked_light = false
lod_min_distance = 0.0
lod_min_hysteresis = 0.0
lod_max_distance = 0.0
lod_max_hysteresis = 0.0
mesh = SubResource( 24 )
skeleton = NodePath("..")
material/0 = null
_sections_unfolded = [ "Geometry" ]

[node name="ShadowCatcher7" type="MeshInstance" parent="Playfield"]
transform = Transform( -4.37114e-08, 0, 1, 1, -4.37114e-08, 4.37114e-08, 4.37114e-08, 1, 1.91069e-15, -4, 12, -10 )
layers = 1
material_override = null
cast_shadow = 3
extra_cull_margin = 0.0
use_in_baked_light = false
lod_min_distance = 0.0
lod_min_hysteresis = 0.0
lod_max_distance = 0.0
lod_max_hysteresis = 0.0
mesh = SubResource( 24 )
skeleton = NodePath("..")
material/0 = null
_sections_unfolded = [ "Geometry" ]

[node name="ShadowCatcher6" type="MeshInstance" parent="Playfield"]
transform = Transform( -4.37114e-08, 0, 1, 1, -4.37114e-08, 4.37114e-08, 4.37114e-08, 1, 1.91069e-15, 2, 12, 10 )
layers = 1
material_override = null
cast_shadow = 3
extra_cull_margin = 0.0
use_in_baked_light = false
lod_min_distance = 0.0
lod_min_hysteresis = 0.0
lod_max_distance = 0.0
lod_max_hysteresis = 0.0
mesh = SubResource( 24 )
skeleton = NodePath("..")
material/0 = null
_sections_unfolded = [ "Geometry" ]

[node name="ShadowCatcher2" type="MeshInstance" parent="Playfield"]
transform = Transform( -4.37114e-08, 0, 1, 1, -4.37114e-08, 4.37114e-08, 4.37114e-08, 1, 1.91069e-15, -12, 12, -6 )
layers = 1
material_override = null
cast_shadow = 3
extra_cull_margin = 0.0
use_in_baked_light = false
lod_min_distance = 0.0
lod_min_hysteresis = 0.0
lod_max_distance = 0.0
lod_max_hysteresis = 0.0
mesh = SubResource( 24 )
skeleton = NodePath("..")
material/0 = null
_sections_unfolded = [ "Geometry" ]

[node name="ShadowCatcher5" type="MeshInstance" parent="Playfield"]
transform = Transform( -4.37114e-08, 0, 1, 1, -4.37114e-08, 4.37114e-08, 4.37114e-08, 1, 1.91069e-15, -12, 12, 10 )
layers = 1
material_override = null
cast_shadow = 3
extra_cull_margin = 0.0
use_in_baked_light = false
lod_min_distance = 0.0
lod_min_hysteresis = 0.0
lod_max_distance = 0.0
lod_max_hysteresis = 0.0
mesh = SubResource( 24 )
skeleton = NodePath("..")
material/0 = null
_sections_unfolded = [ "Geometry" ]

[node name="ShadowCatcher3" type="MeshInstance" parent="Playfield"]
transform = Transform( 4.37114e-08, 1, -4.37114e-08, 1, -4.37114e-08, 4.37114e-08, 4.37114e-08, -4.37114e-08, -1, -16, 12, 2 )
layers = 1
material_override = null
cast_shadow = 3
extra_cull_margin = 0.0
use_in_baked_light = false
lod_min_distance = 0.0
lod_min_hysteresis = 0.0
lod_max_distance = 0.0
lod_max_hysteresis = 0.0
mesh = SubResource( 25 )
skeleton = NodePath("..")
material/0 = null
_sections_unfolded = [ "Geometry" ]

[node name="ShadowCatcher4" type="MeshInstance" parent="Playfield"]
transform = Transform( 4.37114e-08, 1, -4.37114e-08, 1, -4.37114e-08, 4.37114e-08, 4.37114e-08, -4.37114e-08, -1, 6, 12, 2 )
layers = 1
material_override = null
cast_shadow = 3
extra_cull_margin = 0.0
use_in_baked_light = false
lod_min_distance = 0.0
lod_min_hysteresis = 0.0
lod_max_distance = 0.0
lod_max_hysteresis = 0.0
mesh = SubResource( 25 )
skeleton = NodePath("..")
material/0 = null
_sections_unfolded = [ "Geometry" ]

[node name="ShadowCaster" type="MeshInstance" parent="Playfield"]
transform = Transform( -3.03003e-14, 6.03983e-07, -1, -1, -3.21071e-06, 1.35525e-20, -4.01339e-07, 8, 7.54979e-08, -5, 6, 1 )
layers = 1
material_override = null
cast_shadow = 3
extra_cull_margin = 0.0
use_in_baked_light = false
lod_min_distance = 0.0
lod_min_hysteresis = 0.0
lod_max_distance = 0.0
lod_max_hysteresis = 0.0
mesh = ExtResource( 21 )
skeleton = NodePath("..")
material/0 = null
_sections_unfolded = [ "Geometry", "Transform" ]

[node name="ShadowCaster3" type="MeshInstance" parent="Playfield"]
transform = Transform( -3.03003e-14, 6.03983e-07, -1, -1, -3.21071e-06, 1.35525e-20, -4.01339e-07, 8, 7.54979e-08, -6.875, 6, 1 )
layers = 1
material_override = null
cast_shadow = 3
extra_cull_margin = 0.0
use_in_baked_light = false
lod_min_distance = 0.0
lod_min_hysteresis = 0.0
lod_max_distance = 0.0
lod_max_hysteresis = 0.0
mesh = ExtResource( 21 )
skeleton = NodePath("..")
material/0 = null
_sections_unfolded = [ "Geometry", "Transform" ]

[node name="ShadowCaster4" type="MeshInstance" parent="Playfield"]
transform = Transform( -3.03003e-14, 6.03983e-07, -1, -1, -3.21071e-06, 1.35525e-20, -4.01339e-07, 8, 7.54979e-08, -8.75, 6, 1 )
layers = 1
material_override = null
cast_shadow = 3
extra_cull_margin = 0.0
use_in_baked_light = false
lod_min_distance = 0.0
lod_min_hysteresis = 0.0
lod_max_distance = 0.0
lod_max_hysteresis = 0.0
mesh = ExtResource( 21 )
skeleton = NodePath("..")
material/0 = null
_sections_unfolded = [ "Geometry", "Transform" ]

[node name="ShadowCaster2" type="MeshInstance" parent="Playfield"]
transform = Transform( -3.03003e-14, 6.03983e-07, -1, -1, -3.21071e-06, 1.35525e-20, -4.01339e-07, 8, 7.54979e-08, -3.125, 6, 1 )
layers = 1
material_override = null
cast_shadow = 3
extra_cull_margin = 0.0
use_in_baked_light = false
lod_min_distance = 0.0
lod_min_hysteresis = 0.0
lod_max_distance = 0.0
lod_max_hysteresis = 0.0
mesh = ExtResource( 21 )
skeleton = NodePath("..")
material/0 = null
_sections_unfolded = [ "Geometry", "Transform" ]

[node name="ShadowCaster5" type="MeshInstance" parent="Playfield"]
transform = Transform( -3.03003e-14, 6.03983e-07, -1, -1, -3.21071e-06, 1.35525e-20, -4.01339e-07, 8, 7.54979e-08, -1.25, 6, 1 )
layers = 1
material_override = null
cast_shadow = 3
extra_cull_margin = 0.0
use_in_baked_light = false
lod_min_distance = 0.0
lod_min_hysteresis = 0.0
lod_max_distance = 0.0
lod_max_hysteresis = 0.0
mesh = ExtResource( 21 )
skeleton = NodePath("..")
material/0 = null
_sections_unfolded = [ "Geometry", "Transform" ]

[node name="Barrel6" parent="Playfield" instance=ExtResource( 14 )]
transform = Transform( 1, 0, 0, 0, 1, 0, 0, 0, 1, -25, 0.8695, 51 )

[node name="Barrel8" parent="Playfield" instance=ExtResource( 14 )]
transform = Transform( 1, 0, 0, 0, 1, 0, 0, 0, 1, -21, 0.8695, 49 )

[node name="Barrel9" parent="Playfield" instance=ExtResource( 14 )]
transform = Transform( 1, 0, 0, 0, 1, 0, 0, 0, 1, -19, 0.8695, 49 )

[node name="Barrel10" parent="Playfield" instance=ExtResource( 14 )]
transform = Transform( 1, 0, 0, 0, 1, 0, 0, 0, 1, -17, 0.8695, 49 )

[node name="Barrel11" parent="Playfield" instance=ExtResource( 14 )]
transform = Transform( 1, 0, 0, 0, 1, 0, 0, 0, 1, 23, 0.8695, 33 )

[node name="Barrel12" parent="Playfield" instance=ExtResource( 14 )]
transform = Transform( 1, 0, 0, 0, 1, 0, 0, 0, 1, 1, 0.8695, 39 )

[node name="Barrel7" parent="Playfield" instance=ExtResource( 14 )]
transform = Transform( 1, 0, 0, 0, 1, 0, 0, 0, 1, -29, 0.8695, 57 )

[node name="Torch" parent="Playfield" instance=ExtResource( 15 )]
transform = Transform( 1, 0, 0, 0, 1, 0, 0, 0, 1, -34, 1, 36 )
_sections_unfolded = [ "Collision", "Transform" ]

[node name="Torch2" parent="Playfield" instance=ExtResource( 15 )]
transform = Transform( 1, 0, 0, 0, 1, 0, 0, 0, 1, 21, 1, 47 )
_sections_unfolded = [ "Collision", "Transform" ]

[node name="Imp2" parent="Playfield" instance=ExtResource( 16 )]
transform = Transform( 1, 0, 0, 0, 1, 0, 0, 0, 1, -21, 1, 43 )

[node name="Imp3" parent="Playfield" instance=ExtResource( 16 )]
transform = Transform( 1, 0, 0, 0, 1, 0, 0, 0, 1, -9, 1, 49 )

[node name="Imp5" parent="Playfield" instance=ExtResource( 16 )]
transform = Transform( 1, 0, 0, 0, 1, 0, 0, 0, 1, 3, 1, 49 )

[node name="Imp4" parent="Playfield" instance=ExtResource( 16 )]
transform = Transform( 1, 0, 0, 0, 1, 0, 0, 0, 1, -9, 1, 43 )

[node name="Imp6" parent="Playfield" instance=ExtResource( 16 )]
transform = Transform( 1, 0, 0, 0, 1, 0, 0, 0, 1, 15, 1, 33 )

[node name="Imp12" parent="Playfield" instance=ExtResource( 16 )]
transform = Transform( 1, 0, 0, 0, 1, 0, 0, 0, 1, 3, 1, 25 )

[node name="Imp7" parent="Playfield" instance=ExtResource( 16 )]
transform = Transform( 1, 0, 0, 0, 1, 0, 0, 0, 1, 11, 1, 43 )

[node name="Key" parent="Playfield" instance=ExtResource( 18 )]
transform = Transform( 1, 0, 0, 0, 1, 0, 0, 0, 1, -3, 0, 45 )

[node name="LockedDoor" parent="Playfield" instance=ExtResource( 19 )]
transform = Transform( 1, 0, 0, 0, 1, 0, 0, 0, 1, 3, 1, 31 )

[node name="Tutorial1Trigger" type="Area" parent="Playfield"]
transform = Transform( 1, 0, 0, 0, 1, 0, 0, 0, 1, -27, 1, 54 )
input_ray_pickable = false
input_capture_on_drag = false
space_override = 0
gravity_point = false
gravity_distance_scale = 0.0
gravity_vec = Vector3( 0, -1, 0 )
gravity = 9.8
linear_damp = 0.1
angular_damp = 1.0
priority = 0.0
monitoring = true
monitorable = true
collision_layer = 0
collision_mask = 1
audio_bus_override = false
audio_bus_name = "Master"
reverb_bus_enable = false
reverb_bus_name = "Master"
reverb_bus_amount = 0.0
reverb_bus_uniformity = 0.0
_sections_unfolded = [ "Collision" ]

[node name="CollisionShape" type="CollisionShape" parent="Playfield/Tutorial1Trigger"]
transform = Transform( 1, 0, 0, 0, 1, 0, 0, 0, 1, 0, 0, 1 )
shape = SubResource( 27 )
disabled = false
_sections_unfolded = [ "shape" ]

[node name="Tutorial2Trigger2" type="Area" parent="Playfield"]
transform = Transform( 1, 0, 0, 0, 1, 0, 0, 0, 1, -23, 1, 35 )
input_ray_pickable = false
input_capture_on_drag = false
space_override = 0
gravity_point = false
gravity_distance_scale = 0.0
gravity_vec = Vector3( 0, -1, 0 )
gravity = 9.8
linear_damp = 0.1
angular_damp = 1.0
priority = 0.0
monitoring = true
monitorable = true
collision_layer = 0
collision_mask = 1
audio_bus_override = false
audio_bus_name = "Master"
reverb_bus_enable = false
reverb_bus_name = "Master"
reverb_bus_amount = 0.0
reverb_bus_uniformity = 0.0
_sections_unfolded = [ "Collision" ]

[node name="CollisionShape" type="CollisionShape" parent="Playfield/Tutorial2Trigger2"]
transform = Transform( 1, 0, 0, 0, 1, 0, 0, 0, 1, 0, 0, 1 )
shape = SubResource( 28 )
disabled = false
_sections_unfolded = [ "shape" ]

[node name="Imp11" parent="Playfield" instance=ExtResource( 16 )]
transform = Transform( 1, 0, 0, 0, 1, 0, 0, 0, 1, -11, 1, 23 )

[connection signal="pressed" from="PauseOverlay/Shadow/Border/PauseMenu/ButtonContainer/ResumeButton" to="." method="_on_ResumeButton_pressed"]
[connection signal="pressed" from="PauseOverlay/Shadow/Border/PauseMenu/ButtonContainer/RestartButton" to="." method="_on_RestartButton_pressed"]
[connection signal="pressed" from="PauseOverlay/Shadow/Border/PauseMenu/ButtonContainer/EditButton" to="." method="_on_EditButton_pressed"]
[connection signal="pressed" from="PauseOverlay/Shadow/Border/PauseMenu/ButtonContainer/QuitButton" to="." method="_on_QuitButton_pressed"]
[connection signal="body_entered" from="Playfield/CheckpointB" to="." method="_on_CheckpointB_body_entered"]
[connection signal="body_entered" from="Playfield/EndTrigger" to="." method="_on_EndTrigger_body_entered"]
[connection signal="body_entered" from="Playfield/Tutorial1Trigger" to="." method="_on_Tutorial1Trigger_body_entered"]
[connection signal="body_entered" from="Playfield/Tutorial2Trigger2" to="." method="_on_Tutorial2Trigger2_body_entered"]
