[gd_scene load_steps=32 format=2]

[ext_resource path="res://textures/gbrickmid_ao.png" type="Texture" id=1]
[ext_resource path="res://textures/gbrickmid_normal.png" type="Texture" id=2]
[ext_resource path="res://textures/gbrickmid_roughness.png" type="Texture" id=3]
[ext_resource path="res://textures/gfloor_ao.png" type="Texture" id=4]
[ext_resource path="res://textures/gfloor_normal.png" type="Texture" id=5]
[ext_resource path="res://textures/gfloor_roughness.png" type="Texture" id=6]
[ext_resource path="res://models/column/ao.png" type="Texture" id=7]
[ext_resource path="res://models/column/normal.png" type="Texture" id=8]
[ext_resource path="res://models/column/roughness.png" type="Texture" id=9]
[ext_resource path="res://models/bench/normal.png" type="Texture" id=10]
[ext_resource path="res://models/bench/roughness.png" type="Texture" id=11]

[sub_resource type="SpatialMaterial" id=1]

render_priority = 0
flags_transparent = false
flags_unshaded = false
flags_vertex_lighting = false
flags_no_depth_test = false
flags_use_point_size = false
flags_world_triplanar = false
flags_fixed_size = false
flags_albedo_tex_force_srgb = false
flags_do_not_receive_shadows = false
flags_disable_ambient_light = false
flags_ensure_correct_normals = false
vertex_color_use_as_albedo = false
vertex_color_is_srgb = false
params_diffuse_mode = 0
params_specular_mode = 0
params_blend_mode = 0
params_cull_mode = 0
params_depth_draw_mode = 0
params_line_width = 1.0
params_point_size = 1.0
params_billboard_mode = 0
params_billboard_keep_scale = false
params_grow = false
params_use_alpha_scissor = false
albedo_color = Color( 0.207843, 0.309804, 0.478431, 1 )
metallic = 0.0
metallic_specular = 0.0
metallic_texture_channel = 0
roughness = 1.0
roughness_texture = ExtResource( 3 )
roughness_texture_channel = 0
emission_enabled = false
normal_enabled = true
normal_scale = 1.0
normal_texture = ExtResource( 2 )
rim_enabled = false
clearcoat_enabled = false
anisotropy_enabled = false
ao_enabled = true
ao_light_affect = 0.77
ao_texture = ExtResource( 1 )
ao_on_uv2 = false
ao_texture_channel = 0
depth_enabled = false
subsurf_scatter_enabled = false
transmission_enabled = false
refraction_enabled = false
detail_enabled = false
uv1_scale = Vector3( 0.25, 0.25, 0.25 )
uv1_offset = Vector3( 0.25, 0.25, 0.25 )
uv1_triplanar = true
uv1_triplanar_sharpness = 1.0
uv2_scale = Vector3( 1, 1, 1 )
uv2_offset = Vector3( 0, 0, 0 )
uv2_triplanar = false
uv2_triplanar_sharpness = 1.0
proximity_fade_enable = false
distance_fade_mode = 0
_sections_unfolded = [ "Albedo", "NormalMap" ]

[sub_resource type="CubeMesh" id=2]

material = SubResource( 1 )
custom_aabb = AABB( 0, 0, 0, 0, 0, 0 )
flip_faces = false
size = Vector3( 2, 2, 2 )
subdivide_width = 0
subdivide_height = 0
subdivide_depth = 0

[sub_resource type="BoxShape" id=3]

margin = 0.04
extents = Vector3( 1, 8, 1 )

[sub_resource type="SpatialMaterial" id=4]

render_priority = 0
flags_transparent = false
flags_unshaded = false
flags_vertex_lighting = false
flags_no_depth_test = false
flags_use_point_size = false
flags_world_triplanar = false
flags_fixed_size = false
flags_albedo_tex_force_srgb = false
flags_do_not_receive_shadows = false
flags_disable_ambient_light = false
flags_ensure_correct_normals = false
vertex_color_use_as_albedo = false
vertex_color_is_srgb = false
params_diffuse_mode = 0
params_specular_mode = 0
params_blend_mode = 0
params_cull_mode = 0
params_depth_draw_mode = 0
params_line_width = 1.0
params_point_size = 1.0
params_billboard_mode = 0
params_billboard_keep_scale = false
params_grow = false
params_use_alpha_scissor = false
albedo_color = Color( 0.207843, 0.309804, 0.478431, 1 )
metallic = 0.0
metallic_specular = 0.0
metallic_texture_channel = 0
roughness = 1.0
roughness_texture = ExtResource( 6 )
roughness_texture_channel = 0
emission_enabled = false
normal_enabled = true
normal_scale = 0.67
normal_texture = ExtResource( 5 )
rim_enabled = false
clearcoat_enabled = false
anisotropy_enabled = false
ao_enabled = true
ao_light_affect = 0.5
ao_texture = ExtResource( 4 )
ao_on_uv2 = false
ao_texture_channel = 0
depth_enabled = false
subsurf_scatter_enabled = false
transmission_enabled = false
refraction_enabled = false
detail_enabled = false
uv1_scale = Vector3( 0.25, 0.25, 0.25 )
uv1_offset = Vector3( 0.25, 0.25, 0.25 )
uv1_triplanar = true
uv1_triplanar_sharpness = 1.0
uv2_scale = Vector3( 0.25, 1, 1 )
uv2_offset = Vector3( 0, 0, 0 )
uv2_triplanar = true
uv2_triplanar_sharpness = 1.0
proximity_fade_enable = false
distance_fade_mode = 0
_sections_unfolded = [ "Albedo", "Ambient Occlusion", "Flags", "NormalMap", "Roughness", "UV1" ]

[sub_resource type="CubeMesh" id=5]

material = SubResource( 4 )
custom_aabb = AABB( 0, 0, 0, 0, 0, 0 )
flip_faces = false
size = Vector3( 2, 2, 2 )
subdivide_width = 0
subdivide_height = 0
subdivide_depth = 0

[sub_resource type="BoxShape" id=20]

margin = 0.04
extents = Vector3( 1, 1, 1 )

[sub_resource type="SpatialMaterial" id=7]

render_priority = 0
flags_transparent = false
flags_unshaded = false
flags_vertex_lighting = false
flags_no_depth_test = false
flags_use_point_size = false
flags_world_triplanar = false
flags_fixed_size = false
flags_albedo_tex_force_srgb = false
flags_do_not_receive_shadows = false
flags_disable_ambient_light = false
flags_ensure_correct_normals = false
vertex_color_use_as_albedo = false
vertex_color_is_srgb = false
params_diffuse_mode = 0
params_specular_mode = 0
params_blend_mode = 0
params_cull_mode = 0
params_depth_draw_mode = 0
params_line_width = 1.0
params_point_size = 1.0
params_billboard_mode = 0
params_billboard_keep_scale = false
params_grow = false
params_use_alpha_scissor = false
albedo_color = Color( 0.207843, 0.309804, 0.478431, 1 )
metallic = 0.0
metallic_specular = 0.5
metallic_texture_channel = 0
roughness = 1.0
roughness_texture = ExtResource( 9 )
roughness_texture_channel = 0
emission_enabled = false
normal_enabled = true
normal_scale = 2.75
normal_texture = ExtResource( 8 )
rim_enabled = false
clearcoat_enabled = false
anisotropy_enabled = false
ao_enabled = true
ao_light_affect = 1.0
ao_texture = ExtResource( 7 )
ao_on_uv2 = false
ao_texture_channel = 0
depth_enabled = false
subsurf_scatter_enabled = false
transmission_enabled = false
refraction_enabled = false
detail_enabled = false
uv1_scale = Vector3( 1, 1, 1 )
uv1_offset = Vector3( 0, 0, 0 )
uv1_triplanar = false
uv1_triplanar_sharpness = 1.0
uv2_scale = Vector3( 1, 1, 1 )
uv2_offset = Vector3( 0, 0, 0 )
uv2_triplanar = false
uv2_triplanar_sharpness = 1.0
proximity_fade_enable = false
distance_fade_mode = 0
_sections_unfolded = [ "Albedo", "Ambient Occlusion", "NormalMap", "Roughness" ]

[sub_resource type="ArrayMesh" id=8]

blend_shape_mode = 1
custom_aabb = AABB( 0, 0, 0, 0, 0, 0 )
surfaces/0 = {
"aabb": AABB( -1, -1, -1, 2, 2, 2 ),
"array_data": PoolByteArray( 0, 0, 0, 0, 0, 0, 128, 191, 0, 0, 128, 191, 0, 172, 162, 0, 126, 0, 0, 127, 0, 58, 20, 56, 0, 0, 0, 0, 0, 0, 128, 191, 0, 0, 0, 0, 0, 129, 0, 0, 127, 0, 0, 127, 0, 58, 0, 58, 7, 239, 195, 62, 0, 0, 128, 191, 102, 131, 108, 191, 36, 172, 169, 0, 121, 25, 26, 127, 188, 58, 57, 56, 247, 4, 53, 63, 0, 0, 128, 191, 247, 4, 53, 191, 67, 172, 189, 0, 107, 52, 41, 127, 91, 59, 164, 56, 102, 131, 108, 63, 0, 0, 128, 191, 7, 239, 195, 190, 87, 172, 220, 0, 91, 80, 34, 127, 198, 59, 67, 57, 0, 0, 128, 63, 0, 0, 128, 191, 0, 0, 0, 0, 94, 172, 0, 0, 84, 94, 0, 127, 235, 59, 0, 58, 102, 131, 108, 63, 0, 0, 128, 191, 40, 239, 195, 62, 87, 172, 36, 0, 91, 80, 222, 127, 198, 59, 188, 58, 247, 4, 53, 63, 0, 0, 128, 191, 247, 4, 53, 63, 67, 172, 67, 0, 107, 52, 215, 127, 91, 59, 91, 59, 7, 239, 195, 62, 0, 0, 128, 191, 102, 131, 108, 63, 36, 172, 87, 0, 121, 25, 230, 127, 188, 58, 198, 59, 0, 0, 0, 0, 0, 0, 128, 191, 0, 0, 128, 63, 0, 172, 94, 0, 126, 0, 0, 127, 0, 58, 235, 59, 7, 239, 195, 190, 0, 0, 128, 191, 102, 131, 108, 63, 220, 172, 87, 0, 121, 231, 26, 127, 67, 57, 198, 59, 247, 4, 53, 191, 0, 0, 128, 191, 247, 4, 53, 63, 189, 172, 67, 0, 107, 204, 41, 127, 164, 56, 91, 59, 102, 131, 108, 191, 0, 0, 128, 191, 40, 239, 195, 62, 169, 172, 36, 0, 91, 176, 34, 127, 57, 56, 188, 58, 0, 0, 128, 191, 0, 0, 128, 191, 0, 0, 0, 128, 162, 172, 0, 0, 84, 162, 0, 127, 20, 56, 0, 58, 86, 131, 108, 191, 0, 0, 128, 191, 40, 239, 195, 190, 169, 172, 220, 0, 91, 176, 222, 127, 57, 56, 67, 57, 247, 4, 53, 191, 0, 0, 128, 191, 247, 4, 53, 191, 189, 172, 189, 0, 107, 204, 215, 127, 164, 56, 164, 56, 7, 239, 195, 190, 0, 0, 128, 191, 102, 131, 108, 191, 220, 172, 169, 0, 121, 231, 230, 127, 67, 57, 57, 56, 7, 239, 195, 62, 0, 0, 128, 63, 102, 131, 108, 191, 36, 84, 169, 0, 121, 231, 26, 129, 120, 53, 57, 56, 0, 0, 0, 0, 0, 0, 128, 63, 0, 0, 0, 0, 0, 127, 0, 0, 127, 0, 0, 129, 0, 52, 0, 58, 0, 0, 0, 0, 0, 0, 128, 63, 0, 0, 128, 191, 0, 84, 162, 0, 126, 0, 0, 129, 0, 52, 20, 56, 247, 4, 53, 63, 0, 0, 128, 63, 247, 4, 53, 191, 67, 84, 189, 0, 107, 204, 41, 129, 183, 54, 164, 56, 102, 131, 108, 63, 0, 0, 128, 63, 7, 239, 195, 190, 87, 84, 220, 0, 91, 176, 34, 129, 140, 55, 67, 57, 0, 0, 128, 63, 0, 0, 128, 63, 0, 0, 0, 0, 94, 84, 0, 0, 84, 162, 0, 129, 215, 55, 0, 58, 102, 131, 108, 63, 0, 0, 128, 63, 40, 239, 195, 62, 87, 84, 36, 0, 91, 176, 222, 129, 140, 55, 188, 58, 247, 4, 53, 63, 0, 0, 128, 63, 247, 4, 53, 63, 67, 84, 67, 0, 107, 204, 215, 129, 183, 54, 91, 59, 7, 239, 195, 62, 0, 0, 128, 63, 102, 131, 108, 63, 36, 84, 87, 0, 121, 231, 230, 129, 120, 53, 198, 59, 0, 0, 0, 0, 0, 0, 128, 63, 0, 0, 128, 63, 0, 84, 94, 0, 126, 0, 0, 129, 0, 52, 235, 59, 7, 239, 195, 190, 0, 0, 128, 63, 102, 131, 108, 63, 220, 84, 87, 0, 121, 25, 26, 129, 15, 49, 198, 59, 247, 4, 53, 191, 0, 0, 128, 63, 247, 4, 53, 63, 189, 84, 67, 0, 107, 52, 41, 129, 35, 45, 91, 59, 102, 131, 108, 191, 0, 0, 128, 63, 40, 239, 195, 62, 169, 84, 36, 0, 91, 80, 34, 129, 60, 39, 188, 58, 0, 0, 128, 191, 0, 0, 128, 63, 0, 0, 0, 128, 162, 84, 0, 0, 84, 94, 0, 129, 30, 33, 0, 58, 86, 131, 108, 191, 0, 0, 128, 63, 40, 239, 195, 190, 169, 84, 220, 0, 91, 80, 222, 129, 60, 39, 67, 57, 247, 4, 53, 191, 0, 0, 128, 63, 247, 4, 53, 191, 189, 84, 189, 0, 107, 52, 215, 129, 35, 45, 164, 56, 7, 239, 195, 190, 0, 0, 128, 63, 102, 131, 108, 191, 220, 84, 169, 0, 121, 25, 230, 129, 15, 49, 57, 56, 7, 239, 195, 62, 0, 0, 64, 63, 102, 131, 108, 191, 36, 172, 169, 0, 139, 0, 208, 129, 128, 59, 0, 40, 0, 0, 0, 0, 0, 0, 128, 63, 0, 0, 128, 191, 0, 84, 162, 0, 131, 244, 245, 129, 0, 60, 0, 0, 0, 0, 0, 0, 0, 0, 64, 63, 0, 0, 128, 191, 0, 172, 162, 0, 131, 12, 245, 129, 0, 60, 0, 40, 247, 4, 53, 63, 0, 0, 64, 63, 247, 4, 53, 191, 67, 172, 189, 0, 167, 0, 167, 129, 0, 59, 0, 40, 7, 239, 195, 62, 0, 0, 128, 63, 102, 131, 108, 191, 36, 84, 169, 0, 139, 0, 208, 129, 128, 59, 0, 0, 102, 131, 108, 63, 0, 0, 64, 63, 7, 239, 195, 190, 87, 172, 220, 0, 208, 0, 139, 129, 128, 58, 0, 40, 247, 4, 53, 63, 0, 0, 128, 63, 247, 4, 53, 191, 67, 84, 189, 0, 167, 0, 167, 129, 0, 59, 0, 0, 0, 0, 128, 63, 0, 0, 64, 63, 0, 0, 0, 0, 94, 172, 0, 0, 0, 0, 129, 129, 0, 58, 0, 40, 102, 131, 108, 63, 0, 0, 128, 63, 7, 239, 195, 190, 87, 84, 220, 0, 208, 0, 139, 129, 128, 58, 0, 0, 102, 131, 108, 63, 0, 0, 64, 63, 40, 239, 195, 62, 87, 172, 36, 0, 48, 0, 139, 129, 128, 57, 0, 40, 0, 0, 128, 63, 0, 0, 128, 63, 0, 0, 0, 0, 94, 84, 0, 0, 0, 0, 129, 129, 0, 58, 0, 0, 247, 4, 53, 63, 0, 0, 64, 63, 247, 4, 53, 63, 67, 172, 67, 0, 89, 0, 167, 129, 0, 57, 0, 40, 102, 131, 108, 63, 0, 0, 128, 63, 40, 239, 195, 62, 87, 84, 36, 0, 48, 0, 139, 129, 128, 57, 0, 0, 7, 239, 195, 62, 0, 0, 64, 63, 102, 131, 108, 63, 36, 172, 87, 0, 117, 0, 208, 129, 128, 56, 0, 40, 247, 4, 53, 63, 0, 0, 128, 63, 247, 4, 53, 63, 67, 84, 67, 0, 89, 0, 167, 129, 0, 57, 0, 0, 0, 0, 0, 0, 0, 0, 64, 63, 0, 0, 128, 63, 0, 172, 94, 0, 127, 0, 0, 129, 0, 56, 0, 40, 7, 239, 195, 62, 0, 0, 128, 63, 102, 131, 108, 63, 36, 84, 87, 0, 117, 0, 208, 129, 128, 56, 0, 0, 7, 239, 195, 190, 0, 0, 64, 63, 102, 131, 108, 63, 220, 172, 87, 0, 117, 0, 48, 129, 0, 55, 0, 40, 0, 0, 0, 0, 0, 0, 128, 63, 0, 0, 128, 63, 0, 84, 94, 0, 127, 0, 0, 129, 0, 56, 0, 0, 247, 4, 53, 191, 0, 0, 64, 63, 247, 4, 53, 63, 189, 172, 67, 0, 89, 0, 89, 129, 0, 54, 0, 40, 7, 239, 195, 190, 0, 0, 128, 63, 102, 131, 108, 63, 220, 84, 87, 0, 117, 0, 48, 129, 0, 55, 0, 0, 102, 131, 108, 191, 0, 0, 64, 63, 40, 239, 195, 62, 169, 172, 36, 0, 48, 0, 117, 129, 0, 53, 0, 40, 247, 4, 53, 191, 0, 0, 128, 63, 247, 4, 53, 63, 189, 84, 67, 0, 89, 0, 89, 129, 0, 54, 0, 0, 0, 0, 128, 191, 0, 0, 64, 63, 0, 0, 0, 128, 162, 172, 0, 0, 0, 0, 127, 129, 0, 52, 0, 40, 102, 131, 108, 191, 0, 0, 128, 63, 40, 239, 195, 62, 169, 84, 36, 0, 48, 0, 117, 129, 0, 53, 0, 0, 86, 131, 108, 191, 0, 0, 64, 63, 40, 239, 195, 190, 169, 172, 220, 0, 208, 0, 117, 129, 0, 50, 0, 40, 0, 0, 128, 191, 0, 0, 128, 63, 0, 0, 0, 128, 162, 84, 0, 0, 0, 0, 127, 129, 0, 52, 0, 0, 247, 4, 53, 191, 0, 0, 64, 63, 247, 4, 53, 191, 189, 172, 189, 0, 167, 0, 89, 129, 0, 48, 0, 40, 86, 131, 108, 191, 0, 0, 128, 63, 40, 239, 195, 190, 169, 84, 220, 0, 208, 0, 117, 129, 0, 50, 0, 0, 7, 239, 195, 190, 0, 0, 64, 63, 102, 131, 108, 191, 220, 172, 169, 0, 139, 0, 48, 129, 0, 44, 0, 40, 247, 4, 53, 191, 0, 0, 128, 63, 247, 4, 53, 191, 189, 84, 189, 0, 167, 0, 89, 129, 0, 48, 0, 0, 0, 0, 0, 0, 0, 0, 64, 63, 0, 0, 128, 191, 0, 172, 162, 0, 131, 244, 11, 129, 0, 0, 0, 40, 7, 239, 195, 190, 0, 0, 128, 63, 102, 131, 108, 191, 220, 84, 169, 0, 139, 0, 48, 129, 0, 44, 0, 0, 0, 0, 0, 0, 0, 0, 128, 63, 0, 0, 128, 191, 0, 84, 162, 0, 131, 12, 11, 129, 0, 0, 0, 0, 0, 0, 0, 0, 0, 0, 64, 63, 0, 0, 64, 191, 0, 161, 173, 0, 131, 244, 14, 129, 0, 0, 0, 44, 61, 243, 146, 190, 0, 0, 64, 63, 141, 98, 49, 191, 225, 161, 179, 0, 139, 0, 48, 129, 0, 44, 0, 44, 181, 195, 7, 191, 0, 0, 64, 63, 181, 195, 7, 191, 197, 161, 197, 0, 167, 0, 89, 129, 0, 48, 0, 44, 141, 98, 49, 191, 0, 0, 64, 63, 94, 243, 146, 190, 179, 161, 225, 0, 208, 0, 117, 129, 0, 50, 0, 44, 0, 0, 64, 191, 0, 0, 64, 63, 0, 0, 0, 128, 173, 161, 0, 0, 0, 0, 127, 129, 0, 52, 0, 44, 141, 98, 49, 191, 0, 0, 64, 63, 94, 243, 146, 62, 179, 161, 31, 0, 48, 0, 117, 129, 0, 53, 0, 44, 181, 195, 7, 191, 0, 0, 64, 63, 181, 195, 7, 63, 197, 161, 59, 0, 89, 0, 89, 129, 0, 54, 0, 44, 61, 243, 146, 190, 0, 0, 64, 63, 141, 98, 49, 63, 225, 161, 77, 0, 117, 0, 48, 129, 0, 55, 0, 44, 0, 0, 0, 0, 0, 0, 64, 63, 0, 0, 64, 63, 0, 161, 83, 0, 127, 0, 0, 129, 0, 56, 0, 44, 94, 243, 146, 62, 0, 0, 64, 63, 141, 98, 49, 63, 31, 161, 77, 0, 117, 0, 208, 129, 128, 56, 0, 44, 181, 195, 7, 63, 0, 0, 64, 63, 181, 195, 7, 63, 59, 161, 59, 0, 89, 0, 167, 129, 0, 57, 0, 44, 141, 98, 49, 63, 0, 0, 64, 63, 94, 243, 146, 62, 77, 161, 31, 0, 48, 0, 139, 129, 128, 57, 0, 44, 0, 0, 64, 63, 0, 0, 64, 63, 0, 0, 0, 0, 83, 161, 0, 0, 0, 0, 129, 129, 0, 58, 0, 44, 141, 98, 49, 63, 0, 0, 64, 63, 94, 243, 146, 190, 77, 161, 225, 0, 208, 0, 139, 129, 128, 58, 0, 44, 181, 195, 7, 63, 0, 0, 64, 63, 181, 195, 7, 191, 59, 161, 197, 0, 167, 0, 167, 129, 0, 59, 0, 44, 94, 243, 146, 62, 0, 0, 64, 63, 141, 98, 49, 191, 31, 161, 179, 0, 139, 0, 208, 129, 128, 59, 0, 44, 0, 0, 0, 0, 0, 0, 64, 63, 0, 0, 64, 191, 0, 161, 173, 0, 131, 12, 242, 129, 0, 60, 0, 44, 7, 239, 195, 62, 0, 0, 128, 191, 102, 131, 108, 191, 36, 172, 169, 0, 139, 0, 208, 129, 128, 59, 0, 56, 0, 0, 0, 0, 0, 0, 64, 191, 0, 0, 128, 191, 0, 84, 162, 0, 131, 244, 245, 129, 0, 60, 128, 55, 0, 0, 0, 0, 0, 0, 128, 191, 0, 0, 128, 191, 0, 172, 162, 0, 131, 12, 245, 129, 0, 60, 0, 56, 247, 4, 53, 63, 0, 0, 128, 191, 247, 4, 53, 191, 67, 172, 189, 0, 167, 0, 167, 129, 0, 59, 0, 56, 7, 239, 195, 62, 0, 0, 64, 191, 102, 131, 108, 191, 36, 84, 169, 0, 139, 0, 208, 129, 128, 59, 128, 55, 102, 131, 108, 63, 0, 0, 128, 191, 7, 239, 195, 190, 87, 172, 220, 0, 208, 0, 139, 129, 128, 58, 0, 56, 247, 4, 53, 63, 0, 0, 64, 191, 247, 4, 53, 191, 67, 84, 189, 0, 167, 0, 167, 129, 0, 59, 128, 55, 0, 0, 128, 63, 0, 0, 128, 191, 0, 0, 0, 0, 94, 172, 0, 0, 0, 0, 129, 129, 0, 58, 0, 56, 102, 131, 108, 63, 0, 0, 64, 191, 7, 239, 195, 190, 87, 84, 220, 0, 208, 0, 139, 129, 128, 58, 128, 55, 102, 131, 108, 63, 0, 0, 128, 191, 40, 239, 195, 62, 87, 172, 36, 0, 48, 0, 139, 129, 128, 57, 0, 56, 0, 0, 128, 63, 0, 0, 64, 191, 0, 0, 0, 0, 94, 84, 0, 0, 0, 0, 129, 129, 0, 58, 128, 55, 247, 4, 53, 63, 0, 0, 128, 191, 247, 4, 53, 63, 67, 172, 67, 0, 89, 0, 167, 129, 0, 57, 0, 56, 102, 131, 108, 63, 0, 0, 64, 191, 40, 239, 195, 62, 87, 84, 36, 0, 48, 0, 139, 129, 128, 57, 128, 55, 7, 239, 195, 62, 0, 0, 128, 191, 102, 131, 108, 63, 36, 172, 87, 0, 117, 0, 208, 129, 128, 56, 0, 56, 247, 4, 53, 63, 0, 0, 64, 191, 247, 4, 53, 63, 67, 84, 67, 0, 89, 0, 167, 129, 0, 57, 128, 55, 0, 0, 0, 0, 0, 0, 128, 191, 0, 0, 128, 63, 0, 172, 94, 0, 127, 0, 0, 129, 0, 56, 0, 56, 7, 239, 195, 62, 0, 0, 64, 191, 102, 131, 108, 63, 36, 84, 87, 0, 117, 0, 208, 129, 128, 56, 128, 55, 7, 239, 195, 190, 0, 0, 128, 191, 102, 131, 108, 63, 220, 172, 87, 0, 117, 0, 48, 129, 0, 55, 0, 56, 0, 0, 0, 0, 0, 0, 64, 191, 0, 0, 128, 63, 0, 84, 94, 0, 127, 0, 0, 129, 0, 56, 128, 55, 247, 4, 53, 191, 0, 0, 128, 191, 247, 4, 53, 63, 189, 172, 67, 0, 89, 0, 89, 129, 0, 54, 0, 56, 7, 239, 195, 190, 0, 0, 64, 191, 102, 131, 108, 63, 220, 84, 87, 0, 117, 0, 48, 129, 0, 55, 128, 55, 102, 131, 108, 191, 0, 0, 128, 191, 40, 239, 195, 62, 169, 172, 36, 0, 48, 0, 117, 129, 0, 53, 0, 56, 247, 4, 53, 191, 0, 0, 64, 191, 247, 4, 53, 63, 189, 84, 67, 0, 89, 0, 89, 129, 0, 54, 128, 55, 0, 0, 128, 191, 0, 0, 128, 191, 0, 0, 0, 128, 162, 172, 0, 0, 0, 0, 127, 129, 0, 52, 0, 56, 102, 131, 108, 191, 0, 0, 64, 191, 40, 239, 195, 62, 169, 84, 36, 0, 48, 0, 117, 129, 0, 53, 128, 55, 86, 131, 108, 191, 0, 0, 128, 191, 40, 239, 195, 190, 169, 172, 220, 0, 208, 0, 117, 129, 0, 50, 0, 56, 0, 0, 128, 191, 0, 0, 64, 191, 0, 0, 0, 128, 162, 84, 0, 0, 0, 0, 127, 129, 0, 52, 128, 55, 247, 4, 53, 191, 0, 0, 128, 191, 247, 4, 53, 191, 189, 172, 189, 0, 167, 0, 89, 129, 0, 48, 0, 56, 86, 131, 108, 191, 0, 0, 64, 191, 40, 239, 195, 190, 169, 84, 220, 0, 208, 0, 117, 129, 0, 50, 128, 55, 7, 239, 195, 190, 0, 0, 128, 191, 102, 131, 108, 191, 220, 172, 169, 0, 139, 0, 48, 129, 0, 44, 0, 56, 247, 4, 53, 191, 0, 0, 64, 191, 247, 4, 53, 191, 189, 84, 189, 0, 167, 0, 89, 129, 0, 48, 128, 55, 0, 0, 0, 0, 0, 0, 128, 191, 0, 0, 128, 191, 0, 172, 162, 0, 131, 244, 11, 129, 0, 0, 0, 56, 7, 239, 195, 190, 0, 0, 64, 191, 102, 131, 108, 191, 220, 84, 169, 0, 139, 0, 48, 129, 0, 44, 128, 55, 0, 0, 0, 0, 0, 0, 64, 191, 0, 0, 128, 191, 0, 84, 162, 0, 131, 12, 11, 129, 0, 0, 128, 55, 94, 243, 146, 62, 0, 0, 64, 191, 141, 98, 49, 191, 31, 95, 179, 0, 139, 0, 208, 129, 128, 59, 0, 55, 0, 0, 0, 0, 0, 0, 64, 191, 0, 0, 64, 191, 0, 95, 173, 0, 131, 244, 242, 129, 0, 60, 0, 55, 181, 195, 7, 63, 0, 0, 64, 191, 181, 195, 7, 191, 59, 95, 197, 0, 167, 0, 167, 129, 0, 59, 0, 55, 141, 98, 49, 63, 0, 0, 64, 191, 94, 243, 146, 190, 77, 95, 225, 0, 208, 0, 139, 129, 128, 58, 0, 55, 0, 0, 64, 63, 0, 0, 64, 191, 0, 0, 0, 0, 83, 95, 0, 0, 0, 0, 129, 129, 0, 58, 0, 55, 141, 98, 49, 63, 0, 0, 64, 191, 94, 243, 146, 62, 77, 95, 31, 0, 48, 0, 139, 129, 128, 57, 0, 55, 181, 195, 7, 63, 0, 0, 64, 191, 181, 195, 7, 63, 59, 95, 59, 0, 89, 0, 167, 129, 0, 57, 0, 55, 94, 243, 146, 62, 0, 0, 64, 191, 141, 98, 49, 63, 31, 95, 77, 0, 117, 0, 208, 129, 128, 56, 0, 55, 0, 0, 0, 0, 0, 0, 64, 191, 0, 0, 64, 63, 0, 95, 83, 0, 127, 0, 0, 129, 0, 56, 0, 55, 61, 243, 146, 190, 0, 0, 64, 191, 141, 98, 49, 63, 225, 95, 77, 0, 117, 0, 48, 129, 0, 55, 0, 55, 181, 195, 7, 191, 0, 0, 64, 191, 181, 195, 7, 63, 197, 95, 59, 0, 89, 0, 89, 129, 0, 54, 0, 55, 141, 98, 49, 191, 0, 0, 64, 191, 94, 243, 146, 62, 179, 95, 31, 0, 48, 0, 117, 129, 0, 53, 0, 55, 0, 0, 64, 191, 0, 0, 64, 191, 0, 0, 0, 128, 173, 95, 0, 0, 0, 0, 127, 129, 0, 52, 0, 55, 141, 98, 49, 191, 0, 0, 64, 191, 94, 243, 146, 190, 179, 95, 225, 0, 208, 0, 117, 129, 0, 50, 0, 55, 181, 195, 7, 191, 0, 0, 64, 191, 181, 195, 7, 191, 197, 95, 197, 0, 167, 0, 89, 129, 0, 48, 0, 55, 61, 243, 146, 190, 0, 0, 64, 191, 141, 98, 49, 191, 225, 95, 179, 0, 139, 0, 48, 129, 0, 44, 0, 55, 0, 0, 0, 0, 0, 0, 64, 191, 0, 0, 64, 191, 0, 95, 173, 0, 131, 12, 14, 129, 0, 0, 0, 55 ),
"array_index_data": PoolByteArray( 0, 0, 1, 0, 2, 0, 2, 0, 1, 0, 3, 0, 3, 0, 1, 0, 4, 0, 4, 0, 1, 0, 5, 0, 5, 0, 1, 0, 6, 0, 6, 0, 1, 0, 7, 0, 7, 0, 1, 0, 8, 0, 8, 0, 1, 0, 9, 0, 9, 0, 1, 0, 10, 0, 10, 0, 1, 0, 11, 0, 11, 0, 1, 0, 12, 0, 12, 0, 1, 0, 13, 0, 13, 0, 1, 0, 14, 0, 14, 0, 1, 0, 15, 0, 15, 0, 1, 0, 16, 0, 16, 0, 1, 0, 0, 0, 17, 0, 18, 0, 19, 0, 20, 0, 18, 0, 17, 0, 21, 0, 18, 0, 20, 0, 22, 0, 18, 0, 21, 0, 23, 0, 18, 0, 22, 0, 24, 0, 18, 0, 23, 0, 25, 0, 18, 0, 24, 0, 26, 0, 18, 0, 25, 0, 27, 0, 18, 0, 26, 0, 28, 0, 18, 0, 27, 0, 29, 0, 18, 0, 28, 0, 30, 0, 18, 0, 29, 0, 31, 0, 18, 0, 30, 0, 32, 0, 18, 0, 31, 0, 33, 0, 18, 0, 32, 0, 19, 0, 18, 0, 33, 0, 34, 0, 35, 0, 36, 0, 37, 0, 38, 0, 34, 0, 39, 0, 40, 0, 37, 0, 41, 0, 42, 0, 39, 0, 43, 0, 44, 0, 41, 0, 45, 0, 46, 0, 43, 0, 47, 0, 48, 0, 45, 0, 49, 0, 50, 0, 47, 0, 51, 0, 52, 0, 49, 0, 53, 0, 54, 0, 51, 0, 55, 0, 56, 0, 53, 0, 57, 0, 58, 0, 55, 0, 59, 0, 60, 0, 57, 0, 61, 0, 62, 0, 59, 0, 63, 0, 64, 0, 61, 0, 65, 0, 66, 0, 63, 0, 38, 0, 35, 0, 34, 0, 40, 0, 38, 0, 37, 0, 42, 0, 40, 0, 39, 0, 44, 0, 42, 0, 41, 0, 46, 0, 44, 0, 43, 0, 48, 0, 46, 0, 45, 0, 50, 0, 48, 0, 47, 0, 52, 0, 50, 0, 49, 0, 54, 0, 52, 0, 51, 0, 56, 0, 54, 0, 53, 0, 58, 0, 56, 0, 55, 0, 60, 0, 58, 0, 57, 0, 62, 0, 60, 0, 59, 0, 64, 0, 62, 0, 61, 0, 66, 0, 64, 0, 63, 0, 67, 0, 66, 0, 65, 0, 68, 0, 63, 0, 69, 0, 63, 0, 70, 0, 69, 0, 70, 0, 59, 0, 71, 0, 71, 0, 57, 0, 72, 0, 72, 0, 55, 0, 73, 0, 55, 0, 74, 0, 73, 0, 74, 0, 51, 0, 75, 0, 51, 0, 76, 0, 75, 0, 76, 0, 47, 0, 77, 0, 77, 0, 45, 0, 78, 0, 78, 0, 43, 0, 79, 0, 79, 0, 41, 0, 80, 0, 80, 0, 39, 0, 81, 0, 81, 0, 37, 0, 82, 0, 37, 0, 83, 0, 82, 0, 34, 0, 84, 0, 83, 0, 65, 0, 63, 0, 68, 0, 61, 0, 70, 0, 63, 0, 61, 0, 59, 0, 70, 0, 59, 0, 57, 0, 71, 0, 57, 0, 55, 0, 72, 0, 53, 0, 74, 0, 55, 0, 53, 0, 51, 0, 74, 0, 49, 0, 76, 0, 51, 0, 49, 0, 47, 0, 76, 0, 47, 0, 45, 0, 77, 0, 45, 0, 43, 0, 78, 0, 43, 0, 41, 0, 79, 0, 41, 0, 39, 0, 80, 0, 39, 0, 37, 0, 81, 0, 34, 0, 83, 0, 37, 0, 36, 0, 84, 0, 34, 0, 85, 0, 86, 0, 87, 0, 88, 0, 89, 0, 85, 0, 90, 0, 91, 0, 88, 0, 92, 0, 93, 0, 90, 0, 94, 0, 95, 0, 92, 0, 96, 0, 97, 0, 94, 0, 98, 0, 99, 0, 96, 0, 100, 0, 101, 0, 98, 0, 102, 0, 103, 0, 100, 0, 104, 0, 105, 0, 102, 0, 106, 0, 107, 0, 104, 0, 108, 0, 109, 0, 106, 0, 110, 0, 111, 0, 108, 0, 112, 0, 113, 0, 110, 0, 114, 0, 115, 0, 112, 0, 116, 0, 117, 0, 114, 0, 89, 0, 86, 0, 85, 0, 91, 0, 89, 0, 88, 0, 93, 0, 91, 0, 90, 0, 95, 0, 93, 0, 92, 0, 97, 0, 95, 0, 94, 0, 99, 0, 97, 0, 96, 0, 101, 0, 99, 0, 98, 0, 103, 0, 101, 0, 100, 0, 105, 0, 103, 0, 102, 0, 107, 0, 105, 0, 104, 0, 109, 0, 107, 0, 106, 0, 111, 0, 109, 0, 108, 0, 113, 0, 111, 0, 110, 0, 115, 0, 113, 0, 112, 0, 117, 0, 115, 0, 114, 0, 118, 0, 117, 0, 116, 0, 119, 0, 84, 0, 120, 0, 121, 0, 83, 0, 119, 0, 122, 0, 82, 0, 121, 0, 123, 0, 81, 0, 122, 0, 124, 0, 80, 0, 123, 0, 125, 0, 79, 0, 124, 0, 126, 0, 78, 0, 125, 0, 127, 0, 77, 0, 126, 0, 128, 0, 76, 0, 127, 0, 129, 0, 75, 0, 128, 0, 130, 0, 74, 0, 129, 0, 131, 0, 73, 0, 130, 0, 132, 0, 72, 0, 131, 0, 133, 0, 71, 0, 132, 0, 134, 0, 70, 0, 133, 0, 135, 0, 69, 0, 134, 0, 83, 0, 84, 0, 119, 0, 82, 0, 83, 0, 121, 0, 81, 0, 82, 0, 122, 0, 80, 0, 81, 0, 123, 0, 79, 0, 80, 0, 124, 0, 78, 0, 79, 0, 125, 0, 77, 0, 78, 0, 126, 0, 76, 0, 77, 0, 127, 0, 75, 0, 76, 0, 128, 0, 74, 0, 75, 0, 129, 0, 73, 0, 74, 0, 130, 0, 72, 0, 73, 0, 131, 0, 71, 0, 72, 0, 132, 0, 70, 0, 71, 0, 133, 0, 69, 0, 70, 0, 134, 0, 68, 0, 69, 0, 135, 0, 118, 0, 134, 0, 117, 0, 117, 0, 133, 0, 115, 0, 115, 0, 132, 0, 113, 0, 113, 0, 131, 0, 111, 0, 111, 0, 130, 0, 109, 0, 130, 0, 107, 0, 109, 0, 129, 0, 105, 0, 107, 0, 105, 0, 127, 0, 103, 0, 103, 0, 126, 0, 101, 0, 101, 0, 125, 0, 99, 0, 99, 0, 124, 0, 97, 0, 124, 0, 95, 0, 97, 0, 123, 0, 93, 0, 95, 0, 93, 0, 121, 0, 91, 0, 91, 0, 119, 0, 89, 0, 89, 0, 120, 0, 86, 0, 135, 0, 134, 0, 118, 0, 134, 0, 133, 0, 117, 0, 133, 0, 132, 0, 115, 0, 132, 0, 131, 0, 113, 0, 131, 0, 130, 0, 111, 0, 129, 0, 107, 0, 130, 0, 128, 0, 105, 0, 129, 0, 128, 0, 127, 0, 105, 0, 127, 0, 126, 0, 103, 0, 126, 0, 125, 0, 101, 0, 125, 0, 124, 0, 99, 0, 123, 0, 95, 0, 124, 0, 122, 0, 93, 0, 123, 0, 122, 0, 121, 0, 93, 0, 121, 0, 119, 0, 91, 0, 119, 0, 120, 0, 89, 0 ),
"blend_shape_data": [  ],
"format": 97559,
"index_count": 576,
"material": SubResource( 7 ),
"primitive": 4,
"skeleton_aabb": [  ],
"vertex_count": 136
}
_sections_unfolded = [ "surface_1" ]

[sub_resource type="CylinderShape" id=9]

margin = 0.04
radius = 0.75
height = 1.5

[sub_resource type="CylinderShape" id=10]

margin = 0.04
radius = 1.0
height = 14.25

[sub_resource type="CylinderShape" id=11]

margin = 0.04
radius = 1.0
height = 0.25

[sub_resource type="SpatialMaterial" id=12]

render_priority = 0
flags_transparent = false
flags_unshaded = false
flags_vertex_lighting = false
flags_no_depth_test = false
flags_use_point_size = false
flags_world_triplanar = false
flags_fixed_size = false
flags_albedo_tex_force_srgb = false
flags_do_not_receive_shadows = false
flags_disable_ambient_light = false
flags_ensure_correct_normals = false
vertex_color_use_as_albedo = false
vertex_color_is_srgb = false
params_diffuse_mode = 0
params_specular_mode = 0
params_blend_mode = 0
params_cull_mode = 0
params_depth_draw_mode = 0
params_line_width = 1.0
params_point_size = 1.0
params_billboard_mode = 0
params_billboard_keep_scale = false
params_grow = false
params_use_alpha_scissor = false
albedo_color = Color( 0.207843, 0.309804, 0.478431, 1 )
metallic = 0.0
metallic_specular = 0.5
metallic_texture_channel = 0
roughness = 1.0
roughness_texture_channel = 0
emission_enabled = false
normal_enabled = false
rim_enabled = false
clearcoat_enabled = false
anisotropy_enabled = false
ao_enabled = false
depth_enabled = false
subsurf_scatter_enabled = false
transmission_enabled = false
refraction_enabled = false
detail_enabled = false
uv1_scale = Vector3( 1, 1, 1 )
uv1_offset = Vector3( 0, 0, 0 )
uv1_triplanar = false
uv1_triplanar_sharpness = 1.0
uv2_scale = Vector3( 1, 1, 1 )
uv2_offset = Vector3( 0, 0, 0 )
uv2_triplanar = false
uv2_triplanar_sharpness = 1.0
proximity_fade_enable = false
distance_fade_mode = 0
_sections_unfolded = [ "Albedo" ]

[sub_resource type="ArrayMesh" id=13]

blend_shape_mode = 1
custom_aabb = AABB( 0, 0, 0, 0, 0, 0 )
surfaces/0 = {
"aabb": AABB( -1, -1, -3, 2, 1.875, 4 ),
"array_data": PoolByteArray( 0, 0, 128, 191, 0, 0, 32, 63, 0, 0, 32, 192, 129, 0, 0, 0, 0, 126, 0, 129, 192, 59, 128, 56, 0, 0, 128, 191, 0, 0, 128, 191, 0, 0, 32, 192, 129, 0, 0, 0, 0, 127, 0, 129, 32, 58, 128, 56, 0, 0, 128, 191, 0, 0, 96, 63, 0, 0, 64, 192, 129, 0, 0, 0, 0, 127, 0, 129, 0, 60, 0, 56, 0, 0, 128, 191, 0, 0, 128, 191, 0, 0, 64, 192, 129, 0, 0, 0, 0, 127, 0, 129, 32, 58, 0, 56, 0, 0, 128, 191, 0, 0, 192, 190, 0, 0, 0, 191, 129, 0, 0, 0, 0, 126, 0, 129, 192, 58, 128, 58, 0, 0, 128, 191, 0, 0, 128, 191, 0, 0, 0, 191, 129, 0, 0, 0, 0, 127, 0, 129, 32, 58, 128, 58, 0, 0, 128, 191, 0, 0, 0, 190, 0, 0, 128, 191, 129, 0, 0, 0, 0, 126, 0, 129, 0, 59, 0, 58, 0, 0, 128, 191, 0, 0, 128, 191, 0, 0, 128, 191, 129, 0, 0, 0, 0, 127, 0, 129, 32, 58, 0, 58, 0, 0, 128, 191, 0, 0, 96, 191, 0, 0, 0, 63, 129, 0, 0, 0, 0, 126, 0, 129, 64, 58, 128, 59, 0, 0, 128, 191, 0, 0, 128, 191, 0, 0, 0, 63, 129, 0, 0, 0, 0, 127, 0, 129, 32, 58, 128, 59, 0, 0, 128, 191, 0, 0, 32, 191, 0, 0, 0, 0, 129, 0, 0, 0, 0, 126, 0, 129, 128, 58, 0, 59, 0, 0, 128, 191, 0, 0, 128, 191, 0, 0, 0, 0, 129, 0, 0, 0, 0, 127, 0, 129, 32, 58, 0, 59, 0, 0, 128, 191, 0, 0, 0, 62, 0, 0, 192, 191, 129, 0, 0, 0, 0, 126, 0, 129, 64, 59, 128, 57, 0, 0, 128, 191, 0, 0, 128, 191, 0, 0, 192, 191, 129, 0, 0, 0, 0, 127, 0, 129, 32, 58, 128, 57, 0, 0, 128, 191, 0, 0, 192, 62, 0, 0, 0, 192, 129, 0, 0, 0, 0, 127, 0, 129, 128, 59, 0, 57, 0, 0, 128, 191, 0, 0, 128, 191, 0, 0, 0, 192, 129, 0, 0, 0, 0, 127, 0, 129, 32, 58, 0, 57, 0, 0, 128, 191, 0, 0, 192, 62, 0, 0, 192, 191, 129, 0, 0, 0, 0, 127, 0, 129, 128, 59, 128, 57, 0, 0, 128, 191, 0, 0, 0, 190, 0, 0, 0, 191, 129, 0, 0, 0, 0, 127, 0, 129, 0, 59, 128, 58, 0, 0, 128, 191, 0, 0, 96, 191, 0, 0, 128, 63, 129, 0, 0, 0, 0, 127, 0, 129, 64, 58, 0, 60, 0, 0, 128, 191, 0, 0, 128, 191, 0, 0, 128, 63, 129, 0, 0, 0, 0, 127, 0, 129, 32, 58, 0, 60, 0, 0, 128, 191, 0, 0, 32, 191, 0, 0, 0, 63, 129, 0, 0, 0, 0, 127, 0, 129, 128, 58, 128, 59, 0, 0, 128, 191, 0, 0, 192, 190, 0, 0, 0, 0, 129, 0, 0, 0, 0, 127, 0, 129, 192, 58, 0, 59, 0, 0, 128, 191, 0, 0, 0, 62, 0, 0, 128, 191, 129, 0, 0, 0, 0, 127, 0, 129, 64, 59, 0, 58, 0, 0, 128, 191, 0, 0, 32, 63, 0, 0, 0, 192, 129, 0, 0, 0, 0, 127, 0, 129, 192, 59, 0, 57, 0, 0, 128, 191, 0, 0, 96, 63, 0, 0, 32, 192, 129, 0, 0, 0, 0, 127, 0, 129, 0, 60, 128, 56, 0, 0, 128, 191, 0, 0, 96, 63, 0, 0, 64, 192, 0, 0, 129, 0, 0, 129, 0, 129, 32, 58, 0, 48, 0, 0, 128, 191, 0, 0, 128, 191, 0, 0, 64, 192, 0, 0, 129, 0, 0, 129, 0, 129, 0, 60, 0, 48, 0, 0, 128, 63, 0, 0, 96, 63, 0, 0, 64, 192, 0, 0, 129, 0, 0, 129, 0, 129, 32, 58, 0, 54, 0, 0, 128, 63, 0, 0, 128, 191, 0, 0, 64, 192, 0, 0, 129, 0, 0, 129, 0, 129, 0, 60, 0, 54, 0, 0, 128, 63, 0, 0, 96, 191, 0, 0, 0, 63, 127, 0, 0, 0, 0, 130, 0, 129, 0, 56, 128, 59, 0, 0, 128, 63, 0, 0, 128, 191, 0, 0, 0, 63, 127, 0, 0, 0, 0, 129, 0, 129, 32, 56, 128, 59, 0, 0, 128, 63, 0, 0, 96, 191, 0, 0, 128, 63, 127, 0, 0, 0, 0, 129, 0, 129, 0, 56, 0, 60, 0, 0, 128, 63, 0, 0, 128, 191, 0, 0, 128, 63, 127, 0, 0, 0, 0, 129, 0, 129, 32, 56, 0, 60, 0, 0, 128, 63, 0, 0, 96, 191, 0, 0, 128, 63, 0, 0, 127, 0, 0, 127, 0, 129, 0, 42, 0, 54, 0, 0, 128, 63, 0, 0, 128, 191, 0, 0, 128, 63, 0, 0, 127, 0, 0, 126, 0, 129, 0, 40, 0, 54, 0, 0, 128, 191, 0, 0, 96, 191, 0, 0, 128, 63, 0, 0, 127, 0, 0, 126, 0, 129, 0, 42, 0, 48, 0, 0, 128, 191, 0, 0, 128, 191, 0, 0, 128, 63, 0, 0, 127, 0, 0, 127, 0, 129, 0, 40, 0, 48, 0, 0, 128, 63, 0, 0, 128, 191, 0, 0, 0, 63, 0, 129, 0, 0, 129, 0, 0, 129, 32, 56, 128, 59, 0, 0, 128, 191, 0, 0, 128, 191, 0, 0, 0, 63, 0, 129, 0, 0, 129, 0, 0, 129, 32, 58, 128, 59, 0, 0, 128, 63, 0, 0, 128, 191, 0, 0, 128, 63, 0, 129, 0, 0, 129, 0, 0, 129, 32, 56, 0, 60, 0, 0, 128, 191, 0, 0, 128, 191, 0, 0, 128, 63, 0, 129, 0, 0, 129, 0, 0, 129, 32, 58, 0, 60, 0, 0, 128, 191, 0, 0, 96, 191, 0, 0, 0, 63, 0, 127, 0, 0, 0, 0, 129, 129, 0, 47, 0, 48, 0, 0, 128, 63, 0, 0, 96, 191, 0, 0, 0, 63, 0, 127, 0, 0, 0, 0, 129, 129, 0, 47, 0, 54, 0, 0, 128, 191, 0, 0, 96, 191, 0, 0, 128, 63, 0, 127, 0, 0, 0, 0, 129, 129, 0, 42, 0, 48, 0, 0, 128, 63, 0, 0, 96, 191, 0, 0, 128, 63, 0, 127, 0, 0, 0, 0, 129, 129, 0, 42, 0, 54, 0, 0, 128, 63, 0, 0, 0, 62, 0, 0, 192, 191, 127, 0, 0, 0, 0, 130, 0, 129, 0, 54, 128, 57, 0, 0, 128, 63, 0, 0, 0, 190, 0, 0, 128, 191, 127, 0, 0, 0, 0, 130, 0, 129, 128, 54, 0, 58, 0, 0, 128, 63, 0, 0, 0, 62, 0, 0, 128, 191, 127, 0, 0, 0, 0, 129, 0, 129, 0, 54, 0, 58, 0, 0, 128, 63, 0, 0, 128, 191, 0, 0, 192, 191, 0, 129, 0, 0, 129, 0, 0, 129, 32, 56, 128, 57, 0, 0, 128, 191, 0, 0, 128, 191, 0, 0, 192, 191, 0, 129, 0, 0, 129, 0, 0, 129, 32, 58, 128, 57, 0, 0, 128, 63, 0, 0, 128, 191, 0, 0, 128, 191, 0, 129, 0, 0, 129, 0, 0, 129, 32, 56, 0, 58, 0, 0, 128, 191, 0, 0, 128, 191, 0, 0, 128, 191, 0, 129, 0, 0, 129, 0, 0, 129, 32, 58, 0, 58, 0, 0, 128, 63, 0, 0, 128, 191, 0, 0, 192, 191, 127, 0, 0, 0, 0, 129, 0, 129, 32, 56, 128, 57, 0, 0, 128, 63, 0, 0, 128, 191, 0, 0, 128, 191, 127, 0, 0, 0, 0, 129, 0, 129, 32, 56, 0, 58, 0, 0, 128, 63, 0, 0, 32, 191, 0, 0, 0, 0, 0, 0, 127, 0, 0, 127, 0, 129, 128, 50, 0, 54, 0, 0, 128, 191, 0, 0, 32, 191, 0, 0, 0, 0, 0, 0, 127, 0, 0, 127, 0, 129, 128, 50, 0, 48, 0, 0, 128, 63, 0, 0, 192, 190, 0, 0, 0, 0, 0, 0, 127, 0, 0, 127, 0, 129, 128, 51, 0, 54, 0, 0, 128, 191, 0, 0, 192, 190, 0, 0, 0, 0, 0, 0, 127, 0, 0, 127, 0, 129, 128, 51, 0, 48, 0, 0, 128, 63, 0, 0, 128, 191, 0, 0, 0, 191, 0, 129, 0, 0, 129, 0, 0, 129, 32, 56, 128, 58, 0, 0, 128, 191, 0, 0, 128, 191, 0, 0, 0, 191, 0, 129, 0, 0, 129, 0, 0, 129, 32, 58, 128, 58, 0, 0, 128, 63, 0, 0, 128, 191, 0, 0, 0, 0, 0, 129, 0, 0, 129, 0, 0, 129, 32, 56, 0, 59, 0, 0, 128, 191, 0, 0, 128, 191, 0, 0, 0, 0, 0, 129, 0, 0, 129, 0, 0, 129, 32, 58, 0, 59, 0, 0, 128, 63, 0, 0, 192, 190, 0, 0, 0, 191, 127, 0, 0, 0, 0, 130, 0, 129, 0, 55, 128, 58, 0, 0, 128, 63, 0, 0, 128, 191, 0, 0, 0, 191, 127, 0, 0, 0, 0, 129, 0, 129, 32, 56, 128, 58, 0, 0, 128, 63, 0, 0, 32, 191, 0, 0, 0, 0, 127, 0, 0, 0, 0, 130, 0, 129, 128, 55, 0, 59, 0, 0, 128, 63, 0, 0, 128, 191, 0, 0, 0, 0, 127, 0, 0, 0, 0, 129, 0, 129, 32, 56, 0, 59, 0, 0, 128, 63, 0, 0, 32, 63, 0, 0, 32, 192, 127, 0, 0, 0, 0, 130, 0, 129, 0, 53, 128, 56, 0, 0, 128, 63, 0, 0, 128, 191, 0, 0, 32, 192, 127, 0, 0, 0, 0, 129, 0, 129, 32, 56, 128, 56, 0, 0, 128, 63, 0, 0, 192, 62, 0, 0, 0, 192, 127, 0, 0, 0, 0, 129, 0, 129, 128, 53, 0, 57, 0, 0, 128, 63, 0, 0, 128, 191, 0, 0, 0, 192, 127, 0, 0, 0, 0, 129, 0, 129, 32, 56, 0, 57, 0, 0, 128, 63, 0, 0, 128, 191, 0, 0, 32, 192, 0, 129, 0, 0, 129, 0, 0, 129, 32, 56, 128, 56, 0, 0, 128, 191, 0, 0, 128, 191, 0, 0, 32, 192, 0, 129, 0, 0, 129, 0, 0, 129, 32, 58, 128, 56, 0, 0, 128, 63, 0, 0, 128, 191, 0, 0, 0, 192, 0, 129, 0, 0, 129, 0, 0, 129, 32, 56, 0, 57, 0, 0, 128, 191, 0, 0, 128, 191, 0, 0, 0, 192, 0, 129, 0, 0, 129, 0, 0, 129, 32, 58, 0, 57, 0, 0, 128, 63, 0, 0, 32, 63, 0, 0, 0, 192, 127, 0, 0, 0, 0, 129, 0, 129, 0, 53, 0, 57, 0, 0, 128, 63, 0, 0, 96, 63, 0, 0, 64, 192, 127, 0, 0, 0, 0, 129, 0, 129, 128, 52, 0, 56, 0, 0, 128, 63, 0, 0, 96, 63, 0, 0, 32, 192, 127, 0, 0, 0, 0, 129, 0, 129, 128, 52, 128, 56, 0, 0, 128, 63, 0, 0, 128, 191, 0, 0, 64, 192, 0, 129, 0, 0, 129, 0, 0, 129, 32, 56, 0, 56, 0, 0, 128, 191, 0, 0, 128, 191, 0, 0, 64, 192, 0, 129, 0, 0, 129, 0, 0, 129, 32, 58, 0, 56, 0, 0, 128, 63, 0, 0, 128, 191, 0, 0, 64, 192, 127, 0, 0, 0, 0, 129, 0, 129, 32, 56, 0, 56, 0, 0, 128, 63, 0, 0, 128, 191, 0, 0, 128, 191, 0, 129, 0, 0, 0, 0, 127, 129, 192, 54, 0, 54, 0, 0, 128, 191, 0, 0, 128, 191, 0, 0, 128, 191, 0, 129, 0, 0, 0, 0, 127, 129, 192, 54, 0, 48, 0, 0, 128, 63, 0, 0, 128, 191, 0, 0, 0, 191, 0, 129, 0, 0, 0, 0, 127, 129, 192, 55, 0, 54, 0, 0, 128, 191, 0, 0, 128, 191, 0, 0, 0, 191, 0, 129, 0, 0, 0, 0, 127, 129, 192, 55, 0, 48, 0, 0, 128, 191, 0, 0, 32, 191, 0, 0, 0, 0, 0, 127, 0, 0, 0, 0, 129, 129, 128, 50, 0, 48, 0, 0, 128, 63, 0, 0, 32, 191, 0, 0, 0, 0, 0, 127, 0, 0, 0, 0, 129, 129, 128, 50, 0, 54, 0, 0, 128, 191, 0, 0, 32, 191, 0, 0, 0, 63, 0, 127, 0, 0, 0, 0, 129, 129, 128, 48, 0, 48, 0, 0, 128, 63, 0, 0, 32, 191, 0, 0, 0, 63, 0, 127, 0, 0, 0, 0, 129, 129, 128, 48, 0, 54, 0, 0, 128, 63, 0, 0, 96, 191, 0, 0, 0, 63, 0, 0, 127, 0, 0, 127, 0, 129, 0, 47, 0, 54, 0, 0, 128, 191, 0, 0, 96, 191, 0, 0, 0, 63, 0, 0, 127, 0, 0, 127, 0, 129, 0, 47, 0, 48, 0, 0, 128, 63, 0, 0, 32, 191, 0, 0, 0, 63, 0, 0, 127, 0, 0, 127, 0, 129, 128, 48, 0, 54, 0, 0, 128, 191, 0, 0, 32, 191, 0, 0, 0, 63, 0, 0, 127, 0, 0, 127, 0, 129, 128, 48, 0, 48, 0, 0, 128, 63, 0, 0, 32, 191, 0, 0, 0, 63, 127, 0, 0, 0, 0, 129, 0, 129, 128, 55, 128, 59, 0, 0, 128, 191, 0, 0, 192, 190, 0, 0, 0, 191, 0, 127, 0, 0, 0, 0, 129, 129, 192, 52, 0, 48, 0, 0, 128, 63, 0, 0, 192, 190, 0, 0, 0, 191, 0, 127, 0, 0, 0, 0, 129, 129, 192, 52, 0, 54, 0, 0, 128, 191, 0, 0, 192, 190, 0, 0, 0, 0, 0, 127, 0, 0, 0, 0, 129, 129, 128, 51, 0, 48, 0, 0, 128, 63, 0, 0, 192, 190, 0, 0, 0, 0, 0, 127, 0, 0, 0, 0, 129, 129, 128, 51, 0, 54, 0, 0, 128, 63, 0, 0, 192, 190, 0, 0, 0, 0, 127, 0, 0, 0, 0, 129, 0, 129, 0, 55, 0, 59, 0, 0, 128, 191, 0, 0, 0, 190, 0, 0, 128, 191, 0, 127, 0, 0, 0, 0, 129, 129, 64, 54, 0, 48, 0, 0, 128, 63, 0, 0, 0, 190, 0, 0, 128, 191, 0, 127, 0, 0, 0, 0, 129, 129, 64, 54, 0, 54, 0, 0, 128, 191, 0, 0, 0, 190, 0, 0, 0, 191, 0, 127, 0, 0, 0, 0, 129, 129, 64, 53, 0, 48, 0, 0, 128, 63, 0, 0, 0, 190, 0, 0, 0, 191, 0, 127, 0, 0, 0, 0, 129, 129, 64, 53, 0, 54, 0, 0, 128, 63, 0, 0, 0, 190, 0, 0, 0, 191, 127, 0, 0, 0, 0, 129, 0, 129, 128, 54, 128, 58, 0, 0, 128, 63, 0, 0, 192, 190, 0, 0, 0, 191, 0, 0, 127, 0, 0, 127, 0, 129, 192, 52, 0, 54, 0, 0, 128, 191, 0, 0, 192, 190, 0, 0, 0, 191, 0, 0, 127, 0, 0, 127, 0, 129, 192, 52, 0, 48, 0, 0, 128, 63, 0, 0, 0, 190, 0, 0, 0, 191, 0, 0, 127, 0, 0, 127, 0, 129, 64, 53, 0, 54, 0, 0, 128, 191, 0, 0, 0, 190, 0, 0, 0, 191, 0, 0, 127, 0, 0, 127, 0, 129, 64, 53, 0, 48, 0, 0, 128, 191, 0, 0, 0, 62, 0, 0, 192, 191, 0, 127, 0, 0, 129, 0, 0, 129, 32, 58, 128, 58, 0, 0, 128, 63, 0, 0, 0, 62, 0, 0, 192, 191, 0, 127, 0, 0, 129, 0, 0, 129, 32, 56, 128, 58, 0, 0, 128, 191, 0, 0, 0, 62, 0, 0, 128, 191, 0, 127, 0, 0, 129, 0, 0, 129, 32, 58, 0, 58, 0, 0, 128, 63, 0, 0, 0, 62, 0, 0, 128, 191, 0, 127, 0, 0, 129, 0, 0, 129, 32, 56, 0, 58, 0, 0, 128, 63, 0, 0, 0, 190, 0, 0, 128, 191, 0, 0, 127, 0, 0, 127, 0, 129, 64, 54, 0, 54, 0, 0, 128, 191, 0, 0, 0, 190, 0, 0, 128, 191, 0, 0, 127, 0, 0, 127, 0, 129, 64, 54, 0, 48, 0, 0, 128, 63, 0, 0, 0, 62, 0, 0, 128, 191, 0, 0, 127, 0, 0, 127, 0, 129, 192, 54, 0, 54, 0, 0, 128, 191, 0, 0, 0, 62, 0, 0, 128, 191, 0, 0, 127, 0, 0, 127, 0, 129, 192, 54, 0, 48, 0, 0, 128, 191, 0, 0, 192, 62, 0, 0, 0, 192, 0, 127, 0, 0, 0, 0, 129, 129, 160, 56, 0, 48, 0, 0, 128, 63, 0, 0, 192, 62, 0, 0, 0, 192, 0, 127, 0, 0, 0, 0, 129, 129, 160, 56, 0, 54, 0, 0, 128, 191, 0, 0, 192, 62, 0, 0, 192, 191, 0, 127, 0, 0, 0, 0, 129, 129, 32, 56, 0, 48, 0, 0, 128, 63, 0, 0, 192, 62, 0, 0, 192, 191, 0, 127, 0, 0, 0, 0, 129, 129, 32, 56, 0, 54, 0, 0, 128, 63, 0, 0, 0, 62, 0, 0, 192, 191, 0, 0, 127, 0, 0, 127, 0, 129, 192, 55, 0, 54, 0, 0, 128, 191, 0, 0, 0, 62, 0, 0, 192, 191, 0, 0, 127, 0, 0, 127, 0, 129, 192, 55, 0, 48, 0, 0, 128, 63, 0, 0, 192, 62, 0, 0, 192, 191, 0, 0, 127, 0, 0, 127, 0, 129, 32, 56, 0, 54, 0, 0, 128, 191, 0, 0, 192, 62, 0, 0, 192, 191, 0, 0, 127, 0, 0, 127, 0, 129, 32, 56, 0, 48, 0, 0, 128, 63, 0, 0, 192, 62, 0, 0, 192, 191, 127, 0, 0, 0, 0, 129, 0, 129, 128, 53, 128, 57, 0, 0, 128, 191, 0, 0, 32, 63, 0, 0, 32, 192, 0, 127, 0, 0, 0, 0, 129, 129, 96, 57, 0, 48, 0, 0, 128, 63, 0, 0, 32, 63, 0, 0, 32, 192, 0, 127, 0, 0, 0, 0, 129, 129, 96, 57, 0, 54, 0, 0, 128, 191, 0, 0, 32, 63, 0, 0, 0, 192, 0, 127, 0, 0, 0, 0, 129, 129, 224, 56, 0, 48, 0, 0, 128, 63, 0, 0, 32, 63, 0, 0, 0, 192, 0, 127, 0, 0, 0, 0, 129, 129, 224, 56, 0, 54, 0, 0, 128, 63, 0, 0, 192, 62, 0, 0, 0, 192, 0, 0, 127, 0, 0, 127, 0, 129, 160, 56, 0, 54, 0, 0, 128, 191, 0, 0, 192, 62, 0, 0, 0, 192, 0, 0, 127, 0, 0, 127, 0, 129, 160, 56, 0, 48, 0, 0, 128, 63, 0, 0, 32, 63, 0, 0, 0, 192, 0, 0, 127, 0, 0, 127, 0, 129, 224, 56, 0, 54, 0, 0, 128, 191, 0, 0, 32, 63, 0, 0, 0, 192, 0, 0, 127, 0, 0, 127, 0, 129, 224, 56, 0, 48, 0, 0, 128, 191, 0, 0, 96, 63, 0, 0, 64, 192, 0, 127, 0, 0, 0, 0, 129, 129, 32, 58, 0, 48, 0, 0, 128, 63, 0, 0, 96, 63, 0, 0, 64, 192, 0, 127, 0, 0, 0, 0, 129, 129, 32, 58, 0, 54, 0, 0, 128, 191, 0, 0, 96, 63, 0, 0, 32, 192, 0, 127, 0, 0, 0, 0, 129, 129, 160, 57, 0, 48, 0, 0, 128, 63, 0, 0, 96, 63, 0, 0, 32, 192, 0, 127, 0, 0, 0, 0, 129, 129, 160, 57, 0, 54, 0, 0, 128, 63, 0, 0, 32, 63, 0, 0, 32, 192, 0, 0, 127, 0, 0, 127, 0, 129, 96, 57, 0, 54, 0, 0, 128, 191, 0, 0, 32, 63, 0, 0, 32, 192, 0, 0, 127, 0, 0, 127, 0, 129, 96, 57, 0, 48, 0, 0, 128, 63, 0, 0, 96, 63, 0, 0, 32, 192, 0, 0, 127, 0, 0, 127, 0, 129, 160, 57, 0, 54, 0, 0, 128, 191, 0, 0, 96, 63, 0, 0, 32, 192, 0, 0, 127, 0, 0, 127, 0, 129, 160, 57, 0, 48 ),
"array_index_data": PoolByteArray( 0, 0, 1, 0, 2, 0, 2, 0, 1, 0, 3, 0, 4, 0, 5, 0, 6, 0, 6, 0, 5, 0, 7, 0, 8, 0, 9, 0, 10, 0, 10, 0, 9, 0, 11, 0, 12, 0, 13, 0, 14, 0, 14, 0, 13, 0, 15, 0, 14, 0, 15, 0, 0, 0, 0, 0, 15, 0, 1, 0, 6, 0, 7, 0, 12, 0, 12, 0, 7, 0, 13, 0, 12, 0, 14, 0, 16, 0, 4, 0, 6, 0, 17, 0, 10, 0, 11, 0, 4, 0, 4, 0, 11, 0, 5, 0, 18, 0, 19, 0, 8, 0, 8, 0, 19, 0, 9, 0, 8, 0, 10, 0, 20, 0, 10, 0, 4, 0, 21, 0, 6, 0, 12, 0, 22, 0, 14, 0, 0, 0, 23, 0, 0, 0, 2, 0, 24, 0, 25, 0, 26, 0, 27, 0, 27, 0, 26, 0, 28, 0, 29, 0, 30, 0, 31, 0, 31, 0, 30, 0, 32, 0, 33, 0, 34, 0, 35, 0, 35, 0, 34, 0, 36, 0, 37, 0, 38, 0, 39, 0, 39, 0, 38, 0, 40, 0, 41, 0, 42, 0, 43, 0, 43, 0, 42, 0, 44, 0, 45, 0, 46, 0, 47, 0, 48, 0, 49, 0, 50, 0, 50, 0, 49, 0, 51, 0, 45, 0, 52, 0, 46, 0, 46, 0, 52, 0, 53, 0, 54, 0, 55, 0, 56, 0, 56, 0, 55, 0, 57, 0, 58, 0, 59, 0, 60, 0, 60, 0, 59, 0, 61, 0, 62, 0, 63, 0, 64, 0, 64, 0, 63, 0, 65, 0, 66, 0, 67, 0, 68, 0, 68, 0, 67, 0, 69, 0, 70, 0, 71, 0, 72, 0, 72, 0, 71, 0, 73, 0, 66, 0, 68, 0, 74, 0, 75, 0, 66, 0, 76, 0, 77, 0, 78, 0, 70, 0, 70, 0, 78, 0, 71, 0, 75, 0, 79, 0, 66, 0, 66, 0, 79, 0, 67, 0, 68, 0, 69, 0, 45, 0, 45, 0, 69, 0, 52, 0, 72, 0, 73, 0, 48, 0, 48, 0, 73, 0, 49, 0, 46, 0, 53, 0, 62, 0, 62, 0, 53, 0, 63, 0, 80, 0, 81, 0, 82, 0, 82, 0, 81, 0, 83, 0, 60, 0, 61, 0, 37, 0, 37, 0, 61, 0, 38, 0, 64, 0, 65, 0, 29, 0, 29, 0, 65, 0, 30, 0, 84, 0, 85, 0, 86, 0, 86, 0, 85, 0, 87, 0, 88, 0, 89, 0, 90, 0, 90, 0, 89, 0, 91, 0, 64, 0, 29, 0, 92, 0, 93, 0, 94, 0, 95, 0, 95, 0, 94, 0, 96, 0, 62, 0, 64, 0, 97, 0, 98, 0, 99, 0, 100, 0, 100, 0, 99, 0, 101, 0, 46, 0, 62, 0, 102, 0, 103, 0, 104, 0, 105, 0, 105, 0, 104, 0, 106, 0, 107, 0, 108, 0, 109, 0, 109, 0, 108, 0, 110, 0, 111, 0, 112, 0, 113, 0, 113, 0, 112, 0, 114, 0, 115, 0, 116, 0, 117, 0, 117, 0, 116, 0, 118, 0, 119, 0, 120, 0, 121, 0, 121, 0, 120, 0, 122, 0, 68, 0, 45, 0, 123, 0, 124, 0, 125, 0, 126, 0, 126, 0, 125, 0, 127, 0, 128, 0, 129, 0, 130, 0, 130, 0, 129, 0, 131, 0, 132, 0, 133, 0, 134, 0, 134, 0, 133, 0, 135, 0, 136, 0, 137, 0, 138, 0, 138, 0, 137, 0, 139, 0 ),
"blend_shape_data": [  ],
"format": 97559,
"index_count": 288,
"material": SubResource( 12 ),
"primitive": 4,
"skeleton_aabb": [  ],
"vertex_count": 140
}
_sections_unfolded = [ "surface_1" ]

[sub_resource type="ConvexPolygonShape" id=14]

margin = 0.04
points = PoolVector3Array( -1, 0.625, -2.5, -1, -1, -2.5, -1, 0.875, -3, -1, -1, -3, -1, -0.375, -0.5, -1, -1, -0.5, -1, -0.125, -1, -1, -1, -1, -1, -0.875, 0.5, -1, -1, 0.5, -1, -0.625, 0, -1, -1, 0, -1, 0.125, -1.5, -1, -1, -1.5, -1, 0.375, -2, -1, -1, -2, -1, 0.375, -1.5, -1, -0.125, -0.5, -1, -0.875, 1, -1, -1, 1, -1, -0.625, 0.5, -1, -0.375, 0, -1, 0.125, -1, -1, 0.625, -2, -1, 0.875, -2.5, -1, 0.875, -3, -1, -1, -3, 1, 0.875, -3, 1, -1, -3, 1, -0.875, 0.5, 1, -1, 0.5, 1, -0.875, 1, 1, -1, 1, 1, -0.875, 1, 1, -1, 1, -1, -0.875, 1, -1, -1, 1, 1, -1, 0.5, -1, -1, 0.5, 1, -1, 1, -1, -1, 1, -1, -0.875, 0.5, 1, -0.875, 0.5, -1, -0.875, 1, 1, -0.875, 1, 1, 0.125, -1.5, 1, -0.125, -1, 1, 0.125, -1, 1, -1, -1.5, -1, -1, -1.5, 1, -1, -1, -1, -1, -1, 1, -1, -1.5, 1, -1, -1, 1, -0.625, 0, -1, -0.625, 0, 1, -0.375, 0, -1, -0.375, 0, 1, -1, -0.5, -1, -1, -0.5, 1, -1, 0, -1, -1, 0, 1, -0.375, -0.5, 1, -1, -0.5, 1, -0.625, 0, 1, -1, 0, 1, 0.625, -2.5, 1, -1, -2.5, 1, 0.375, -2, 1, -1, -2, 1, -1, -2.5, -1, -1, -2.5, 1, -1, -2, -1, -1, -2, 1, 0.625, -2, 1, 0.875, -3, 1, 0.875, -2.5, 1, -1, -3, -1, -1, -3, 1, -1, -3, 1, -1, -1, -1, -1, -1, 1, -1, -0.5, -1, -1, -0.5, -1, -0.625, 0, 1, -0.625, 0, -1, -0.625, 0.5, 1, -0.625, 0.5, 1, -0.875, 0.5, -1, -0.875, 0.5, 1, -0.625, 0.5, -1, -0.625, 0.5, 1, -0.625, 0.5, -1, -0.375, -0.5, 1, -0.375, -0.5, -1, -0.375, 0, 1, -0.375, 0, 1, -0.375, 0, -1, -0.125, -1, 1, -0.125, -1, -1, -0.125, -0.5, 1, -0.125, -0.5, 1, -0.125, -0.5, 1, -0.375, -0.5, -1, -0.375, -0.5, 1, -0.125, -0.5, -1, -0.125, -0.5, -1, 0.125, -1.5, 1, 0.125, -1.5, -1, 0.125, -1, 1, 0.125, -1, 1, -0.125, -1, -1, -0.125, -1, 1, 0.125, -1, -1, 0.125, -1, -1, 0.375, -2, 1, 0.375, -2, -1, 0.375, -1.5, 1, 0.375, -1.5, 1, 0.125, -1.5, -1, 0.125, -1.5, 1, 0.375, -1.5, -1, 0.375, -1.5, 1, 0.375, -1.5, -1, 0.625, -2.5, 1, 0.625, -2.5, -1, 0.625, -2, 1, 0.625, -2, 1, 0.375, -2, -1, 0.375, -2, 1, 0.625, -2, -1, 0.625, -2, -1, 0.875, -3, 1, 0.875, -3, -1, 0.875, -2.5, 1, 0.875, -2.5, 1, 0.625, -2.5, -1, 0.625, -2.5, 1, 0.875, -2.5, -1, 0.875, -2.5 )

[sub_resource type="SpatialMaterial" id=15]

render_priority = 0
flags_transparent = false
flags_unshaded = false
flags_vertex_lighting = false
flags_no_depth_test = false
flags_use_point_size = false
flags_world_triplanar = false
flags_fixed_size = false
flags_albedo_tex_force_srgb = false
flags_do_not_receive_shadows = false
flags_disable_ambient_light = false
flags_ensure_correct_normals = false
vertex_color_use_as_albedo = false
vertex_color_is_srgb = false
params_diffuse_mode = 0
params_specular_mode = 0
params_blend_mode = 0
params_cull_mode = 0
params_depth_draw_mode = 0
params_line_width = 1.0
params_point_size = 1.0
params_billboard_mode = 0
params_billboard_keep_scale = false
params_grow = false
params_use_alpha_scissor = false
albedo_color = Color( 0.415686, 0.415686, 0.415686, 1 )
metallic = 0.9
metallic_specular = 0.68
metallic_texture_channel = 0
roughness = 0.29
roughness_texture_channel = 0
emission_enabled = false
normal_enabled = false
rim_enabled = false
clearcoat_enabled = false
anisotropy_enabled = false
ao_enabled = false
depth_enabled = false
subsurf_scatter_enabled = false
transmission_enabled = false
refraction_enabled = false
detail_enabled = false
uv1_scale = Vector3( 1, 1, 1 )
uv1_offset = Vector3( 0, 0, 0 )
uv1_triplanar = false
uv1_triplanar_sharpness = 1.0
uv2_scale = Vector3( 1, 1, 1 )
uv2_offset = Vector3( 0, 0, 0 )
uv2_triplanar = false
uv2_triplanar_sharpness = 1.0
proximity_fade_enable = false
distance_fade_mode = 0
_sections_unfolded = [ "Albedo", "Metallic", "Roughness" ]

[sub_resource type="ArrayMesh" id=16]

blend_shape_mode = 1
custom_aabb = AABB( 0, 0, 0, 0, 0, 0 )
surfaces/0 = {
"aabb": AABB( -0.125, -1, -0.725, 0.25, 2, 1.45 ),
"array_data": PoolByteArray( 0, 0, 0, 0, 0, 0, 128, 191, 51, 51, 243, 62, 0, 129, 0, 0, 127, 0, 0, 127, 0, 58, 20, 56, 0, 0, 0, 0, 0, 0, 128, 191, 154, 153, 25, 63, 0, 129, 0, 0, 127, 0, 0, 127, 0, 58, 0, 58, 197, 4, 181, 61, 0, 0, 128, 191, 1, 249, 2, 63, 0, 129, 0, 0, 126, 0, 0, 127, 91, 59, 164, 56, 197, 4, 181, 61, 0, 0, 128, 63, 1, 249, 2, 63, 0, 127, 0, 0, 126, 0, 0, 129, 183, 54, 164, 56, 0, 0, 0, 0, 0, 0, 128, 63, 154, 153, 25, 63, 0, 127, 0, 0, 127, 0, 0, 129, 0, 52, 0, 58, 0, 0, 0, 0, 0, 0, 128, 63, 51, 51, 243, 62, 0, 127, 0, 0, 127, 0, 0, 129, 0, 52, 20, 56, 197, 4, 181, 61, 0, 0, 128, 191, 1, 249, 2, 63, 48, 0, 139, 0, 139, 0, 208, 129, 0, 59, 0, 56, 0, 0, 0, 0, 0, 0, 128, 63, 51, 51, 243, 62, 48, 0, 139, 0, 139, 0, 208, 129, 0, 60, 0, 0, 0, 0, 0, 0, 0, 0, 128, 191, 51, 51, 243, 62, 48, 0, 139, 0, 139, 0, 208, 129, 0, 60, 0, 56, 0, 0, 0, 62, 0, 0, 128, 191, 154, 153, 25, 63, 0, 129, 0, 0, 126, 0, 0, 127, 235, 59, 0, 58, 0, 0, 0, 62, 0, 0, 128, 63, 154, 153, 25, 63, 0, 127, 0, 0, 126, 0, 0, 129, 215, 55, 0, 58, 0, 0, 0, 62, 0, 0, 128, 191, 154, 153, 25, 63, 117, 0, 208, 0, 208, 0, 139, 129, 0, 58, 0, 56, 197, 4, 181, 61, 0, 0, 128, 63, 1, 249, 2, 63, 117, 0, 208, 0, 208, 0, 139, 129, 0, 59, 0, 0, 197, 4, 181, 61, 0, 0, 128, 191, 1, 249, 2, 63, 117, 0, 208, 0, 208, 0, 139, 129, 0, 59, 0, 56, 197, 4, 181, 61, 0, 0, 128, 191, 50, 58, 48, 63, 0, 129, 0, 0, 127, 0, 0, 127, 91, 59, 91, 59, 197, 4, 181, 61, 0, 0, 128, 63, 50, 58, 48, 63, 0, 127, 0, 0, 127, 0, 0, 129, 183, 54, 91, 59, 197, 4, 181, 61, 0, 0, 128, 191, 50, 58, 48, 63, 117, 0, 48, 0, 48, 0, 139, 129, 0, 57, 0, 56, 0, 0, 0, 62, 0, 0, 128, 63, 154, 153, 25, 63, 117, 0, 48, 0, 48, 0, 139, 129, 0, 58, 0, 0, 0, 0, 0, 62, 0, 0, 128, 191, 154, 153, 25, 63, 117, 0, 48, 0, 48, 0, 139, 129, 0, 58, 0, 56, 0, 0, 0, 128, 0, 0, 128, 191, 154, 153, 57, 63, 0, 129, 0, 0, 127, 0, 0, 127, 0, 58, 235, 59, 0, 0, 0, 128, 0, 0, 128, 63, 154, 153, 57, 63, 0, 127, 0, 0, 127, 0, 0, 129, 0, 52, 235, 59, 0, 0, 0, 128, 0, 0, 128, 191, 154, 153, 57, 63, 48, 0, 117, 0, 117, 0, 208, 129, 0, 56, 0, 56, 197, 4, 181, 61, 0, 0, 128, 63, 50, 58, 48, 63, 48, 0, 117, 0, 117, 0, 208, 129, 0, 57, 0, 0, 197, 4, 181, 61, 0, 0, 128, 191, 50, 58, 48, 63, 48, 0, 117, 0, 117, 0, 208, 129, 0, 57, 0, 56, 197, 4, 181, 189, 0, 0, 128, 191, 50, 58, 48, 63, 0, 129, 0, 0, 127, 0, 0, 127, 164, 56, 91, 59, 197, 4, 181, 189, 0, 0, 128, 63, 50, 58, 48, 63, 0, 127, 0, 0, 127, 0, 0, 129, 35, 45, 91, 59, 197, 4, 181, 189, 0, 0, 128, 191, 50, 58, 48, 63, 208, 0, 117, 0, 117, 0, 48, 129, 0, 54, 0, 56, 0, 0, 0, 128, 0, 0, 128, 63, 154, 153, 57, 63, 208, 0, 117, 0, 117, 0, 48, 129, 0, 56, 0, 0, 0, 0, 0, 128, 0, 0, 128, 191, 154, 153, 57, 63, 208, 0, 117, 0, 117, 0, 48, 129, 0, 56, 0, 56, 0, 0, 0, 190, 0, 0, 128, 191, 154, 153, 25, 63, 0, 129, 0, 0, 126, 0, 0, 127, 20, 56, 0, 58, 0, 0, 0, 190, 0, 0, 128, 63, 154, 153, 25, 63, 0, 127, 0, 0, 126, 0, 0, 129, 30, 33, 0, 58, 0, 0, 0, 190, 0, 0, 128, 191, 154, 153, 25, 63, 139, 0, 48, 0, 48, 0, 117, 129, 0, 52, 0, 56, 197, 4, 181, 189, 0, 0, 128, 63, 50, 58, 48, 63, 139, 0, 48, 0, 48, 0, 117, 129, 0, 54, 0, 0, 197, 4, 181, 189, 0, 0, 128, 191, 50, 58, 48, 63, 139, 0, 48, 0, 48, 0, 117, 129, 0, 54, 0, 56, 197, 4, 181, 189, 0, 0, 128, 191, 1, 249, 2, 63, 0, 129, 0, 0, 126, 0, 0, 127, 164, 56, 164, 56, 197, 4, 181, 189, 0, 0, 128, 63, 1, 249, 2, 63, 0, 127, 0, 0, 126, 0, 0, 129, 35, 45, 164, 56, 197, 4, 181, 189, 0, 0, 128, 191, 1, 249, 2, 63, 139, 0, 208, 0, 208, 0, 117, 129, 0, 48, 0, 56, 0, 0, 0, 190, 0, 0, 128, 63, 154, 153, 25, 63, 139, 0, 208, 0, 208, 0, 117, 129, 0, 52, 0, 0, 0, 0, 0, 190, 0, 0, 128, 191, 154, 153, 25, 63, 139, 0, 208, 0, 208, 0, 117, 129, 0, 52, 0, 56, 0, 0, 0, 0, 0, 0, 128, 191, 51, 51, 243, 62, 208, 0, 139, 0, 139, 0, 48, 129, 0, 0, 0, 56, 197, 4, 181, 189, 0, 0, 128, 63, 1, 249, 2, 63, 208, 0, 139, 0, 139, 0, 48, 129, 0, 48, 0, 0, 197, 4, 181, 189, 0, 0, 128, 191, 1, 249, 2, 63, 208, 0, 139, 0, 139, 0, 48, 129, 0, 48, 0, 56, 0, 0, 0, 0, 0, 0, 128, 191, 0, 0, 0, 190, 0, 129, 0, 0, 126, 0, 0, 127, 0, 58, 20, 56, 0, 0, 0, 0, 0, 0, 128, 191, 0, 0, 0, 0, 0, 129, 0, 0, 126, 0, 0, 127, 0, 58, 0, 58, 197, 4, 181, 61, 0, 0, 128, 191, 197, 4, 181, 189, 0, 129, 0, 0, 126, 0, 0, 127, 91, 59, 164, 56, 197, 4, 181, 61, 0, 0, 128, 63, 197, 4, 181, 189, 0, 127, 0, 0, 126, 0, 0, 129, 183, 54, 164, 56, 0, 0, 0, 0, 0, 0, 128, 63, 0, 0, 0, 0, 0, 127, 0, 0, 126, 0, 0, 129, 0, 52, 0, 58, 0, 0, 0, 0, 0, 0, 128, 63, 0, 0, 0, 190, 0, 127, 0, 0, 126, 0, 0, 129, 0, 52, 20, 56, 197, 4, 181, 61, 0, 0, 128, 191, 197, 4, 181, 189, 48, 0, 139, 0, 139, 0, 208, 129, 0, 59, 0, 56, 0, 0, 0, 0, 0, 0, 128, 63, 0, 0, 0, 190, 48, 0, 139, 0, 139, 0, 208, 129, 0, 60, 0, 0, 0, 0, 0, 0, 0, 0, 128, 191, 0, 0, 0, 190, 48, 0, 139, 0, 139, 0, 208, 129, 0, 60, 0, 56, 0, 0, 0, 62, 0, 0, 128, 191, 0, 0, 0, 0, 0, 129, 0, 0, 126, 0, 0, 127, 235, 59, 0, 58, 0, 0, 0, 62, 0, 0, 128, 63, 0, 0, 0, 0, 0, 127, 0, 0, 126, 0, 0, 129, 215, 55, 0, 58, 0, 0, 0, 62, 0, 0, 128, 191, 0, 0, 0, 0, 117, 0, 208, 0, 208, 0, 139, 129, 0, 58, 0, 56, 197, 4, 181, 61, 0, 0, 128, 63, 197, 4, 181, 189, 117, 0, 208, 0, 208, 0, 139, 129, 0, 59, 0, 0, 197, 4, 181, 61, 0, 0, 128, 191, 197, 4, 181, 189, 117, 0, 208, 0, 208, 0, 139, 129, 0, 59, 0, 56, 197, 4, 181, 61, 0, 0, 128, 191, 197, 4, 181, 61, 0, 129, 0, 0, 126, 0, 0, 127, 91, 59, 91, 59, 197, 4, 181, 61, 0, 0, 128, 63, 197, 4, 181, 61, 0, 127, 0, 0, 126, 0, 0, 129, 183, 54, 91, 59, 197, 4, 181, 61, 0, 0, 128, 191, 197, 4, 181, 61, 117, 0, 48, 0, 48, 0, 139, 129, 0, 57, 0, 56, 0, 0, 0, 62, 0, 0, 128, 63, 0, 0, 0, 0, 117, 0, 48, 0, 48, 0, 139, 129, 0, 58, 0, 0, 0, 0, 0, 62, 0, 0, 128, 191, 0, 0, 0, 0, 117, 0, 48, 0, 48, 0, 139, 129, 0, 58, 0, 56, 0, 0, 0, 128, 0, 0, 128, 191, 0, 0, 0, 62, 0, 129, 0, 0, 126, 0, 0, 127, 0, 58, 235, 59, 0, 0, 0, 128, 0, 0, 128, 63, 0, 0, 0, 62, 0, 127, 0, 0, 126, 0, 0, 129, 0, 52, 235, 59, 0, 0, 0, 128, 0, 0, 128, 191, 0, 0, 0, 62, 48, 0, 117, 0, 117, 0, 208, 129, 0, 56, 0, 56, 197, 4, 181, 61, 0, 0, 128, 63, 197, 4, 181, 61, 48, 0, 117, 0, 117, 0, 208, 129, 0, 57, 0, 0, 197, 4, 181, 61, 0, 0, 128, 191, 197, 4, 181, 61, 48, 0, 117, 0, 117, 0, 208, 129, 0, 57, 0, 56, 197, 4, 181, 189, 0, 0, 128, 191, 197, 4, 181, 61, 0, 129, 0, 0, 126, 0, 0, 127, 164, 56, 91, 59, 197, 4, 181, 189, 0, 0, 128, 63, 197, 4, 181, 61, 0, 127, 0, 0, 126, 0, 0, 129, 35, 45, 91, 59, 197, 4, 181, 189, 0, 0, 128, 191, 197, 4, 181, 61, 208, 0, 117, 0, 117, 0, 48, 129, 0, 54, 0, 56, 0, 0, 0, 128, 0, 0, 128, 63, 0, 0, 0, 62, 208, 0, 117, 0, 117, 0, 48, 129, 0, 56, 0, 0, 0, 0, 0, 128, 0, 0, 128, 191, 0, 0, 0, 62, 208, 0, 117, 0, 117, 0, 48, 129, 0, 56, 0, 56, 0, 0, 0, 190, 0, 0, 128, 191, 0, 0, 0, 0, 0, 129, 0, 0, 126, 0, 0, 127, 20, 56, 0, 58, 0, 0, 0, 190, 0, 0, 128, 63, 0, 0, 0, 0, 0, 127, 0, 0, 126, 0, 0, 129, 30, 33, 0, 58, 0, 0, 0, 190, 0, 0, 128, 191, 0, 0, 0, 0, 139, 0, 48, 0, 48, 0, 117, 129, 0, 52, 0, 56, 197, 4, 181, 189, 0, 0, 128, 63, 197, 4, 181, 61, 139, 0, 48, 0, 48, 0, 117, 129, 0, 54, 0, 0, 197, 4, 181, 189, 0, 0, 128, 191, 197, 4, 181, 61, 139, 0, 48, 0, 48, 0, 117, 129, 0, 54, 0, 56, 197, 4, 181, 189, 0, 0, 128, 191, 197, 4, 181, 189, 0, 129, 0, 0, 126, 0, 0, 127, 164, 56, 164, 56, 197, 4, 181, 189, 0, 0, 128, 63, 197, 4, 181, 189, 0, 127, 0, 0, 126, 0, 0, 129, 35, 45, 164, 56, 197, 4, 181, 189, 0, 0, 128, 191, 197, 4, 181, 189, 139, 0, 208, 0, 208, 0, 117, 129, 0, 48, 0, 56, 0, 0, 0, 190, 0, 0, 128, 63, 0, 0, 0, 0, 139, 0, 208, 0, 208, 0, 117, 129, 0, 52, 0, 0, 0, 0, 0, 190, 0, 0, 128, 191, 0, 0, 0, 0, 139, 0, 208, 0, 208, 0, 117, 129, 0, 52, 0, 56, 0, 0, 0, 0, 0, 0, 128, 191, 0, 0, 0, 190, 208, 0, 139, 0, 139, 0, 48, 129, 0, 0, 0, 56, 197, 4, 181, 189, 0, 0, 128, 63, 197, 4, 181, 189, 208, 0, 139, 0, 139, 0, 48, 129, 0, 48, 0, 0, 197, 4, 181, 189, 0, 0, 128, 191, 197, 4, 181, 189, 208, 0, 139, 0, 139, 0, 48, 129, 0, 48, 0, 56, 0, 0, 0, 0, 0, 0, 128, 191, 154, 153, 57, 191, 0, 129, 0, 0, 127, 0, 0, 127, 0, 58, 20, 56, 0, 0, 0, 0, 0, 0, 128, 191, 154, 153, 25, 191, 0, 129, 0, 0, 127, 0, 0, 127, 0, 58, 0, 58, 197, 4, 181, 61, 0, 0, 128, 191, 50, 58, 48, 191, 0, 129, 0, 0, 127, 0, 0, 127, 91, 59, 164, 56, 197, 4, 181, 61, 0, 0, 128, 63, 50, 58, 48, 191, 0, 127, 0, 0, 127, 0, 0, 129, 183, 54, 164, 56, 0, 0, 0, 0, 0, 0, 128, 63, 154, 153, 25, 191, 0, 127, 0, 0, 127, 0, 0, 129, 0, 52, 0, 58, 0, 0, 0, 0, 0, 0, 128, 63, 154, 153, 57, 191, 0, 127, 0, 0, 127, 0, 0, 129, 0, 52, 20, 56, 197, 4, 181, 61, 0, 0, 128, 191, 50, 58, 48, 191, 48, 0, 139, 0, 139, 0, 208, 129, 0, 59, 0, 56, 0, 0, 0, 0, 0, 0, 128, 63, 154, 153, 57, 191, 48, 0, 139, 0, 139, 0, 208, 129, 0, 60, 0, 0, 0, 0, 0, 0, 0, 0, 128, 191, 154, 153, 57, 191, 48, 0, 139, 0, 139, 0, 208, 129, 0, 60, 0, 56, 0, 0, 0, 62, 0, 0, 128, 191, 154, 153, 25, 191, 0, 129, 0, 0, 126, 0, 0, 127, 235, 59, 0, 58, 0, 0, 0, 62, 0, 0, 128, 63, 154, 153, 25, 191, 0, 127, 0, 0, 126, 0, 0, 129, 215, 55, 0, 58, 0, 0, 0, 62, 0, 0, 128, 191, 154, 153, 25, 191, 117, 0, 208, 0, 208, 0, 139, 129, 0, 58, 0, 56, 197, 4, 181, 61, 0, 0, 128, 63, 50, 58, 48, 191, 117, 0, 208, 0, 208, 0, 139, 129, 0, 59, 0, 0, 197, 4, 181, 61, 0, 0, 128, 191, 50, 58, 48, 191, 117, 0, 208, 0, 208, 0, 139, 129, 0, 59, 0, 56, 197, 4, 181, 61, 0, 0, 128, 191, 1, 249, 2, 191, 0, 129, 0, 0, 126, 0, 0, 127, 91, 59, 91, 59, 197, 4, 181, 61, 0, 0, 128, 63, 1, 249, 2, 191, 0, 127, 0, 0, 126, 0, 0, 129, 183, 54, 91, 59, 197, 4, 181, 61, 0, 0, 128, 191, 1, 249, 2, 191, 117, 0, 48, 0, 48, 0, 139, 129, 0, 57, 0, 56, 0, 0, 0, 62, 0, 0, 128, 63, 154, 153, 25, 191, 117, 0, 48, 0, 48, 0, 139, 129, 0, 58, 0, 0, 0, 0, 0, 62, 0, 0, 128, 191, 154, 153, 25, 191, 117, 0, 48, 0, 48, 0, 139, 129, 0, 58, 0, 56, 0, 0, 0, 128, 0, 0, 128, 191, 51, 51, 243, 190, 0, 129, 0, 0, 127, 0, 0, 127, 0, 58, 235, 59, 0, 0, 0, 128, 0, 0, 128, 63, 51, 51, 243, 190, 0, 127, 0, 0, 127, 0, 0, 129, 0, 52, 235, 59, 0, 0, 0, 128, 0, 0, 128, 191, 51, 51, 243, 190, 48, 0, 117, 0, 117, 0, 208, 129, 0, 56, 0, 56, 197, 4, 181, 61, 0, 0, 128, 63, 1, 249, 2, 191, 48, 0, 117, 0, 117, 0, 208, 129, 0, 57, 0, 0, 197, 4, 181, 61, 0, 0, 128, 191, 1, 249, 2, 191, 48, 0, 117, 0, 117, 0, 208, 129, 0, 57, 0, 56, 197, 4, 181, 189, 0, 0, 128, 191, 1, 249, 2, 191, 0, 129, 0, 0, 126, 0, 0, 127, 164, 56, 91, 59, 197, 4, 181, 189, 0, 0, 128, 63, 1, 249, 2, 191, 0, 127, 0, 0, 126, 0, 0, 129, 35, 45, 91, 59, 197, 4, 181, 189, 0, 0, 128, 191, 1, 249, 2, 191, 208, 0, 117, 0, 117, 0, 48, 129, 0, 54, 0, 56, 0, 0, 0, 128, 0, 0, 128, 63, 51, 51, 243, 190, 208, 0, 117, 0, 117, 0, 48, 129, 0, 56, 0, 0, 0, 0, 0, 128, 0, 0, 128, 191, 51, 51, 243, 190, 208, 0, 117, 0, 117, 0, 48, 129, 0, 56, 0, 56, 0, 0, 0, 190, 0, 0, 128, 191, 154, 153, 25, 191, 0, 129, 0, 0, 126, 0, 0, 127, 20, 56, 0, 58, 0, 0, 0, 190, 0, 0, 128, 63, 154, 153, 25, 191, 0, 127, 0, 0, 126, 0, 0, 129, 30, 33, 0, 58, 0, 0, 0, 190, 0, 0, 128, 191, 154, 153, 25, 191, 139, 0, 48, 0, 48, 0, 117, 129, 0, 52, 0, 56, 197, 4, 181, 189, 0, 0, 128, 63, 1, 249, 2, 191, 139, 0, 48, 0, 48, 0, 117, 129, 0, 54, 0, 0, 197, 4, 181, 189, 0, 0, 128, 191, 1, 249, 2, 191, 139, 0, 48, 0, 48, 0, 117, 129, 0, 54, 0, 56, 197, 4, 181, 189, 0, 0, 128, 191, 50, 58, 48, 191, 0, 129, 0, 0, 127, 0, 0, 127, 164, 56, 164, 56, 197, 4, 181, 189, 0, 0, 128, 63, 50, 58, 48, 191, 0, 127, 0, 0, 127, 0, 0, 129, 35, 45, 164, 56, 197, 4, 181, 189, 0, 0, 128, 191, 50, 58, 48, 191, 139, 0, 208, 0, 208, 0, 117, 129, 0, 48, 0, 56, 0, 0, 0, 190, 0, 0, 128, 63, 154, 153, 25, 191, 139, 0, 208, 0, 208, 0, 117, 129, 0, 52, 0, 0, 0, 0, 0, 190, 0, 0, 128, 191, 154, 153, 25, 191, 139, 0, 208, 0, 208, 0, 117, 129, 0, 52, 0, 56, 0, 0, 0, 0, 0, 0, 128, 191, 154, 153, 57, 191, 208, 0, 139, 0, 139, 0, 48, 129, 0, 0, 0, 56, 197, 4, 181, 189, 0, 0, 128, 63, 50, 58, 48, 191, 208, 0, 139, 0, 139, 0, 48, 129, 0, 48, 0, 0, 197, 4, 181, 189, 0, 0, 128, 191, 50, 58, 48, 191, 208, 0, 139, 0, 139, 0, 48, 129, 0, 48, 0, 56, 197, 4, 181, 61, 0, 0, 128, 63, 1, 249, 2, 63, 48, 0, 139, 0, 139, 0, 208, 129, 0, 59, 0, 0, 0, 0, 0, 62, 0, 0, 128, 63, 154, 153, 25, 63, 117, 0, 208, 0, 208, 0, 139, 129, 0, 58, 0, 0, 197, 4, 181, 61, 0, 0, 128, 63, 50, 58, 48, 63, 117, 0, 48, 0, 48, 0, 139, 129, 0, 57, 0, 0, 0, 0, 0, 128, 0, 0, 128, 63, 154, 153, 57, 63, 48, 0, 117, 0, 117, 0, 208, 129, 0, 56, 0, 0, 197, 4, 181, 189, 0, 0, 128, 63, 50, 58, 48, 63, 208, 0, 117, 0, 117, 0, 48, 129, 0, 54, 0, 0, 0, 0, 0, 190, 0, 0, 128, 63, 154, 153, 25, 63, 139, 0, 48, 0, 48, 0, 117, 129, 0, 52, 0, 0, 197, 4, 181, 189, 0, 0, 128, 63, 1, 249, 2, 63, 139, 0, 208, 0, 208, 0, 117, 129, 0, 48, 0, 0, 0, 0, 0, 0, 0, 0, 128, 63, 51, 51, 243, 62, 208, 0, 139, 0, 139, 0, 48, 129, 0, 0, 0, 0, 197, 4, 181, 61, 0, 0, 128, 63, 197, 4, 181, 189, 48, 0, 139, 0, 139, 0, 208, 129, 0, 59, 0, 0, 0, 0, 0, 62, 0, 0, 128, 63, 0, 0, 0, 0, 117, 0, 208, 0, 208, 0, 139, 129, 0, 58, 0, 0, 197, 4, 181, 61, 0, 0, 128, 63, 197, 4, 181, 61, 117, 0, 48, 0, 48, 0, 139, 129, 0, 57, 0, 0, 0, 0, 0, 128, 0, 0, 128, 63, 0, 0, 0, 62, 48, 0, 117, 0, 117, 0, 208, 129, 0, 56, 0, 0, 197, 4, 181, 189, 0, 0, 128, 63, 197, 4, 181, 61, 208, 0, 117, 0, 117, 0, 48, 129, 0, 54, 0, 0, 0, 0, 0, 190, 0, 0, 128, 63, 0, 0, 0, 0, 139, 0, 48, 0, 48, 0, 117, 129, 0, 52, 0, 0, 197, 4, 181, 189, 0, 0, 128, 63, 197, 4, 181, 189, 139, 0, 208, 0, 208, 0, 117, 129, 0, 48, 0, 0, 0, 0, 0, 0, 0, 0, 128, 63, 0, 0, 0, 190, 208, 0, 139, 0, 139, 0, 48, 129, 0, 0, 0, 0, 197, 4, 181, 61, 0, 0, 128, 63, 50, 58, 48, 191, 48, 0, 139, 0, 139, 0, 208, 129, 0, 59, 0, 0, 0, 0, 0, 62, 0, 0, 128, 63, 154, 153, 25, 191, 117, 0, 208, 0, 208, 0, 139, 129, 0, 58, 0, 0, 197, 4, 181, 61, 0, 0, 128, 63, 1, 249, 2, 191, 117, 0, 48, 0, 48, 0, 139, 129, 0, 57, 0, 0, 0, 0, 0, 128, 0, 0, 128, 63, 51, 51, 243, 190, 48, 0, 117, 0, 117, 0, 208, 129, 0, 56, 0, 0, 197, 4, 181, 189, 0, 0, 128, 63, 1, 249, 2, 191, 208, 0, 117, 0, 117, 0, 48, 129, 0, 54, 0, 0, 0, 0, 0, 190, 0, 0, 128, 63, 154, 153, 25, 191, 139, 0, 48, 0, 48, 0, 117, 129, 0, 52, 0, 0, 197, 4, 181, 189, 0, 0, 128, 63, 50, 58, 48, 191, 139, 0, 208, 0, 208, 0, 117, 129, 0, 48, 0, 0, 0, 0, 0, 0, 0, 0, 128, 63, 154, 153, 57, 191, 208, 0, 139, 0, 139, 0, 48, 129, 0, 0, 0, 0 ),
"array_index_data": PoolByteArray( 0, 0, 1, 0, 2, 0, 3, 0, 4, 0, 5, 0, 6, 0, 7, 0, 8, 0, 2, 0, 1, 0, 9, 0, 10, 0, 4, 0, 3, 0, 11, 0, 12, 0, 13, 0, 9, 0, 1, 0, 14, 0, 15, 0, 4, 0, 10, 0, 16, 0, 17, 0, 18, 0, 14, 0, 1, 0, 19, 0, 20, 0, 4, 0, 15, 0, 21, 0, 22, 0, 23, 0, 19, 0, 1, 0, 24, 0, 25, 0, 4, 0, 20, 0, 26, 0, 27, 0, 28, 0, 24, 0, 1, 0, 29, 0, 30, 0, 4, 0, 25, 0, 31, 0, 32, 0, 33, 0, 29, 0, 1, 0, 34, 0, 35, 0, 4, 0, 30, 0, 36, 0, 37, 0, 38, 0, 34, 0, 1, 0, 0, 0, 5, 0, 4, 0, 35, 0, 39, 0, 40, 0, 41, 0, 42, 0, 43, 0, 44, 0, 45, 0, 46, 0, 47, 0, 48, 0, 49, 0, 50, 0, 44, 0, 43, 0, 51, 0, 52, 0, 46, 0, 45, 0, 53, 0, 54, 0, 55, 0, 51, 0, 43, 0, 56, 0, 57, 0, 46, 0, 52, 0, 58, 0, 59, 0, 60, 0, 56, 0, 43, 0, 61, 0, 62, 0, 46, 0, 57, 0, 63, 0, 64, 0, 65, 0, 61, 0, 43, 0, 66, 0, 67, 0, 46, 0, 62, 0, 68, 0, 69, 0, 70, 0, 66, 0, 43, 0, 71, 0, 72, 0, 46, 0, 67, 0, 73, 0, 74, 0, 75, 0, 71, 0, 43, 0, 76, 0, 77, 0, 46, 0, 72, 0, 78, 0, 79, 0, 80, 0, 76, 0, 43, 0, 42, 0, 47, 0, 46, 0, 77, 0, 81, 0, 82, 0, 83, 0, 84, 0, 85, 0, 86, 0, 87, 0, 88, 0, 89, 0, 90, 0, 91, 0, 92, 0, 86, 0, 85, 0, 93, 0, 94, 0, 88, 0, 87, 0, 95, 0, 96, 0, 97, 0, 93, 0, 85, 0, 98, 0, 99, 0, 88, 0, 94, 0, 100, 0, 101, 0, 102, 0, 98, 0, 85, 0, 103, 0, 104, 0, 88, 0, 99, 0, 105, 0, 106, 0, 107, 0, 103, 0, 85, 0, 108, 0, 109, 0, 88, 0, 104, 0, 110, 0, 111, 0, 112, 0, 108, 0, 85, 0, 113, 0, 114, 0, 88, 0, 109, 0, 115, 0, 116, 0, 117, 0, 113, 0, 85, 0, 118, 0, 119, 0, 88, 0, 114, 0, 120, 0, 121, 0, 122, 0, 118, 0, 85, 0, 84, 0, 89, 0, 88, 0, 119, 0, 123, 0, 124, 0, 125, 0, 126, 0, 7, 0, 6, 0, 127, 0, 12, 0, 11, 0, 128, 0, 17, 0, 16, 0, 129, 0, 22, 0, 21, 0, 130, 0, 27, 0, 26, 0, 131, 0, 32, 0, 31, 0, 132, 0, 37, 0, 36, 0, 133, 0, 40, 0, 39, 0, 134, 0, 49, 0, 48, 0, 135, 0, 54, 0, 53, 0, 136, 0, 59, 0, 58, 0, 137, 0, 64, 0, 63, 0, 138, 0, 69, 0, 68, 0, 139, 0, 74, 0, 73, 0, 140, 0, 79, 0, 78, 0, 141, 0, 82, 0, 81, 0, 142, 0, 91, 0, 90, 0, 143, 0, 96, 0, 95, 0, 144, 0, 101, 0, 100, 0, 145, 0, 106, 0, 105, 0, 146, 0, 111, 0, 110, 0, 147, 0, 116, 0, 115, 0, 148, 0, 121, 0, 120, 0, 149, 0, 124, 0, 123, 0 ),
"blend_shape_data": [  ],
"format": 97559,
"index_count": 288,
"material": SubResource( 15 ),
"primitive": 4,
"skeleton_aabb": [  ],
"vertex_count": 150
}
_sections_unfolded = [ "surface_1" ]

[sub_resource type="BoxShape" id=21]

margin = 0.04
extents = Vector3( 0.125, 8, 1 )

[sub_resource type="SpatialMaterial" id=17]

render_priority = 0
flags_transparent = false
flags_unshaded = false
flags_vertex_lighting = false
flags_no_depth_test = false
flags_use_point_size = false
flags_world_triplanar = false
flags_fixed_size = false
flags_albedo_tex_force_srgb = false
flags_do_not_receive_shadows = false
flags_disable_ambient_light = false
flags_ensure_correct_normals = false
vertex_color_use_as_albedo = false
vertex_color_is_srgb = false
params_diffuse_mode = 0
params_specular_mode = 0
params_blend_mode = 0
params_cull_mode = 0
params_depth_draw_mode = 0
params_line_width = 1.0
params_point_size = 1.0
params_billboard_mode = 0
params_billboard_keep_scale = false
params_grow = false
params_use_alpha_scissor = false
albedo_color = Color( 0.207843, 0.309804, 0.478431, 1 )
metallic = 0.0
metallic_specular = 0.5
metallic_texture_channel = 0
roughness = 1.0
roughness_texture = ExtResource( 11 )
roughness_texture_channel = 0
emission_enabled = false
normal_enabled = true
normal_scale = 1.0
normal_texture = ExtResource( 10 )
rim_enabled = false
clearcoat_enabled = false
anisotropy_enabled = false
ao_enabled = false
depth_enabled = false
subsurf_scatter_enabled = false
transmission_enabled = false
refraction_enabled = false
detail_enabled = false
uv1_scale = Vector3( 1, 1, 1 )
uv1_offset = Vector3( 0, 0, 0 )
uv1_triplanar = false
uv1_triplanar_sharpness = 1.0
uv2_scale = Vector3( 1, 1, 1 )
uv2_offset = Vector3( 0, 0, 0 )
uv2_triplanar = false
uv2_triplanar_sharpness = 1.0
proximity_fade_enable = false
distance_fade_mode = 0
_sections_unfolded = [ "Albedo", "NormalMap", "Roughness" ]

[sub_resource type="ArrayMesh" id=18]

blend_shape_mode = 1
custom_aabb = AABB( 0, 0, 0, 0, 0, 0 )
surfaces/0 = {
"aabb": AABB( -0.625, -1, -1, 1.25, 0.625, 2 ),
"array_data": PoolByteArray( 0, 0, 32, 191, 0, 0, 0, 191, 0, 0, 0, 0, 129, 0, 0, 0, 0, 127, 0, 127, 104, 59, 182, 57, 0, 0, 32, 191, 0, 0, 192, 190, 0, 0, 128, 191, 129, 0, 0, 0, 0, 127, 0, 127, 180, 59, 0, 60, 0, 0, 32, 191, 0, 0, 192, 190, 0, 0, 0, 0, 129, 0, 0, 0, 0, 127, 0, 127, 180, 59, 182, 57, 0, 0, 0, 0, 0, 0, 0, 191, 0, 0, 128, 191, 0, 0, 129, 0, 0, 127, 0, 127, 28, 59, 0, 52, 0, 0, 32, 63, 0, 0, 192, 190, 0, 0, 128, 191, 0, 0, 129, 0, 0, 127, 0, 127, 104, 59, 219, 54, 0, 0, 0, 0, 0, 0, 192, 190, 0, 0, 128, 191, 0, 0, 129, 0, 0, 127, 0, 127, 104, 59, 0, 52, 0, 0, 32, 63, 0, 0, 0, 191, 0, 0, 0, 0, 127, 0, 0, 0, 0, 129, 0, 127, 104, 59, 182, 57, 0, 0, 32, 63, 0, 0, 192, 190, 0, 0, 128, 63, 127, 0, 0, 0, 0, 129, 0, 127, 28, 59, 219, 54, 0, 0, 32, 63, 0, 0, 192, 190, 0, 0, 0, 0, 127, 0, 0, 0, 0, 129, 0, 127, 28, 59, 182, 57, 0, 0, 0, 0, 0, 0, 0, 191, 0, 0, 128, 63, 0, 0, 127, 0, 0, 129, 0, 127, 180, 59, 0, 52, 0, 0, 32, 191, 0, 0, 192, 190, 0, 0, 128, 63, 0, 0, 127, 0, 0, 129, 0, 127, 104, 59, 146, 44, 0, 0, 0, 0, 0, 0, 192, 190, 0, 0, 128, 63, 0, 0, 127, 0, 0, 129, 0, 127, 104, 59, 0, 52, 0, 0, 32, 63, 0, 0, 192, 190, 0, 0, 0, 0, 0, 127, 0, 0, 127, 0, 0, 127, 237, 57, 182, 57, 0, 0, 0, 0, 0, 0, 192, 190, 0, 0, 128, 63, 0, 127, 0, 0, 127, 0, 0, 127, 113, 56, 219, 54, 0, 0, 0, 0, 0, 0, 192, 190, 0, 0, 0, 0, 0, 127, 0, 0, 127, 0, 0, 127, 113, 56, 182, 57, 0, 0, 192, 62, 0, 0, 128, 191, 0, 0, 0, 62, 0, 129, 0, 0, 127, 0, 0, 127, 0, 0, 0, 0, 0, 0, 0, 63, 0, 0, 128, 191, 0, 0, 96, 63, 0, 129, 0, 0, 127, 0, 0, 127, 189, 40, 219, 50, 0, 0, 0, 63, 0, 0, 128, 191, 0, 0, 0, 62, 0, 129, 0, 0, 127, 0, 0, 127, 189, 40, 0, 0, 0, 0, 192, 62, 0, 0, 128, 191, 0, 0, 96, 191, 0, 129, 0, 0, 127, 0, 0, 127, 180, 59, 146, 56, 0, 0, 0, 63, 0, 0, 128, 191, 0, 0, 0, 190, 0, 129, 0, 0, 127, 0, 0, 127, 0, 60, 73, 58, 0, 0, 0, 63, 0, 0, 128, 191, 0, 0, 96, 191, 0, 129, 0, 0, 127, 0, 0, 127, 0, 60, 146, 56, 0, 0, 32, 63, 0, 0, 192, 190, 0, 0, 128, 191, 0, 127, 0, 0, 127, 0, 0, 127, 237, 57, 0, 60, 0, 0, 0, 0, 0, 0, 192, 190, 0, 0, 128, 191, 0, 127, 0, 0, 127, 0, 0, 127, 113, 56, 0, 60, 0, 0, 32, 63, 0, 0, 0, 191, 0, 0, 128, 191, 127, 0, 0, 0, 0, 129, 0, 127, 104, 59, 0, 60, 0, 0, 32, 63, 0, 0, 192, 190, 0, 0, 128, 191, 127, 0, 0, 0, 0, 129, 0, 127, 28, 59, 0, 60, 0, 0, 32, 191, 0, 0, 0, 191, 0, 0, 128, 63, 129, 0, 0, 0, 0, 127, 0, 127, 104, 59, 219, 54, 0, 0, 32, 191, 0, 0, 192, 190, 0, 0, 128, 63, 129, 0, 0, 0, 0, 127, 0, 127, 180, 59, 219, 54, 0, 0, 32, 191, 0, 0, 192, 190, 0, 0, 0, 0, 0, 127, 0, 0, 127, 0, 0, 127, 237, 53, 182, 57, 0, 0, 32, 191, 0, 0, 192, 190, 0, 0, 128, 191, 0, 127, 0, 0, 127, 0, 0, 127, 237, 53, 0, 60, 0, 0, 0, 191, 0, 0, 128, 191, 0, 0, 96, 191, 0, 129, 0, 0, 127, 0, 0, 127, 180, 59, 219, 50, 0, 0, 192, 190, 0, 0, 128, 191, 0, 0, 0, 190, 0, 129, 0, 0, 127, 0, 0, 127, 0, 60, 219, 54, 0, 0, 192, 190, 0, 0, 128, 191, 0, 0, 96, 191, 0, 129, 0, 0, 127, 0, 0, 127, 0, 60, 219, 50, 0, 0, 0, 191, 0, 0, 128, 191, 0, 0, 0, 62, 0, 129, 0, 0, 129, 0, 0, 127, 0, 60, 0, 60, 0, 0, 192, 190, 0, 0, 128, 191, 0, 0, 96, 63, 0, 129, 0, 0, 129, 0, 0, 127, 180, 59, 73, 58, 0, 0, 192, 190, 0, 0, 128, 191, 0, 0, 0, 62, 0, 129, 0, 0, 129, 0, 0, 127, 180, 59, 0, 60, 0, 0, 32, 191, 0, 0, 192, 190, 0, 0, 128, 63, 0, 127, 0, 0, 127, 0, 0, 127, 237, 53, 219, 54, 0, 0, 32, 63, 0, 0, 0, 191, 0, 0, 128, 63, 0, 0, 127, 0, 0, 129, 0, 127, 180, 59, 219, 54, 0, 0, 32, 63, 0, 0, 192, 190, 0, 0, 128, 63, 0, 0, 127, 0, 0, 129, 0, 127, 104, 59, 219, 54, 0, 0, 32, 191, 0, 0, 0, 191, 0, 0, 128, 191, 0, 0, 129, 0, 0, 127, 0, 127, 28, 59, 146, 44, 0, 0, 32, 191, 0, 0, 192, 190, 0, 0, 128, 191, 0, 0, 129, 0, 0, 127, 0, 127, 104, 59, 146, 44, 0, 0, 0, 63, 0, 0, 0, 191, 0, 0, 96, 191, 127, 0, 0, 0, 0, 129, 0, 127, 237, 57, 73, 58, 0, 0, 0, 63, 0, 0, 128, 191, 0, 0, 0, 190, 127, 0, 0, 0, 0, 129, 0, 127, 28, 59, 146, 56, 0, 0, 0, 63, 0, 0, 0, 191, 0, 0, 0, 190, 127, 0, 0, 0, 0, 129, 0, 127, 237, 57, 146, 56, 0, 0, 192, 190, 0, 0, 0, 191, 0, 0, 0, 62, 0, 129, 0, 0, 126, 0, 0, 127, 189, 44, 0, 58, 0, 0, 32, 191, 0, 0, 0, 191, 0, 0, 0, 0, 0, 129, 0, 0, 127, 0, 0, 127, 0, 0, 182, 57, 0, 0, 0, 191, 0, 0, 0, 191, 0, 0, 0, 62, 0, 129, 0, 0, 127, 0, 0, 127, 189, 40, 0, 58, 0, 0, 0, 191, 0, 0, 0, 191, 0, 0, 96, 63, 0, 129, 0, 0, 126, 0, 0, 127, 189, 40, 182, 59, 0, 0, 32, 191, 0, 0, 0, 191, 0, 0, 128, 63, 0, 129, 0, 0, 127, 0, 0, 127, 0, 0, 0, 60, 0, 0, 192, 190, 0, 0, 0, 191, 0, 0, 96, 63, 0, 129, 0, 0, 126, 0, 0, 127, 189, 44, 182, 59, 0, 0, 0, 0, 0, 0, 0, 191, 0, 0, 128, 63, 0, 129, 0, 0, 127, 0, 0, 127, 237, 49, 0, 60, 0, 0, 0, 0, 0, 0, 0, 191, 0, 0, 0, 0, 0, 129, 0, 0, 127, 0, 0, 127, 237, 49, 182, 57, 0, 0, 0, 63, 0, 0, 0, 191, 0, 0, 96, 63, 0, 0, 127, 0, 127, 0, 0, 127, 28, 47, 219, 50, 0, 0, 192, 62, 0, 0, 128, 191, 0, 0, 96, 63, 0, 0, 127, 0, 127, 0, 0, 127, 189, 44, 146, 44, 0, 0, 192, 62, 0, 0, 0, 191, 0, 0, 96, 63, 0, 0, 127, 0, 127, 0, 0, 127, 189, 44, 219, 50, 0, 0, 192, 190, 0, 0, 0, 191, 0, 0, 96, 191, 0, 129, 0, 0, 126, 0, 0, 127, 189, 44, 109, 55, 0, 0, 32, 191, 0, 0, 0, 191, 0, 0, 128, 191, 0, 129, 0, 0, 127, 0, 0, 127, 0, 0, 219, 54, 0, 0, 0, 191, 0, 0, 0, 191, 0, 0, 96, 191, 0, 129, 0, 0, 127, 0, 0, 127, 189, 40, 109, 55, 0, 0, 0, 191, 0, 0, 0, 191, 0, 0, 0, 190, 0, 129, 0, 0, 126, 0, 0, 127, 189, 40, 109, 57, 0, 0, 192, 190, 0, 0, 0, 191, 0, 0, 0, 190, 0, 129, 0, 0, 126, 0, 0, 127, 189, 44, 109, 57, 0, 0, 0, 0, 0, 0, 0, 191, 0, 0, 128, 191, 0, 129, 0, 0, 127, 0, 0, 127, 237, 49, 219, 54, 0, 0, 192, 190, 0, 0, 0, 191, 0, 0, 96, 191, 127, 0, 0, 0, 0, 129, 0, 127, 237, 57, 219, 54, 0, 0, 192, 190, 0, 0, 128, 191, 0, 0, 0, 190, 127, 0, 0, 0, 0, 129, 0, 127, 28, 59, 219, 50, 0, 0, 192, 190, 0, 0, 0, 191, 0, 0, 0, 190, 127, 0, 0, 0, 0, 129, 0, 127, 237, 57, 219, 50, 0, 0, 192, 62, 0, 0, 0, 191, 0, 0, 96, 191, 0, 129, 0, 0, 126, 0, 0, 127, 189, 52, 109, 55, 0, 0, 32, 63, 0, 0, 0, 191, 0, 0, 128, 191, 0, 129, 0, 0, 127, 0, 0, 127, 237, 53, 219, 54, 0, 0, 192, 62, 0, 0, 0, 191, 0, 0, 0, 190, 0, 129, 0, 0, 126, 0, 0, 127, 189, 52, 109, 57, 0, 0, 32, 63, 0, 0, 0, 191, 0, 0, 0, 0, 0, 129, 0, 0, 127, 0, 0, 127, 237, 53, 182, 57, 0, 0, 0, 63, 0, 0, 0, 191, 0, 0, 0, 190, 0, 129, 0, 0, 127, 0, 0, 127, 85, 53, 109, 57, 0, 0, 0, 63, 0, 0, 0, 191, 0, 0, 96, 191, 0, 129, 0, 0, 126, 0, 0, 127, 85, 53, 109, 55, 0, 0, 0, 63, 0, 0, 0, 191, 0, 0, 0, 190, 0, 0, 127, 0, 127, 0, 0, 127, 189, 44, 219, 50, 0, 0, 192, 62, 0, 0, 128, 191, 0, 0, 0, 190, 0, 0, 127, 0, 127, 0, 0, 127, 189, 40, 146, 44, 0, 0, 192, 62, 0, 0, 0, 191, 0, 0, 0, 190, 0, 0, 127, 0, 127, 0, 0, 127, 189, 40, 219, 50, 0, 0, 192, 62, 0, 0, 0, 191, 0, 0, 0, 62, 0, 129, 0, 0, 126, 0, 0, 127, 189, 52, 0, 58, 0, 0, 192, 62, 0, 0, 0, 191, 0, 0, 96, 63, 0, 129, 0, 0, 126, 0, 0, 127, 189, 52, 182, 59, 0, 0, 32, 63, 0, 0, 0, 191, 0, 0, 128, 63, 0, 129, 0, 0, 127, 0, 0, 127, 237, 53, 0, 60, 0, 0, 0, 63, 0, 0, 0, 191, 0, 0, 96, 63, 0, 129, 0, 0, 127, 0, 0, 127, 85, 53, 182, 59, 0, 0, 0, 63, 0, 0, 0, 191, 0, 0, 0, 62, 0, 129, 0, 0, 126, 0, 0, 127, 85, 53, 0, 58, 0, 0, 0, 63, 0, 0, 0, 191, 0, 0, 0, 62, 127, 0, 0, 0, 0, 129, 0, 127, 189, 52, 219, 54, 0, 0, 0, 63, 0, 0, 128, 191, 0, 0, 96, 63, 127, 0, 0, 0, 0, 129, 0, 127, 28, 55, 219, 50, 0, 0, 0, 63, 0, 0, 0, 191, 0, 0, 96, 63, 127, 0, 0, 0, 0, 129, 0, 127, 189, 52, 219, 50, 0, 0, 0, 191, 0, 0, 0, 191, 0, 0, 0, 62, 0, 0, 129, 0, 129, 0, 0, 127, 237, 49, 219, 50, 0, 0, 192, 190, 0, 0, 128, 191, 0, 0, 0, 62, 0, 0, 129, 0, 129, 0, 0, 127, 189, 48, 146, 44, 0, 0, 192, 190, 0, 0, 0, 191, 0, 0, 0, 62, 0, 0, 129, 0, 129, 0, 0, 127, 189, 48, 219, 50, 0, 0, 0, 191, 0, 0, 0, 191, 0, 0, 96, 191, 0, 0, 129, 0, 129, 0, 0, 127, 189, 48, 219, 50, 0, 0, 192, 190, 0, 0, 128, 191, 0, 0, 96, 191, 0, 0, 129, 0, 129, 0, 0, 127, 28, 47, 146, 44, 0, 0, 192, 190, 0, 0, 0, 191, 0, 0, 96, 191, 0, 0, 129, 0, 129, 0, 0, 127, 28, 47, 219, 50, 0, 0, 0, 191, 0, 0, 0, 191, 0, 0, 96, 63, 129, 0, 0, 0, 0, 129, 0, 127, 189, 56, 219, 54, 0, 0, 0, 191, 0, 0, 128, 191, 0, 0, 0, 62, 129, 0, 0, 0, 0, 129, 0, 127, 237, 57, 219, 50, 0, 0, 0, 191, 0, 0, 0, 191, 0, 0, 0, 62, 129, 0, 0, 0, 0, 129, 0, 127, 189, 56, 219, 50, 0, 0, 192, 62, 0, 0, 0, 191, 0, 0, 96, 191, 0, 0, 129, 0, 129, 0, 0, 127, 208, 58, 146, 56, 0, 0, 0, 63, 0, 0, 128, 191, 0, 0, 96, 191, 0, 0, 129, 0, 129, 0, 0, 127, 132, 58, 219, 54, 0, 0, 0, 63, 0, 0, 0, 191, 0, 0, 96, 191, 0, 0, 129, 0, 129, 0, 0, 127, 132, 58, 146, 56, 0, 0, 0, 191, 0, 0, 0, 191, 0, 0, 0, 190, 129, 0, 0, 0, 0, 129, 0, 127, 28, 55, 219, 54, 0, 0, 0, 191, 0, 0, 128, 191, 0, 0, 96, 191, 129, 0, 0, 0, 0, 129, 0, 127, 189, 56, 219, 50, 0, 0, 0, 191, 0, 0, 0, 191, 0, 0, 96, 191, 129, 0, 0, 0, 0, 129, 0, 127, 28, 55, 219, 50, 0, 0, 192, 62, 0, 0, 0, 191, 0, 0, 0, 62, 0, 0, 129, 0, 129, 0, 0, 127, 132, 58, 146, 56, 0, 0, 0, 63, 0, 0, 128, 191, 0, 0, 0, 62, 0, 0, 129, 0, 129, 0, 0, 127, 56, 58, 219, 54, 0, 0, 0, 63, 0, 0, 0, 191, 0, 0, 0, 62, 0, 0, 129, 0, 129, 0, 0, 127, 56, 58, 146, 56, 0, 0, 192, 190, 0, 0, 0, 191, 0, 0, 96, 63, 0, 0, 127, 0, 127, 0, 0, 127, 28, 51, 219, 50, 0, 0, 0, 191, 0, 0, 128, 191, 0, 0, 96, 63, 0, 0, 127, 0, 127, 0, 0, 127, 237, 49, 146, 44, 0, 0, 0, 191, 0, 0, 0, 191, 0, 0, 96, 63, 0, 0, 127, 0, 127, 0, 0, 127, 237, 49, 219, 50, 0, 0, 192, 62, 0, 0, 0, 191, 0, 0, 0, 190, 129, 0, 0, 0, 0, 129, 0, 127, 189, 48, 219, 54, 0, 0, 192, 62, 0, 0, 128, 191, 0, 0, 96, 191, 129, 0, 0, 0, 0, 129, 0, 127, 189, 52, 219, 50, 0, 0, 192, 62, 0, 0, 0, 191, 0, 0, 96, 191, 129, 0, 0, 0, 0, 129, 0, 127, 189, 48, 219, 50, 0, 0, 192, 190, 0, 0, 0, 191, 0, 0, 0, 190, 0, 0, 127, 0, 127, 0, 0, 127, 56, 58, 146, 56, 0, 0, 0, 191, 0, 0, 128, 191, 0, 0, 0, 190, 0, 0, 127, 0, 127, 0, 0, 127, 237, 57, 219, 54, 0, 0, 0, 191, 0, 0, 0, 191, 0, 0, 0, 190, 0, 0, 127, 0, 127, 0, 0, 127, 237, 57, 146, 56, 0, 0, 192, 62, 0, 0, 0, 191, 0, 0, 96, 63, 129, 0, 0, 0, 0, 129, 0, 127, 0, 0, 219, 54, 0, 0, 192, 62, 0, 0, 128, 191, 0, 0, 0, 62, 129, 0, 0, 0, 0, 129, 0, 127, 189, 48, 219, 50, 0, 0, 192, 62, 0, 0, 0, 191, 0, 0, 0, 62, 129, 0, 0, 0, 0, 129, 0, 127, 0, 0, 219, 50, 0, 0, 192, 190, 0, 0, 0, 191, 0, 0, 0, 62, 127, 0, 0, 0, 0, 129, 0, 127, 237, 57, 0, 60, 0, 0, 192, 190, 0, 0, 128, 191, 0, 0, 96, 63, 127, 0, 0, 0, 0, 129, 0, 127, 28, 59, 73, 58, 0, 0, 192, 190, 0, 0, 0, 191, 0, 0, 96, 63, 127, 0, 0, 0, 0, 129, 0, 127, 237, 57, 73, 58, 0, 0, 32, 191, 0, 0, 0, 191, 0, 0, 128, 191, 129, 0, 0, 0, 0, 127, 0, 127, 104, 59, 0, 60, 0, 0, 32, 63, 0, 0, 0, 191, 0, 0, 128, 191, 0, 0, 129, 0, 0, 127, 0, 127, 28, 59, 219, 54, 0, 0, 32, 63, 0, 0, 0, 191, 0, 0, 128, 63, 127, 0, 0, 0, 0, 129, 0, 127, 104, 59, 219, 54, 0, 0, 32, 191, 0, 0, 0, 191, 0, 0, 128, 63, 0, 0, 127, 0, 0, 129, 0, 127, 180, 59, 146, 44, 0, 0, 32, 63, 0, 0, 192, 190, 0, 0, 128, 63, 0, 127, 0, 0, 127, 0, 0, 127, 237, 57, 219, 54, 0, 0, 192, 62, 0, 0, 128, 191, 0, 0, 96, 63, 0, 129, 0, 0, 127, 0, 0, 127, 0, 0, 219, 50, 0, 0, 192, 62, 0, 0, 128, 191, 0, 0, 0, 190, 0, 129, 0, 0, 127, 0, 0, 127, 180, 59, 73, 58, 0, 0, 0, 191, 0, 0, 128, 191, 0, 0, 0, 190, 0, 129, 0, 0, 127, 0, 0, 127, 180, 59, 219, 54, 0, 0, 0, 191, 0, 0, 128, 191, 0, 0, 96, 63, 0, 129, 0, 0, 129, 0, 0, 127, 0, 60, 73, 58, 0, 0, 0, 63, 0, 0, 128, 191, 0, 0, 96, 191, 127, 0, 0, 0, 0, 129, 0, 127, 28, 59, 73, 58, 0, 0, 0, 63, 0, 0, 128, 191, 0, 0, 96, 63, 0, 0, 127, 0, 127, 0, 0, 127, 28, 47, 146, 44, 0, 0, 192, 190, 0, 0, 128, 191, 0, 0, 96, 191, 127, 0, 0, 0, 0, 129, 0, 127, 28, 59, 219, 54, 0, 0, 0, 63, 0, 0, 128, 191, 0, 0, 0, 190, 0, 0, 127, 0, 127, 0, 0, 127, 189, 44, 146, 44, 0, 0, 0, 63, 0, 0, 128, 191, 0, 0, 0, 62, 127, 0, 0, 0, 0, 129, 0, 127, 28, 55, 219, 54, 0, 0, 0, 191, 0, 0, 128, 191, 0, 0, 0, 62, 0, 0, 129, 0, 129, 0, 0, 127, 237, 49, 146, 44, 0, 0, 0, 191, 0, 0, 128, 191, 0, 0, 96, 191, 0, 0, 129, 0, 129, 0, 0, 127, 189, 48, 146, 44, 0, 0, 0, 191, 0, 0, 128, 191, 0, 0, 96, 63, 129, 0, 0, 0, 0, 129, 0, 127, 237, 57, 219, 54, 0, 0, 192, 62, 0, 0, 128, 191, 0, 0, 96, 191, 0, 0, 129, 0, 129, 0, 0, 127, 208, 58, 219, 54, 0, 0, 0, 191, 0, 0, 128, 191, 0, 0, 0, 190, 129, 0, 0, 0, 0, 129, 0, 127, 189, 56, 219, 54, 0, 0, 192, 62, 0, 0, 128, 191, 0, 0, 0, 62, 0, 0, 129, 0, 129, 0, 0, 127, 132, 58, 219, 54, 0, 0, 192, 190, 0, 0, 128, 191, 0, 0, 96, 63, 0, 0, 127, 0, 127, 0, 0, 127, 28, 51, 146, 44, 0, 0, 192, 62, 0, 0, 128, 191, 0, 0, 0, 190, 129, 0, 0, 0, 0, 129, 0, 127, 189, 52, 219, 54, 0, 0, 192, 190, 0, 0, 128, 191, 0, 0, 0, 190, 0, 0, 127, 0, 127, 0, 0, 127, 56, 58, 219, 54, 0, 0, 192, 62, 0, 0, 128, 191, 0, 0, 96, 63, 129, 0, 0, 0, 0, 129, 0, 127, 189, 48, 219, 54, 0, 0, 192, 190, 0, 0, 128, 191, 0, 0, 0, 62, 127, 0, 0, 0, 0, 129, 0, 127, 28, 59, 0, 60 ),
"array_index_data": PoolByteArray( 0, 0, 1, 0, 2, 0, 3, 0, 4, 0, 5, 0, 6, 0, 7, 0, 8, 0, 9, 0, 10, 0, 11, 0, 12, 0, 13, 0, 14, 0, 15, 0, 16, 0, 17, 0, 18, 0, 19, 0, 20, 0, 21, 0, 14, 0, 22, 0, 23, 0, 8, 0, 24, 0, 25, 0, 2, 0, 26, 0, 22, 0, 27, 0, 28, 0, 29, 0, 30, 0, 31, 0, 32, 0, 33, 0, 34, 0, 14, 0, 35, 0, 27, 0, 36, 0, 11, 0, 37, 0, 38, 0, 5, 0, 39, 0, 40, 0, 41, 0, 42, 0, 43, 0, 44, 0, 45, 0, 46, 0, 44, 0, 47, 0, 48, 0, 47, 0, 49, 0, 43, 0, 49, 0, 50, 0, 51, 0, 52, 0, 53, 0, 54, 0, 55, 0, 56, 0, 57, 0, 55, 0, 44, 0, 58, 0, 44, 0, 50, 0, 54, 0, 50, 0, 59, 0, 60, 0, 61, 0, 62, 0, 63, 0, 64, 0, 59, 0, 65, 0, 59, 0, 50, 0, 65, 0, 66, 0, 67, 0, 68, 0, 66, 0, 64, 0, 69, 0, 70, 0, 71, 0, 72, 0, 66, 0, 50, 0, 73, 0, 50, 0, 49, 0, 73, 0, 74, 0, 75, 0, 76, 0, 74, 0, 66, 0, 77, 0, 78, 0, 79, 0, 80, 0, 81, 0, 82, 0, 83, 0, 84, 0, 85, 0, 86, 0, 87, 0, 88, 0, 89, 0, 90, 0, 91, 0, 92, 0, 93, 0, 94, 0, 95, 0, 96, 0, 97, 0, 98, 0, 99, 0, 100, 0, 101, 0, 102, 0, 103, 0, 104, 0, 105, 0, 106, 0, 107, 0, 108, 0, 109, 0, 110, 0, 111, 0, 112, 0, 113, 0, 1, 0, 0, 0, 114, 0, 4, 0, 3, 0, 115, 0, 7, 0, 6, 0, 116, 0, 10, 0, 9, 0, 117, 0, 13, 0, 12, 0, 118, 0, 16, 0, 15, 0, 119, 0, 19, 0, 18, 0, 12, 0, 14, 0, 21, 0, 6, 0, 8, 0, 23, 0, 0, 0, 2, 0, 25, 0, 14, 0, 27, 0, 22, 0, 120, 0, 30, 0, 29, 0, 121, 0, 33, 0, 32, 0, 13, 0, 35, 0, 14, 0, 9, 0, 11, 0, 36, 0, 3, 0, 5, 0, 38, 0, 122, 0, 41, 0, 40, 0, 50, 0, 44, 0, 43, 0, 45, 0, 44, 0, 46, 0, 46, 0, 47, 0, 48, 0, 48, 0, 49, 0, 43, 0, 123, 0, 52, 0, 51, 0, 59, 0, 55, 0, 54, 0, 56, 0, 55, 0, 57, 0, 57, 0, 44, 0, 58, 0, 58, 0, 50, 0, 54, 0, 124, 0, 61, 0, 60, 0, 68, 0, 64, 0, 63, 0, 63, 0, 59, 0, 65, 0, 50, 0, 66, 0, 65, 0, 67, 0, 66, 0, 68, 0, 125, 0, 70, 0, 69, 0, 76, 0, 66, 0, 72, 0, 72, 0, 50, 0, 73, 0, 49, 0, 74, 0, 73, 0, 75, 0, 74, 0, 76, 0, 126, 0, 78, 0, 77, 0, 127, 0, 81, 0, 80, 0, 128, 0, 84, 0, 83, 0, 129, 0, 87, 0, 86, 0, 130, 0, 90, 0, 89, 0, 131, 0, 93, 0, 92, 0, 132, 0, 96, 0, 95, 0, 133, 0, 99, 0, 98, 0, 134, 0, 102, 0, 101, 0, 135, 0, 105, 0, 104, 0, 136, 0, 108, 0, 107, 0, 137, 0, 111, 0, 110, 0 ),
"blend_shape_data": [  ],
"format": 97559,
"index_count": 288,
"material": SubResource( 17 ),
"primitive": 4,
"skeleton_aabb": [  ],
"vertex_count": 138
}
_sections_unfolded = [ "surface_1" ]

[sub_resource type="BoxShape" id=22]

margin = 0.04
extents = Vector3( 0.625, 0.313, 1 )

[node name="MeshLibrary" type="Spatial"]

[node name="TestLight" type="DirectionalLight" parent="."]
transform = Transform( 0.286789, 0.461041, -0.839758, -0.409576, 0.851435, 0.327576, 0.866025, 0.25, 0.433013, 6, 2, 0 )
layers = 1
light_color = Color( 1, 1, 1, 1 )
light_energy = 1.0
light_indirect_energy = 1.0
light_negative = false
light_specular = 0.5
light_bake_mode = 1
light_cull_mask = -1
shadow_enabled = false
shadow_color = Color( 0, 0, 0, 1 )
shadow_bias = 0.1
shadow_contact = 0.0
shadow_reverse_cull_face = false
editor_only = false
directional_shadow_mode = 2
directional_shadow_split_1 = 0.1
directional_shadow_split_2 = 0.2
directional_shadow_split_3 = 0.5
directional_shadow_blend_splits = false
directional_shadow_normal_bias = 0.8
directional_shadow_bias_split_scale = 0.25
directional_shadow_depth_range = 0
directional_shadow_max_distance = 200.0

[node name="GBrick" type="MeshInstance" parent="."]
visible = false
layers = 1
material_override = null
cast_shadow = 1
extra_cull_margin = 0.0
use_in_baked_light = false
lod_min_distance = 0.0
lod_min_hysteresis = 0.0
lod_max_distance = 0.0
lod_max_hysteresis = 0.0
mesh = SubResource( 2 )
skeleton = NodePath("..")
material/0 = null
_sections_unfolded = [ "material" ]

[node name="StaticBody" type="StaticBody" parent="GBrick"]
input_ray_pickable = true
input_capture_on_drag = false
collision_layer = 1
collision_mask = 1
constant_linear_velocity = Vector3( 0, 0, 0 )
constant_angular_velocity = Vector3( 0, 0, 0 )

[node name="CollisionShape" type="CollisionShape" parent="GBrick/StaticBody"]
transform = Transform( 1, 0, 0, 0, 1, 0, 0, 0, 1, 0, 7, 0 )
shape = SubResource( 3 )
disabled = false
_sections_unfolded = [ "Transform", "shape" ]

[node name="GFloor" type="MeshInstance" parent="."]
visible = false
layers = 1
material_override = null
cast_shadow = 1
extra_cull_margin = 0.0
use_in_baked_light = false
lod_min_distance = 0.0
lod_min_hysteresis = 0.0
lod_max_distance = 0.0
lod_max_hysteresis = 0.0
mesh = SubResource( 5 )
skeleton = NodePath("..")
material/0 = null
_sections_unfolded = [ "material" ]

[node name="StaticBody" type="StaticBody" parent="GFloor"]
input_ray_pickable = true
input_capture_on_drag = false
collision_layer = 1
collision_mask = 1
constant_linear_velocity = Vector3( 0, 0, 0 )
constant_angular_velocity = Vector3( 0, 0, 0 )
_sections_unfolded = [ "Collision" ]

[node name="CollisionShape" type="CollisionShape" parent="GFloor/StaticBody"]
shape = SubResource( 20 )
disabled = false
_sections_unfolded = [ "shape" ]

[node name="GColumn" type="MeshInstance" parent="."]
visible = false
layers = 1
material_override = null
cast_shadow = 1
extra_cull_margin = 0.0
use_in_baked_light = false
lod_min_distance = 0.0
lod_min_hysteresis = 0.0
lod_max_distance = 0.0
lod_max_hysteresis = 0.0
mesh = SubResource( 8 )
skeleton = NodePath("..")
material/0 = null
_sections_unfolded = [ "material" ]

[node name="StaticBody" type="StaticBody" parent="GColumn"]
input_ray_pickable = true
input_capture_on_drag = false
collision_layer = 1
collision_mask = 1
constant_linear_velocity = Vector3( 0, 0, 0 )
constant_angular_velocity = Vector3( 0, 0, 0 )

[node name="CollisionShape" type="CollisionShape" parent="GColumn/StaticBody"]
shape = SubResource( 9 )
disabled = false
_sections_unfolded = [ "shape" ]

[node name="CollisionShape2" type="CollisionShape" parent="GColumn/StaticBody"]
transform = Transform( 1, 0, 0, 0, 1, 0, 0, 0, 1, 0, 7.875, 0 )
shape = SubResource( 10 )
disabled = false
_sections_unfolded = [ "Transform", "shape" ]

[node name="CollisionShape3" type="CollisionShape" parent="GColumn/StaticBody"]
transform = Transform( 1, 0, 0, 0, 1, 0, 0, 0, 1, 0, -0.875, 0 )
shape = SubResource( 11 )
disabled = false
_sections_unfolded = [ "Transform", "shape" ]

[node name="GStairs" type="MeshInstance" parent="."]
visible = false
layers = 1
material_override = null
cast_shadow = 1
extra_cull_margin = 0.0
use_in_baked_light = false
lod_min_distance = 0.0
lod_min_hysteresis = 0.0
lod_max_distance = 0.0
lod_max_hysteresis = 0.0
mesh = SubResource( 13 )
skeleton = NodePath("..")
material/0 = null

[node name="StaticBody" type="StaticBody" parent="GStairs"]
input_ray_pickable = true
input_capture_on_drag = false
collision_layer = 1
collision_mask = 1
constant_linear_velocity = Vector3( 0, 0, 0 )
constant_angular_velocity = Vector3( 0, 0, 0 )
_sections_unfolded = [ "Collision" ]

[node name="CollisionShape" type="CollisionShape" parent="GStairs/StaticBody"]
shape = SubResource( 14 )
disabled = false

[node name="MBars" type="MeshInstance" parent="."]
visible = false
layers = 1
material_override = null
cast_shadow = 1
extra_cull_margin = 0.0
use_in_baked_light = false
lod_min_distance = 0.0
lod_min_hysteresis = 0.0
lod_max_distance = 0.0
lod_max_hysteresis = 0.0
mesh = SubResource( 16 )
skeleton = NodePath("..")
material/0 = null
_sections_unfolded = [ "Transform", "material" ]

[node name="StaticBody" type="StaticBody" parent="MBars"]
input_ray_pickable = true
input_capture_on_drag = false
collision_layer = 1
collision_mask = 1
constant_linear_velocity = Vector3( 0, 0, 0 )
constant_angular_velocity = Vector3( 0, 0, 0 )
_sections_unfolded = [ "Collision", "Transform" ]

[node name="CollisionShape" type="CollisionShape" parent="MBars/StaticBody"]
transform = Transform( 1, 0, 0, 0, 1, 0, 0, 0, 1, 0, 7, 0 )
shape = SubResource( 21 )
disabled = false
_sections_unfolded = [ "Transform", "shape" ]

[node name="GBench" type="MeshInstance" parent="."]
layers = 1
material_override = null
cast_shadow = 1
extra_cull_margin = 0.0
use_in_baked_light = false
lod_min_distance = 0.0
lod_min_hysteresis = 0.0
lod_max_distance = 0.0
lod_max_hysteresis = 0.0
mesh = SubResource( 18 )
skeleton = NodePath("..")
material/0 = null
_sections_unfolded = [ "material" ]

[node name="StaticBody" type="StaticBody" parent="GBench"]
input_ray_pickable = true
input_capture_on_drag = false
collision_layer = 1
collision_mask = 1
constant_linear_velocity = Vector3( 0, 0, 0 )
constant_angular_velocity = Vector3( 0, 0, 0 )
_sections_unfolded = [ "Collision" ]

[node name="CollisionShape" type="CollisionShape" parent="GBench/StaticBody"]
transform = Transform( 1, 0, 0, 0, 1, 0, 0, 0, 1, 0, -0.688, 0 )
shape = SubResource( 22 )
disabled = false
_sections_unfolded = [ "Transform", "shape" ]

