# Blender v2.79 (sub 0) OBJ File: 'coin.blend'
# www.blender.org
v 0.103528 0.386370 -0.056250
v 0.000000 0.500000 -0.087500
v 0.000000 0.500000 0.087500
v 0.129410 0.482963 -0.087500
v 0.129410 0.482963 0.087500
v 0.250000 0.433013 -0.087500
v 0.250000 0.433013 0.087500
v 0.353553 0.353553 -0.087500
v 0.353553 0.353553 0.087500
v 0.433013 0.250000 -0.087500
v 0.433013 0.250000 0.087500
v 0.482963 0.129410 -0.087500
v 0.482963 0.129410 0.087500
v 0.500000 0.000000 -0.087500
v 0.500000 0.000000 0.087500
v 0.482963 -0.129409 -0.087500
v 0.482963 -0.129409 0.087500
v 0.433013 -0.250000 -0.087500
v 0.433013 -0.250000 0.087500
v 0.353553 -0.353553 -0.087500
v 0.353553 -0.353553 0.087500
v 0.250000 -0.433013 -0.087500
v 0.250000 -0.433013 0.087500
v 0.129410 -0.482963 -0.087500
v 0.129410 -0.482963 0.087500
v 0.000000 -0.500000 -0.087500
v 0.000000 -0.500000 0.087500
v -0.129409 -0.482963 -0.087500
v -0.129409 -0.482963 0.087500
v -0.250000 -0.433013 -0.087500
v -0.250000 -0.433013 0.087500
v -0.353553 -0.353554 -0.087500
v -0.353553 -0.353554 0.087500
v -0.433013 -0.250000 -0.087500
v -0.433013 -0.250000 0.087500
v -0.482963 -0.129410 -0.087500
v -0.482963 -0.129410 0.087500
v -0.500000 -0.000000 -0.087500
v -0.500000 -0.000000 0.087500
v -0.482963 0.129409 -0.087500
v -0.482963 0.129409 0.087500
v -0.433013 0.250000 -0.087500
v -0.433013 0.250000 0.087500
v -0.353554 0.353553 -0.087500
v -0.353554 0.353553 0.087500
v -0.250000 0.433013 -0.087500
v -0.250000 0.433013 0.087500
v -0.129410 0.482963 -0.087500
v -0.129410 0.482963 0.087500
v 0.103528 0.386370 -0.087500
v 0.000000 0.400000 -0.087500
v 0.200000 0.346410 -0.087500
v 0.282843 0.282843 -0.087500
v 0.346410 0.200000 -0.087500
v 0.386370 0.103528 -0.087500
v 0.400000 0.000000 -0.087500
v 0.386370 -0.103528 -0.087500
v 0.346410 -0.200000 -0.087500
v 0.282843 -0.282843 -0.087500
v 0.200000 -0.346410 -0.087500
v 0.103528 -0.386370 -0.087500
v 0.000000 -0.400000 -0.087500
v -0.103527 -0.386370 -0.087500
v -0.200000 -0.346410 -0.087500
v -0.282843 -0.282843 -0.087500
v -0.346410 -0.200000 -0.087500
v -0.386370 -0.103528 -0.087500
v -0.400000 -0.000000 -0.087500
v -0.386370 0.103527 -0.087500
v -0.346410 0.200000 -0.087500
v -0.282843 0.282843 -0.087500
v -0.200000 0.346410 -0.087500
v -0.103528 0.386370 -0.087500
v 0.000000 0.400000 0.087500
v 0.103528 0.386370 0.087500
v 0.200000 0.346410 0.087500
v 0.282843 0.282843 0.087500
v 0.346410 0.200000 0.087500
v 0.386370 0.103528 0.087500
v 0.400000 0.000000 0.087500
v 0.386370 -0.103528 0.087500
v 0.346410 -0.200000 0.087500
v 0.282843 -0.282843 0.087500
v 0.200000 -0.346410 0.087500
v 0.103528 -0.386370 0.087500
v 0.000000 -0.400000 0.087500
v -0.103527 -0.386370 0.087500
v -0.200000 -0.346410 0.087500
v -0.282843 -0.282843 0.087500
v -0.346410 -0.200000 0.087500
v -0.386370 -0.103528 0.087500
v -0.400000 -0.000000 0.087500
v -0.386370 0.103527 0.087500
v -0.346410 0.200000 0.087500
v -0.282843 0.282843 0.087500
v -0.200000 0.346410 0.087500
v -0.103528 0.386370 0.087500
v 0.000000 -0.000000 -0.056250
v 0.000000 0.400000 -0.056250
v 0.200000 0.346410 -0.056250
v 0.282843 0.282843 -0.056250
v 0.346410 0.200000 -0.056250
v 0.386370 0.103528 -0.056250
v 0.400000 0.000000 -0.056250
v 0.386370 -0.103528 -0.056250
v 0.346410 -0.200000 -0.056250
v 0.282843 -0.282843 -0.056250
v 0.200000 -0.346410 -0.056250
v 0.103528 -0.386370 -0.056250
v 0.000000 -0.400000 -0.056250
v -0.103527 -0.386370 -0.056250
v -0.200000 -0.346410 -0.056250
v -0.282843 -0.282843 -0.056250
v -0.346410 -0.200000 -0.056250
v -0.386370 -0.103528 -0.056250
v -0.400000 -0.000000 -0.056250
v -0.386370 0.103527 -0.056250
v -0.346410 0.200000 -0.056250
v -0.282843 0.282843 -0.056250
v -0.200000 0.346410 -0.056250
v -0.103528 0.386370 -0.056250
v 0.000000 0.400000 0.056250
v 0.000000 -0.000000 0.056250
v 0.103528 0.386370 0.056250
v 0.200000 0.346410 0.056250
v 0.282843 0.282843 0.056250
v 0.346410 0.200000 0.056250
v 0.386370 0.103528 0.056250
v 0.400000 0.000000 0.056250
v 0.386370 -0.103528 0.056250
v 0.346410 -0.200000 0.056250
v 0.282843 -0.282843 0.056250
v 0.200000 -0.346410 0.056250
v 0.103528 -0.386370 0.056250
v 0.000000 -0.400000 0.056250
v -0.103527 -0.386370 0.056250
v -0.200000 -0.346410 0.056250
v -0.282843 -0.282843 0.056250
v -0.346410 -0.200000 0.056250
v -0.386370 -0.103528 0.056250
v -0.400000 -0.000000 0.056250
v -0.386370 0.103527 0.056250
v -0.346410 0.200000 0.056250
v -0.282843 0.282843 0.056250
v -0.200000 0.346410 0.056250
v -0.103528 0.386370 0.056250
vt 0.166666 0.500000
vt 0.125000 0.500000
vt 0.125000 0.500000
vt 0.166666 0.500000
vt 0.291667 1.000000
vt 0.333333 1.000000
vt 0.333333 1.000000
vt 0.291667 1.000000
vt 1.000000 0.500000
vt 1.000000 1.000000
vt 0.958333 1.000000
vt 0.958333 0.500000
vt 0.291667 0.500000
vt 0.250000 0.500000
vt 0.250000 0.500000
vt 0.291667 0.500000
vt 0.416666 1.000000
vt 0.458333 1.000000
vt 0.458333 1.000000
vt 0.416666 1.000000
vt 0.916667 1.000000
vt 0.916667 0.500000
vt 0.416666 0.500000
vt 0.375000 0.500000
vt 0.375000 0.500000
vt 0.416666 0.500000
vt 0.541666 1.000000
vt 0.583333 1.000000
vt 0.583333 1.000000
vt 0.541666 1.000000
vt 0.875000 1.000000
vt 0.875000 0.500000
vt 0.541666 0.500000
vt 0.500000 0.500000
vt 0.500000 0.500000
vt 0.541666 0.500000
vt 0.666667 1.000000
vt 0.708333 1.000000
vt 0.708333 1.000000
vt 0.666667 1.000000
vt 0.833333 1.000000
vt 0.833333 0.500000
vt 0.666667 0.500000
vt 0.625000 0.500000
vt 0.625000 0.500000
vt 0.666667 0.500000
vt 0.791667 1.000000
vt 0.833333 1.000000
vt 0.791667 1.000000
vt 0.791667 0.500000
vt 0.041666 0.500000
vt -0.000000 0.500000
vt -0.000000 0.500000
vt 0.041666 0.500000
vt 0.958333 1.000000
vt 0.916667 1.000000
vt 0.750000 1.000000
vt 0.750000 0.500000
vt 0.750000 0.500000
vt 0.791667 0.500000
vt 0.125000 1.000000
vt 0.166666 1.000000
vt 0.166666 1.000000
vt 0.125000 1.000000
vt 0.708333 0.500000
vt 0.875000 0.500000
vt 0.916667 0.500000
vt 0.250000 1.000000
vt 0.250000 1.000000
vt 0.083333 0.500000
vt 0.083333 0.500000
vt 0.375000 1.000000
vt 0.375000 1.000000
vt 0.625000 1.000000
vt 0.208333 0.500000
vt 0.208333 0.500000
vt 0.500000 1.000000
vt 0.500000 1.000000
vt 0.583333 0.500000
vt 0.333333 0.500000
vt 0.333333 0.500000
vt 0.625000 1.000000
vt 0.458333 0.500000
vt 0.458333 0.500000
vt 0.750000 1.000000
vt 0.583333 0.500000
vt 0.875000 1.000000
vt 0.708333 0.500000
vt -0.000000 1.000000
vt 0.041666 1.000000
vt 0.041666 1.000000
vt -0.000000 1.000000
vt 0.833333 0.500000
vt 0.083333 1.000000
vt 0.083333 1.000000
vt 0.208333 1.000000
vt 0.208333 1.000000
vt 0.958333 0.500000
vt 1.000000 0.500000
vt 1.000000 1.000000
vt 0.166666 0.500000
vt 0.208333 0.500000
vt 0.791667 0.500000
vt 0.833333 0.500000
vt -0.000000 0.500000
vt 0.041666 0.500000
vt 0.333333 0.500000
vt 0.375000 0.500000
vt 0.958333 0.500000
vt 1.000000 0.500000
vt 0.500000 0.500000
vt 0.541666 0.500000
vt 0.083333 0.500000
vt 0.666667 0.500000
vt 0.708333 0.500000
vt 0.250000 0.500000
vt 0.875000 0.500000
vt 0.416666 0.500000
vt 0.583333 0.500000
vt 0.125000 0.500000
vt 0.750000 0.500000
vt 0.291667 0.500000
vt 0.916667 0.500000
vt 0.458333 0.500000
vt 0.625000 0.500000
vt 0.750000 1.000000
vt 0.708333 1.000000
vt 0.291667 1.000000
vt 0.250000 1.000000
vt 0.916667 1.000000
vt 0.875000 1.000000
vt 0.458333 1.000000
vt 0.416666 1.000000
vt 0.625000 1.000000
vt 0.583333 1.000000
vt 0.166666 1.000000
vt 0.125000 1.000000
vt 0.791667 1.000000
vt 0.333333 1.000000
vt 0.958333 1.000000
vt 0.500000 1.000000
vt 0.666667 1.000000
vt 0.208333 1.000000
vt 0.833333 1.000000
vt 0.041666 1.000000
vt -0.000000 1.000000
vt 0.375000 1.000000
vt 1.000000 1.000000
vt 0.541666 1.000000
vt 0.083333 1.000000
vt 0.750000 0.250000
vt 0.750000 0.490000
vt 0.812117 0.481822
vt 0.870000 0.457846
vt 0.919706 0.419706
vt 0.957846 0.370000
vt 0.981822 0.312117
vt 0.990000 0.250000
vt 0.981822 0.187883
vt 0.957846 0.130000
vt 0.919706 0.080294
vt 0.870000 0.042154
vt 0.812117 0.018178
vt 0.750000 0.010000
vt 0.687884 0.018178
vt 0.630000 0.042154
vt 0.580294 0.080294
vt 0.542154 0.130000
vt 0.518178 0.187883
vt 0.510000 0.250000
vt 0.518178 0.312116
vt 0.542154 0.370000
vt 0.580294 0.419706
vt 0.630000 0.457846
vt 0.687883 0.481822
vt 0.250000 0.250000
vt 0.312117 0.481822
vt 0.250000 0.490000
vt 0.370000 0.457846
vt 0.419706 0.419706
vt 0.457846 0.370000
vt 0.481822 0.312117
vt 0.490000 0.250000
vt 0.481822 0.187883
vt 0.457846 0.130000
vt 0.419706 0.080294
vt 0.370000 0.042154
vt 0.312117 0.018178
vt 0.250000 0.010000
vt 0.187884 0.018178
vt 0.130000 0.042154
vt 0.080294 0.080294
vt 0.042154 0.130000
vt 0.018178 0.187883
vt 0.010000 0.250000
vt 0.018178 0.312116
vt 0.042154 0.370000
vt 0.080294 0.419706
vt 0.130000 0.457846
vt 0.187883 0.481822
vn -0.6359 0.3671 -0.6789
vn -0.5192 0.5192 -0.6789
vn 0.4774 -0.4774 -0.7377
vn 0.5847 -0.3375 -0.7377
vn -0.7092 -0.1900 0.6789
vn -0.6359 -0.3671 0.6789
vn 0.5847 0.3375 0.7377
vn 0.6521 0.1747 0.7377
vn 0.0000 0.7342 -0.6789
vn 0.0000 0.7342 0.6789
vn 0.1900 0.7092 0.6789
vn 0.1900 0.7092 -0.6789
vn -0.7092 -0.1900 -0.6789
vn -0.7342 0.0000 -0.6789
vn 0.6751 0.0000 -0.7377
vn 0.6521 0.1747 -0.7377
vn -0.3671 -0.6359 0.6789
vn -0.1900 -0.7092 0.6789
vn 0.1747 0.6521 0.7377
vn 0.3375 0.5847 0.7377
vn 0.3671 0.6359 0.6789
vn 0.3671 0.6359 -0.6789
vn -0.3671 -0.6359 -0.6789
vn -0.5192 -0.5192 -0.6789
vn 0.4774 0.4774 -0.7377
vn 0.3375 0.5847 -0.7377
vn 0.1900 -0.7092 0.6789
vn 0.3671 -0.6359 0.6789
vn -0.3375 0.5847 0.7377
vn -0.1747 0.6521 0.7377
vn 0.5192 0.5192 0.6789
vn 0.5192 0.5192 -0.6789
vn 0.1900 -0.7092 -0.6789
vn 0.0000 -0.7342 -0.6789
vn 0.0000 0.6751 -0.7377
vn -0.1747 0.6521 -0.7377
vn 0.6359 -0.3671 0.6789
vn 0.7092 -0.1900 0.6789
vn -0.6521 0.1747 0.7377
vn -0.5847 0.3375 0.7377
vn 0.6359 0.3671 0.6789
vn 0.6359 0.3671 -0.6789
vn 0.6359 -0.3671 -0.6789
vn 0.5192 -0.5192 -0.6789
vn -0.4774 0.4774 -0.7377
vn -0.5847 0.3375 -0.7377
vn 0.7092 0.1900 0.6789
vn -0.5847 -0.3375 0.7377
vn -0.6521 -0.1747 0.7377
vn 0.7092 0.1900 -0.6789
vn -0.1900 0.7092 -0.6789
vn 0.0000 -0.6751 -0.7377
vn 0.1747 -0.6521 -0.7377
vn -0.1747 -0.6521 0.7377
vn -0.3375 -0.5847 0.7377
vn 0.7342 0.0000 0.6789
vn 0.7342 0.0000 -0.6789
vn -0.6751 0.0000 -0.7377
vn -0.6521 -0.1747 -0.7377
vn -0.5192 0.5192 0.6789
vn -0.6359 0.3671 0.6789
vn 0.5847 -0.3375 0.7377
vn 0.4774 -0.4774 0.7377
vn 0.7092 -0.1900 -0.6789
vn -0.4774 -0.4774 -0.7377
vn -0.3375 -0.5847 -0.7377
vn -0.7342 0.0000 0.6789
vn 0.6751 0.0000 0.7377
vn -0.3671 0.6359 -0.6789
vn 0.3375 -0.5847 -0.7377
vn -0.5192 -0.5192 0.6789
vn 0.4774 0.4774 0.7377
vn 0.5192 -0.5192 0.6789
vn -0.7092 0.1900 -0.6789
vn 0.6521 -0.1747 -0.7377
vn 0.0000 -0.7342 0.6789
vn 0.0000 0.6751 0.7377
vn 0.3671 -0.6359 -0.6789
vn -0.6359 -0.3671 -0.6789
vn 0.5847 0.3375 -0.7377
vn -0.4774 0.4774 0.7377
vn -0.1900 -0.7092 -0.6789
vn 0.1747 0.6521 -0.7377
vn -0.6751 0.0000 0.7377
vn -0.3375 0.5847 -0.7377
vn -0.4774 -0.4774 0.7377
vn -0.6521 0.1747 -0.7377
vn -0.1900 0.7092 0.6789
vn 0.1747 -0.6521 0.7377
vn 0.0000 -0.6751 0.7377
vn -0.5847 -0.3375 -0.7377
vn -0.3671 0.6359 0.6789
vn 0.3375 -0.5847 0.7377
vn -0.7092 0.1900 0.6789
vn 0.6521 -0.1747 0.7377
vn -0.1747 -0.6521 -0.7377
vn 0.0000 0.0000 -1.0000
vn 0.0000 0.0000 1.0000
s 1
f 42/1/1 44/2/2 71/3/3 70/4/4
f 37/5/5 35/6/6 90/7/7 91/8/8
f 2/9/9 3/10/10 5/11/11 4/12/12
f 36/13/13 38/14/14 68/15/15 67/16/16
f 31/17/17 29/18/18 87/19/19 88/20/20
f 4/12/12 5/11/11 7/21/21 6/22/22
f 30/23/23 32/24/24 65/25/25 64/26/26
f 25/27/27 23/28/28 84/29/29 85/30/30
f 6/22/22 7/21/21 9/31/31 8/32/32
f 24/33/33 26/34/34 62/35/35 61/36/36
f 19/37/37 17/38/38 81/39/39 82/40/40
f 8/32/32 9/31/31 11/41/41 10/42/42
f 18/43/43 20/44/44 59/45/45 58/46/46
f 13/47/47 11/41/41 78/48/48 79/49/49
f 10/42/42 11/41/41 13/47/47 12/50/50
f 48/51/51 2/52/9 51/53/52 73/54/53
f 7/21/21 5/11/11 75/55/54 76/56/55
f 12/50/50 13/47/47 15/57/56 14/58/57
f 12/50/50 14/58/57 56/59/58 55/60/59
f 45/61/60 43/62/61 94/63/62 95/64/63
f 14/58/57 15/57/56 17/38/38 16/65/64
f 6/22/22 8/32/32 53/66/65 52/67/66
f 39/68/67 37/5/5 91/8/8 92/69/68
f 16/65/64 17/38/38 19/37/37 18/43/43
f 44/2/2 46/70/69 72/71/70 71/3/3
f 33/72/71 31/17/17 88/20/20 89/73/72
f 18/43/43 19/37/37 21/74/73 20/44/44
f 38/14/14 40/75/74 69/76/75 68/15/15
f 27/77/76 25/27/27 85/30/30 86/78/77
f 20/44/44 21/74/73 23/28/28 22/79/78
f 32/24/24 34/80/79 66/81/80 65/25/25
f 21/74/73 19/37/37 82/40/40 83/82/81
f 22/79/78 23/28/28 25/27/27 24/33/33
f 26/34/34 28/83/82 63/84/83 62/35/35
f 15/57/56 13/47/47 79/49/49 80/85/84
f 24/33/33 25/27/27 27/77/76 26/34/34
f 20/44/44 22/79/78 60/86/85 59/45/45
f 9/31/31 7/21/21 76/56/55 77/87/86
f 26/34/34 27/77/76 29/18/18 28/83/82
f 14/58/57 16/65/64 57/88/87 56/59/58
f 3/89/10 49/90/88 97/91/89 74/92/90
f 28/83/82 29/18/18 31/17/17 30/23/23
f 8/32/32 10/42/42 54/93/91 53/66/65
f 47/94/92 45/61/60 95/64/63 96/95/93
f 30/23/23 31/17/17 33/72/71 32/24/24
f 46/70/69 48/51/51 73/54/53 72/71/70
f 41/96/94 39/68/67 92/69/68 93/97/95
f 32/24/24 33/72/71 35/6/6 34/80/79
f 40/75/74 42/1/1 70/4/4 69/76/75
f 35/6/6 33/72/71 89/73/72 90/7/7
f 34/80/79 35/6/6 37/5/5 36/13/13
f 34/80/79 36/13/13 67/16/16 66/81/80
f 29/18/18 27/77/76 86/78/77 87/19/19
f 36/13/13 37/5/5 39/68/67 38/14/14
f 28/83/82 30/23/23 64/26/26 63/84/83
f 23/28/28 21/74/73 83/82/81 84/29/29
f 38/14/14 39/68/67 41/96/94 40/75/74
f 22/79/78 24/33/33 61/36/36 60/86/85
f 17/38/38 15/57/56 80/85/84 81/39/39
f 40/75/74 41/96/94 43/62/61 42/1/1
f 16/65/64 18/43/43 58/46/46 57/88/87
f 11/41/41 9/31/31 77/87/86 78/48/48
f 42/1/1 43/62/61 45/61/60 44/2/2
f 2/9/9 4/12/12 50/98/96 51/99/52
f 5/11/11 3/10/10 74/100/90 75/55/54
f 44/2/2 45/61/60 47/94/92 46/70/69
f 10/42/42 12/50/50 55/60/59 54/93/91
f 49/90/88 47/94/92 96/95/93 97/91/89
f 46/70/69 47/94/92 49/90/88 48/51/51
f 4/12/12 6/22/22 52/67/66 50/98/96
f 43/62/61 41/96/94 93/97/95 94/63/62
f 48/51/51 49/90/88 3/89/10 2/52/9
f 69/76/75 70/4/4 118/101/43 117/102/64
f 54/93/91 55/60/59 103/103/13 102/104/79
f 73/54/53 51/53/52 99/105/34 121/106/33
f 65/25/25 66/81/80 114/107/42 113/108/32
f 51/99/52 50/98/96 1/109/82 99/110/34
f 61/36/36 62/35/35 110/111/9 109/112/51
f 72/71/70 73/54/53 121/106/33 120/113/78
f 57/88/87 58/46/46 106/114/1 105/115/74
f 68/15/15 69/76/75 117/102/64 116/116/57
f 53/66/65 54/93/91 102/104/79 101/117/24
f 64/26/26 65/25/25 113/108/32 112/118/22
f 60/86/85 61/36/36 109/112/51 108/119/69
f 71/3/3 72/71/70 120/113/78 119/120/44
f 56/59/58 57/88/87 105/115/74 104/121/14
f 67/16/16 68/15/15 116/116/57 115/122/50
f 52/67/66 53/66/65 101/117/24 100/123/23
f 63/84/83 64/26/26 112/118/22 111/124/12
f 59/45/45 60/86/85 108/119/69 107/125/2
f 70/4/4 71/3/3 119/120/44 118/101/43
f 55/60/59 56/59/58 104/121/14 103/103/13
f 66/81/80 67/16/16 115/122/50 114/107/42
f 50/98/96 52/67/66 100/123/23 1/109/82
f 62/35/35 63/84/83 111/124/12 110/111/9
f 58/46/46 59/45/45 107/125/2 106/114/1
f 81/39/39 80/85/84 129/126/67 130/127/94
f 92/69/68 91/8/8 140/128/47 141/129/56
f 77/87/86 76/56/55 125/130/17 126/131/71
f 88/20/20 87/19/19 136/132/11 137/133/21
f 84/29/29 83/82/81 132/134/60 133/135/92
f 95/64/63 94/63/62 143/136/37 144/137/73
f 80/85/84 79/49/49 128/138/5 129/126/67
f 91/8/8 90/7/7 139/139/41 140/128/47
f 76/56/55 75/55/54 124/140/18 125/130/17
f 87/19/19 86/78/77 135/141/10 136/132/11
f 83/82/81 82/40/40 131/142/61 132/134/60
f 94/63/62 93/97/95 142/143/38 143/136/37
f 79/49/49 78/48/48 127/144/6 128/138/5
f 74/92/90 97/91/89 146/145/27 122/146/76
f 90/7/7 89/73/72 138/147/31 139/139/41
f 75/55/54 74/100/90 122/148/76 124/140/18
f 86/78/77 85/30/30 134/149/88 135/141/10
f 97/91/89 96/95/93 145/150/28 146/145/27
f 82/40/40 81/39/39 130/127/94 131/142/61
f 93/97/95 92/69/68 141/129/56 142/143/38
f 78/48/48 77/87/86 126/131/71 127/144/6
f 89/73/72 88/20/20 137/133/21 138/147/31
f 85/30/30 84/29/29 133/135/92 134/149/88
f 96/95/93 95/64/63 144/137/73 145/150/28
f 98/151/97 99/152/34 1/153/82
f 98/151/97 1/153/82 100/154/23
f 98/151/97 100/154/23 101/155/24
f 98/151/97 101/155/24 102/156/79
f 98/151/97 102/156/79 103/157/13
f 98/151/97 103/157/13 104/158/14
f 98/151/97 104/158/14 105/159/74
f 98/151/97 105/159/74 106/160/1
f 98/151/97 106/160/1 107/161/2
f 98/151/97 107/161/2 108/162/69
f 98/151/97 108/162/69 109/163/51
f 98/151/97 109/163/51 110/164/9
f 98/151/97 110/164/9 111/165/12
f 98/151/97 111/165/12 112/166/22
f 98/151/97 112/166/22 113/167/32
f 98/151/97 113/167/32 114/168/42
f 98/151/97 114/168/42 115/169/50
f 98/151/97 115/169/50 116/170/57
f 98/151/97 116/170/57 117/171/64
f 98/151/97 117/171/64 118/172/43
f 98/151/97 118/172/43 119/173/44
f 98/151/97 119/173/44 120/174/78
f 98/151/97 120/174/78 121/175/33
f 98/151/97 121/175/33 99/152/34
f 123/176/98 124/177/18 122/178/76
f 123/176/98 125/179/17 124/177/18
f 123/176/98 126/180/71 125/179/17
f 123/176/98 127/181/6 126/180/71
f 123/176/98 128/182/5 127/181/6
f 123/176/98 129/183/67 128/182/5
f 123/176/98 130/184/94 129/183/67
f 123/176/98 131/185/61 130/184/94
f 123/176/98 132/186/60 131/185/61
f 123/176/98 133/187/92 132/186/60
f 123/176/98 134/188/88 133/187/92
f 123/176/98 135/189/10 134/188/88
f 123/176/98 136/190/11 135/189/10
f 123/176/98 137/191/21 136/190/11
f 123/176/98 138/192/31 137/191/21
f 123/176/98 139/193/41 138/192/31
f 123/176/98 140/194/47 139/193/41
f 123/176/98 141/195/56 140/194/47
f 123/176/98 142/196/38 141/195/56
f 123/176/98 143/197/37 142/196/38
f 123/176/98 144/198/73 143/197/37
f 123/176/98 145/199/28 144/198/73
f 123/176/98 146/200/27 145/199/28
f 123/176/98 122/178/76 146/200/27
