[gd_resource type="AudioBusLayout" load_steps=2 format=2]

[sub_resource type="AudioEffectReverb" id=1]

resource_name = "Reverb"
predelay_msec = 150.0
predelay_feedback = 0.4
room_size = 0.41
damping = 0.0
spread = 0.55
hipass = 1.0
dry = 0.87
wet = 0.18

[resource]

bus/0/name = "Master"
bus/0/solo = false
bus/0/mute = false
bus/0/bypass_fx = false
bus/0/volume_db = 0.0
bus/0/send = ""
bus/1/name = "Game"
bus/1/solo = false
bus/1/mute = false
bus/1/bypass_fx = false
bus/1/volume_db = 0.0
bus/1/send = "Master"
bus/1/effect/0/effect = SubResource( 1 )
bus/1/effect/0/enabled = true

