# Blender v2.79 (sub 0) OBJ File: 'meat.blend'
# www.blender.org
v 0.004106 -0.004106 -0.330000
v 0.304106 -0.004106 -0.240000
v 0.304106 -0.078270 -0.228254
v 0.304106 -0.145175 -0.194164
v 0.304106 -0.198270 -0.141068
v 0.304106 -0.232360 -0.074164
v 0.004106 -0.334106 0.000000
v 0.304106 -0.244106 0.000000
v 0.304106 -0.232360 0.074164
v 0.304106 -0.198270 0.141068
v 0.304106 -0.145175 0.194164
v 0.304106 -0.078270 0.228254
v 0.304106 -0.004106 0.240000
v 0.304106 0.070058 0.228254
v 0.304106 0.136963 0.194164
v 0.304106 0.190058 0.141068
v 0.304106 0.224148 0.074164
v 0.304106 0.235894 -0.000000
v 0.304106 0.224147 -0.074164
v 0.304106 0.190058 -0.141069
v 0.304106 0.136962 -0.194164
v 0.304106 0.070058 -0.228254
v 0.319731 -0.004106 -0.061081
v 0.472856 -0.004106 -0.067868
v 0.319731 -0.079533 -0.047302
v 0.319731 -0.120191 -0.000000
v 0.319731 -0.079533 0.047302
v 0.319731 -0.004106 0.061081
v 0.319731 0.071321 0.047302
v 0.319731 0.111978 -0.000000
v 0.319731 0.071321 -0.047302
v 0.404106 -0.004106 -0.067868
v 0.404106 -0.087914 -0.052558
v 0.404106 -0.004106 0.067868
v 0.404106 -0.087914 0.052558
v 0.404106 -0.120191 -0.000000
v 0.404106 0.079702 -0.052558
v 0.404106 0.111979 -0.000000
v 0.404106 0.079702 0.052558
v 0.504106 -0.004106 -0.000000
v 0.519731 -0.104676 -0.063070
v 0.472856 -0.004106 0.067868
v 0.519731 -0.104676 0.063070
v 0.550981 -0.120191 -0.000000
v 0.519731 0.096464 -0.063070
v 0.550981 0.111979 -0.000000
v 0.519731 0.096464 0.063070
v 0.535356 0.142202 -0.052558
v 0.435356 0.142202 -0.052558
v 0.535356 0.174479 -0.000000
v 0.435356 0.174478 -0.000000
v 0.535356 0.142202 0.052558
v 0.435356 0.142202 0.052558
v 0.435356 -0.150414 0.052558
v 0.535356 -0.150414 0.052558
v 0.535356 -0.182691 -0.000000
v 0.435356 -0.182691 -0.000000
v 0.535356 -0.150414 -0.052558
v 0.435356 -0.150414 -0.052558
v 0.244106 -0.004106 -0.300000
v 0.244106 -0.096811 -0.285317
v 0.244106 -0.180442 -0.242705
v 0.244106 -0.246811 -0.176336
v 0.244106 -0.289423 -0.092705
v 0.244106 -0.304106 0.000000
v 0.244106 -0.289423 0.092705
v 0.244106 -0.246811 0.176336
v 0.244106 -0.180442 0.242705
v 0.244106 -0.096811 0.285317
v 0.244106 -0.004106 0.300000
v 0.244106 0.088599 0.285317
v 0.244106 0.172230 0.242705
v 0.244106 0.238599 0.176335
v 0.244106 0.281211 0.092705
v 0.244106 0.295894 -0.000000
v 0.244106 0.281211 -0.092705
v 0.244106 0.238599 -0.176336
v 0.244106 0.172229 -0.242705
v 0.244106 0.088599 -0.285317
v -0.305172 -0.004106 -0.240000
v 0.004106 -0.106082 -0.313849
v -0.305172 -0.078270 -0.228254
v 0.004106 -0.198075 -0.266976
v -0.305172 -0.145175 -0.194164
v 0.004106 -0.271082 -0.193969
v -0.305172 -0.198270 -0.141068
v 0.004106 -0.317955 -0.101976
v -0.305172 -0.232360 -0.074164
v -0.305172 -0.244106 -0.000000
v 0.004106 -0.317955 0.101976
v -0.305172 -0.232360 0.074164
v 0.004106 -0.271082 0.193969
v -0.305172 -0.198270 0.141068
v 0.004106 -0.198075 0.266976
v -0.305172 -0.145175 0.194164
v 0.004106 -0.106082 0.313849
v -0.305172 -0.078270 0.228254
v 0.004106 -0.004106 0.330000
v -0.305172 -0.004106 0.240000
v 0.004106 0.097870 0.313849
v -0.305172 0.070058 0.228253
v 0.004106 0.189863 0.266976
v -0.305172 0.136962 0.194164
v 0.004106 0.262870 0.193969
v -0.305172 0.190058 0.141068
v 0.004106 0.309743 0.101975
v -0.305172 0.224148 0.074164
v 0.004106 0.325894 -0.000000
v -0.305172 0.235894 -0.000000
v 0.004106 0.309743 -0.101976
v -0.305172 0.224147 -0.074164
v 0.004106 0.262869 -0.193969
v -0.305172 0.190058 -0.141069
v 0.004106 0.189863 -0.266976
v -0.305172 0.136962 -0.194164
v 0.004106 0.097869 -0.313849
v -0.305172 0.070058 -0.228254
v -0.320797 -0.004106 -0.061081
v -0.473922 -0.004106 -0.067868
v -0.320797 -0.079533 -0.047302
v -0.320797 -0.120191 -0.000000
v -0.320797 -0.079533 0.047302
v -0.320797 -0.004106 0.061081
v -0.320797 0.071321 0.047302
v -0.320797 0.111978 -0.000000
v -0.320797 0.071321 -0.047302
v -0.405172 -0.004106 -0.067868
v -0.405172 -0.087914 -0.052558
v -0.405172 -0.004106 0.067868
v -0.405172 -0.087914 0.052558
v -0.405172 -0.120191 -0.000000
v -0.405172 0.079702 -0.052558
v -0.405172 0.111978 -0.000000
v -0.405172 0.079702 0.052558
v -0.505173 -0.004106 -0.000000
v -0.520798 -0.104676 -0.063070
v -0.473922 -0.004106 0.067868
v -0.520798 -0.104676 0.063070
v -0.552048 -0.120191 -0.000000
v -0.520798 0.096464 -0.063070
v -0.552048 0.111978 -0.000000
v -0.520798 0.096464 0.063070
v -0.536423 0.142202 -0.052558
v -0.436422 0.142202 -0.052558
v -0.536423 0.174478 -0.000000
v -0.436422 0.174478 -0.000000
v -0.536423 0.142202 0.052558
v -0.436422 0.142202 0.052558
v -0.436422 -0.150414 0.052558
v -0.536423 -0.150414 0.052558
v -0.536423 -0.182691 -0.000000
v -0.436422 -0.182691 -0.000000
v -0.536423 -0.150414 -0.052558
v -0.436422 -0.150414 -0.052558
v -0.245172 -0.004106 -0.300000
v -0.245172 -0.096811 -0.285317
v -0.245172 -0.180442 -0.242705
v -0.245172 -0.246811 -0.176336
v -0.245172 -0.289423 -0.092705
v -0.245172 -0.304106 0.000000
v -0.245172 -0.289423 0.092705
v -0.245172 -0.246811 0.176336
v -0.245172 -0.180442 0.242705
v -0.245172 -0.096811 0.285317
v -0.245172 -0.004106 0.300000
v -0.245172 0.088599 0.285317
v -0.245172 0.172230 0.242705
v -0.245172 0.238599 0.176335
v -0.245172 0.281211 0.092705
v -0.245172 0.295894 -0.000000
v -0.245172 0.281211 -0.092705
v -0.245172 0.238599 -0.176336
v -0.245172 0.172229 -0.242705
v -0.245172 0.088599 -0.285317
vt 0.266912 0.624181
vt 0.233447 0.664405
vt 0.228146 0.626845
vt 0.456769 0.324585
vt 0.415288 0.353362
vt 0.380531 0.267244
vt 0.724458 0.427553
vt 0.758643 0.387752
vt 0.763262 0.425140
vt 0.214862 0.775353
vt 0.121748 0.709912
vt 0.161159 0.686572
vt 0.304675 0.385969
vt 0.334990 0.280522
vt 0.339947 0.381382
vt 0.803381 0.418877
vt 0.187712 0.633240
vt 0.197907 0.672270
vt 0.235366 0.382541
vt 0.218389 0.271220
vt 0.277016 0.277435
vt 0.793991 0.380314
vt 0.846327 0.407351
vt 0.268204 0.660756
vt 0.273527 0.769981
vt 0.124244 0.335340
vt 0.082974 0.297696
vt 0.173348 0.250074
vt 0.867842 0.343817
vt 0.894198 0.388031
vt 0.144111 0.644601
vt 0.830045 0.366410
vt 0.779554 0.279825
vt 0.905620 0.309137
vt 0.950302 0.356413
vt 0.373923 0.677910
vt 0.331465 0.767698
vt 0.337881 0.667096
vt 0.689229 0.389105
vt 0.663582 0.280338
vt 0.721992 0.281836
vt 0.096519 0.381883
vt 0.038161 0.351805
vt 0.094742 0.663016
vt 0.576557 0.351737
vt 0.531908 0.318735
vt 0.617217 0.263381
vt 0.163346 0.359287
vt 0.145661 0.401047
vt 0.573076 0.700645
vt 0.611830 0.789629
vt 0.527929 0.732643
vt 0.376206 0.371089
vt 0.199913 0.374145
vt 0.189133 0.413064
vt 0.079970 0.746889
vt 0.036056 0.692148
vt 0.270100 0.386703
vt 0.229509 0.420062
vt 0.686320 0.665651
vt 0.658447 0.773683
vt 0.650775 0.670669
vt 0.268272 0.423300
vt 0.890873 0.670983
vt 0.900688 0.749905
vt 0.863686 0.714558
vt 0.823137 0.261502
vt 0.306762 0.423051
vt 0.826431 0.691243
vt 0.774243 0.776638
vt 0.790737 0.676619
vt 0.723989 0.390898
vt 0.346110 0.419439
vt 0.843521 0.650727
vt 0.616895 0.371662
vt 0.387939 0.411726
vt 0.169546 0.795815
vt 0.434977 0.398591
vt 0.800911 0.638328
vt 0.493474 0.377583
vt 0.554411 0.399681
vt 0.761000 0.631230
vt 0.755605 0.668457
vt 0.603270 0.413516
vt 0.302725 0.661996
vt 0.646003 0.422012
vt 0.721071 0.664589
vt 0.722308 0.627999
vt 0.653757 0.383342
vt 0.685842 0.426454
vt 0.453539 0.725467
vt 0.376718 0.781585
vt 0.412638 0.696182
vt 0.335175 0.839769
vt 0.377339 0.870681
vt 0.335163 0.872346
vt 0.169075 0.843815
vt 0.138257 0.888947
vt 0.138455 0.843823
vt 0.619593 0.954048
vt 0.589130 0.908924
vt 0.619593 0.908917
vt 0.110794 0.888995
vt 0.113738 0.843867
vt 0.184603 0.942437
vt 0.215378 0.897315
vt 0.215644 0.942437
vt 0.588412 0.954048
vt 0.556131 0.908884
vt 0.335164 0.911628
vt 0.377339 0.914328
vt 0.335183 0.942503
vt 0.377362 0.942490
vt 0.110794 0.925768
vt 0.924651 0.982371
vt 0.940631 0.955771
vt 0.957857 0.982018
vt 0.435149 0.823925
vt 0.392979 0.804708
vt 0.442969 0.804693
vt 0.827858 0.896940
vt 0.812163 0.870928
vt 0.836880 0.866215
vt 0.377352 0.834485
vt 0.411707 0.870671
vt 0.951997 0.897862
vt 0.968623 0.872090
vt 0.985625 0.898464
vt 0.556131 0.872111
vt 0.590565 0.847093
vt 0.435134 0.919737
vt 0.861940 0.981312
vt 0.808416 0.950169
vt 0.861556 0.946714
vt 0.800508 0.982371
vt 0.890558 0.898464
vt 0.944428 0.867014
vt 0.891308 0.865283
vt 0.915968 0.950169
vt 0.184603 0.905620
vt 0.153785 0.959110
vt 0.153785 0.905622
vt 0.392979 0.972257
vt 0.442946 0.944079
vt 0.442969 0.972241
vt 0.392956 0.944094
vt 0.137862 0.950778
vt 0.722650 0.925243
vt 0.696780 0.910170
vt 0.722650 0.892241
vt 0.670899 0.953959
vt 0.644290 0.970382
vt 0.644290 0.937380
vt 0.670626 0.838752
vt 0.639858 0.892237
vt 0.639858 0.838749
vt 0.609395 0.892245
vt 0.639858 0.838749
vt 0.639858 0.892237
vt 0.777989 0.865283
vt 0.760795 0.891884
vt 0.744135 0.865283
vt 0.670626 0.872603
vt 0.696507 0.856598
vt 0.696507 0.890452
vt 0.784166 0.955771
vt 0.723946 0.525902
vt 0.681289 0.525434
vt 0.637936 0.524913
vt 0.592678 0.524340
vt 0.544673 0.523741
vt 0.495381 0.523237
vt 0.443929 0.522913
vt 0.395367 0.522659
vt 0.349939 0.522411
vt 0.306602 0.522139
vt 0.263958 0.521825
vt 0.220549 0.521452
vt 0.174666 0.521001
vt 0.124278 0.520450
vt 0.066718 0.519780
vt 0.000074 0.519031
vt 0.999926 0.527820
vt 0.924808 0.527440
vt 0.864669 0.527083
vt 0.813457 0.526716
vt 0.767393 0.526326
vt 0.305354 0.624996
vt 0.716798 0.773432
vt 0.344600 0.629188
vt 0.613726 0.681575
vt 0.432993 0.651376
vt 0.386255 0.637525
vt 0.551897 0.652384
vt 0.490846 0.673264
vt 0.817391 0.795815
vt 0.600956 0.639511
vt 0.643825 0.631890
vt 0.683717 0.628283
vt 0.292966 0.870657
vt 0.335163 0.839722
vt 0.335148 0.872299
vt 0.083330 0.888996
vt 0.052512 0.843867
vt 0.083133 0.843858
vt 0.535866 0.838785
vt 0.505403 0.883923
vt 0.504685 0.838785
vt 0.110794 0.888948
vt 0.107850 0.843815
vt 0.640130 0.892241
vt 0.670899 0.937375
vt 0.639858 0.937380
vt 0.472404 0.883883
vt 0.474986 0.838749
vt 0.335146 0.911581
vt 0.335163 0.942457
vt 0.292964 0.914304
vt 0.110794 0.925721
vt 0.800082 0.946581
vt 0.784101 0.919981
vt 0.808765 0.914378
vt 0.235179 0.823932
vt 0.277368 0.804693
vt 0.292983 0.834461
vt 0.968112 0.832662
vt 0.952417 0.858673
vt 0.943394 0.827949
vt 0.258598 0.870665
vt 0.828278 0.859595
vt 0.811652 0.833824
vt 0.835846 0.828748
vt 0.472404 0.920657
vt 0.862792 0.945522
vt 0.863177 0.910923
vt 0.916316 0.914378
vt 0.924225 0.946581
vt 0.889717 0.860198
vt 0.888967 0.827016
vt 0.067802 0.905751
vt 0.036984 0.959241
vt 0.036984 0.905753
vt 0.227365 0.972253
vt 0.277335 0.944079
vt 0.277355 0.972241
vt 0.235156 0.919744
vt 0.083726 0.950857
vt 0.722378 0.856678
vt 0.696507 0.871751
vt 0.696507 0.838749
vt 0.211212 0.975439
vt 0.184603 0.959016
vt 0.211212 0.942437
vt 0.184603 0.843815
vt 0.215372 0.897306
vt 0.184603 0.897303
vt 0.556131 0.954155
vt 0.525668 0.900674
vt 0.556131 0.900667
vt 0.506838 0.945784
vt 0.777989 0.853617
vt 0.760795 0.827016
vt 0.794649 0.827016
vt 0.670899 0.910089
vt 0.696780 0.926095
vt 0.670899 0.943943
vt 0.940566 0.919981
vt 0.946186 0.703617
vt 0.169075 0.888945
vt 0.184610 0.897306
vt 0.558713 0.954012
vt 0.794649 0.897046
vt 0.184603 0.959109
vt 0.696780 0.943172
vt 0.670899 0.986961
vt 0.670626 0.892241
vt 0.609395 0.838756
vt 0.794649 0.891884
vt 0.670626 0.838749
vt 0.766875 0.982018
vt 0.052512 0.888997
vt 0.535866 0.883916
vt 0.670899 0.892244
vt 0.292984 0.942466
vt 0.766875 0.946228
vt 0.227378 0.804704
vt 0.985625 0.858780
vt 0.794649 0.860198
vt 0.067802 0.959240
vt 0.227345 0.944090
vt 0.722378 0.889680
vt 0.184603 0.992018
vt 0.215372 0.843818
vt 0.525668 0.954162
vt 0.744135 0.853617
vt 0.696780 0.892241
vt 0.957857 0.946228
vn -0.4250 0.0000 0.9052
vn -0.8924 -0.1383 0.4294
vn -0.4250 -0.2797 0.8609
vn 0.8852 0.4652 0.0000
vn 0.8878 0.4368 0.1449
vn 0.8246 0.5656 0.0000
vn 0.4270 0.0000 -0.9042
vn 0.8924 -0.1383 -0.4294
vn 0.4270 -0.2794 -0.8600
vn -0.7191 -0.3462 0.6025
vn -0.8878 -0.4368 0.1449
vn -0.8899 -0.3690 0.2683
vn 0.8924 0.1383 0.4294
vn 0.7191 0.3462 0.6025
vn 0.8908 0.2664 0.3681
vn 0.4270 -0.5315 -0.7315
vn -0.4250 -0.5321 0.7323
vn -0.8908 -0.2664 0.3681
vn 0.8924 -0.1383 0.4294
vn 0.7191 -0.3462 0.6025
vn 0.6884 0.0000 0.7253
vn 0.8908 -0.2664 -0.3681
vn 0.4270 -0.7315 -0.5315
vn -0.8931 0.0000 0.4498
vn -0.6884 0.0000 0.7253
vn 0.8878 -0.4368 0.1449
vn 0.8852 -0.4652 0.0000
vn 0.8246 -0.5656 0.0000
vn 0.8878 -0.4368 -0.1449
vn 0.4270 -0.8600 -0.2794
vn -0.4250 -0.7323 0.5321
vn 0.8899 -0.3690 -0.2683
vn 0.7191 -0.3462 -0.6025
vn 0.4270 -0.9042 0.0000
vn -0.8899 0.3690 0.2683
vn -0.7191 0.3462 0.6025
vn -0.8908 0.2664 0.3681
vn 0.8924 0.1383 -0.4294
vn 0.7191 0.3462 -0.6025
vn 0.6884 0.0000 -0.7253
vn 0.4270 -0.8600 0.2794
vn -0.4250 -0.8609 0.2797
vn 0.8878 0.4368 -0.1449
vn 0.8899 -0.3690 0.2683
vn 0.4270 -0.7315 0.5315
vn -0.8878 0.4368 -0.1449
vn -0.8246 0.5656 0.0000
vn -0.8852 0.4652 0.0000
vn 0.8899 0.3690 0.2683
vn 0.8908 -0.2664 0.3681
vn 0.4270 -0.5315 0.7315
vn -0.8852 -0.4652 0.0000
vn -0.4250 -0.9052 0.0000
vn 0.8931 0.0000 0.4498
vn 0.4270 -0.2794 0.8600
vn -0.8924 0.1383 -0.4294
vn -0.7191 0.3462 -0.6025
vn -0.8908 0.2664 -0.3681
vn 0.4270 0.0000 0.9042
vn -0.4250 -0.8609 -0.2797
vn -0.8878 -0.4368 -0.1449
vn 0.4270 0.2794 0.8600
vn -0.8899 -0.3690 -0.2683
vn -0.7191 -0.3462 -0.6025
vn -0.8908 -0.2664 -0.3681
vn 0.8931 0.0000 -0.4498
vn 0.4270 0.5315 0.7315
vn -0.4250 -0.7323 -0.5321
vn 0.8899 0.3690 -0.2683
vn 0.4270 0.7315 0.5315
vn -0.8246 -0.5656 0.0000
vn 0.4270 0.8600 0.2794
vn -0.4250 -0.5321 -0.7323
vn 0.4270 0.9042 0.0000
vn 0.4270 0.8600 -0.2794
vn -0.4250 -0.2797 -0.8609
vn -0.8924 -0.1383 -0.4294
vn 0.4270 0.7315 -0.5315
vn -0.8924 0.1383 0.4294
vn 0.4270 0.5315 -0.7315
vn -0.8931 0.0000 -0.4498
vn -0.4250 0.0000 -0.9052
vn 0.8908 0.2664 -0.3681
vn 0.4270 0.2794 -0.8600
vn -0.8878 0.4368 0.1449
vn -0.0399 0.0000 0.9992
vn -0.2243 0.3862 -0.8947
vn -0.2243 -0.3862 -0.8947
vn -0.6234 -0.7819 0.0000
vn -0.0399 0.0000 -0.9992
vn -0.2243 -0.3862 0.8947
vn -0.2243 0.3862 0.8947
vn -0.6234 0.7819 0.0000
vn 0.3772 0.0000 -0.9261
vn 0.9921 -0.1253 0.0000
vn 0.5849 0.4056 -0.7024
vn 0.5315 0.8470 0.0000
vn 0.5145 0.1045 0.8511
vn -0.4197 -0.5265 0.7393
vn 0.5849 -0.4056 0.7024
vn 0.5849 0.4056 0.7024
vn 0.5145 -0.1045 0.8511
vn 0.3772 0.0000 0.9261
vn 0.9921 0.1253 0.0000
vn 0.5315 -0.8470 0.0000
vn 0.5145 0.1045 -0.8511
vn 1.0000 0.0000 0.0000
vn 0.5145 -0.1045 -0.8511
vn -0.4596 0.8881 0.0000
vn -0.4197 0.5265 -0.7393
vn -0.4197 0.5265 0.7393
vn -0.4596 -0.8881 0.0000
vn -0.4197 -0.5265 -0.7393
vn 0.5849 -0.4056 -0.7024
vn 0.0023 0.0000 -1.0000
vn 0.0023 0.3090 -0.9510
vn 0.0023 0.5878 -0.8090
vn 0.0023 0.8090 -0.5878
vn 0.0023 0.9510 -0.3090
vn 0.0023 1.0000 0.0000
vn 0.0023 0.9510 0.3090
vn 0.0023 0.8090 0.5878
vn 0.0023 0.5878 0.8090
vn 0.0023 0.3090 0.9510
vn 0.0023 0.0000 1.0000
vn 0.0023 -0.3090 0.9510
vn 0.0023 -0.5878 0.8090
vn 0.0023 -0.8090 0.5878
vn 0.0023 -0.9510 0.3090
vn 0.0023 -1.0000 0.0000
vn 0.0023 -0.9510 -0.3090
vn 0.0023 -0.8090 -0.5878
vn 0.0023 -0.5878 -0.8090
vn 0.0023 -0.3090 -0.9510
vn -0.4250 0.2797 0.8609
vn -0.6884 0.0000 -0.7253
vn -0.4250 0.5321 0.7323
vn -0.8899 0.3690 -0.2683
vn -0.4250 0.8609 0.2797
vn -0.4250 0.7323 0.5321
vn -0.4250 0.8609 -0.2797
vn -0.4250 0.9052 0.0000
vn -0.4250 0.7323 -0.5321
vn -0.4250 0.5321 -0.7323
vn -0.4250 0.2797 -0.8609
vn 0.0399 0.0000 0.9992
vn 0.2243 0.3862 -0.8947
vn 0.2243 -0.3862 -0.8947
vn 0.0399 0.0000 -0.9992
vn 0.2243 -0.3862 0.8947
vn 0.2243 0.3862 0.8947
vn -0.3772 0.0000 -0.9261
vn -0.9921 -0.1253 0.0000
vn -0.5849 0.4056 -0.7024
vn -0.5145 -0.1045 -0.8511
vn -0.5145 0.1045 0.8511
vn 0.4197 -0.5265 0.7393
vn -0.5849 0.4056 0.7024
vn -0.5145 -0.1045 0.8511
vn -0.3772 0.0000 0.9261
vn -0.9921 0.1253 0.0000
vn -0.5849 -0.4056 0.7024
vn -1.0000 0.0000 0.0000
vn -0.5145 0.1045 -0.8511
vn 0.4197 0.5265 -0.7393
vn -0.5315 0.8470 0.0000
vn 0.4596 0.8881 0.0000
vn 0.4197 0.5265 0.7393
vn 0.6234 0.7819 0.0000
vn 0.4596 -0.8881 0.0000
vn -0.5315 -0.8470 0.0000
vn 0.4197 -0.5265 -0.7393
vn 0.6234 -0.7819 0.0000
vn -0.5849 -0.4056 -0.7024
s 1
f 165/1/1 97/2/2 164/3/3
f 18/4/4 17/5/5 30/6/6
f 60/7/7 3/8/8 61/9/9
f 122/10/10 91/11/11 93/12/12
f 14/13/13 29/14/14 15/15/15
f 3/8/8 62/16/16 61/9/9
f 163/17/17 97/2/2 95/18/18
f 12/19/19 27/20/20 28/21/21
f 4/22/22 63/23/23 62/16/16
f 99/24/24 123/25/25 97/2/2
f 9/26/26 8/27/27 26/28/28
f 63/23/23 6/29/29 64/30/30
f 162/31/31 95/18/18 93/12/12
f 5/32/32 4/22/22 25/33/33
f 64/30/30 8/34/27 65/35/34
f 105/36/35 124/37/36 103/38/37
f 22/39/38 31/40/39 23/41/40
f 8/27/27 66/42/41 65/43/34
f 162/31/31 91/11/11 161/44/42
f 19/45/43 18/46/4 30/47/6
f 66/42/41 10/48/44 67/49/45
f 111/50/46 125/51/47 109/52/48
f 16/53/49 15/15/15 29/14/14
f 67/49/45 11/54/50 68/55/51
f 161/44/42 89/56/52 160/57/53
f 13/58/54 12/19/19 28/21/21
f 11/54/50 69/59/55 68/55/51
f 117/60/56 126/61/57 115/62/58
f 9/26/26 27/20/20 10/48/44
f 12/19/19 70/63/59 69/59/55
f 159/64/60 89/65/52 88/66/61
f 6/29/29 25/33/33 26/67/28
f 13/58/54 71/68/62 70/63/59
f 86/69/63 120/70/64 84/71/65
f 3/8/8 2/72/66 23/41/40
f 71/68/62 15/15/15 72/73/67
f 158/74/68 88/66/61 86/69/63
f 19/45/43 31/40/39 20/75/69
f 15/15/15 73/76/70 72/73/67
f 91/11/11 121/77/71 89/56/52
f 17/5/5 29/14/14 30/6/6
f 16/53/49 74/78/72 73/76/70
f 158/74/68 84/71/65 157/79/73
f 14/13/13 13/58/54 28/21/21
f 17/5/5 75/80/74 74/78/72
f 97/2/2 122/10/10 95/18/18
f 11/54/50 10/48/44 27/20/20
f 18/46/4 76/81/75 75/80/74
f 156/82/76 84/71/65 82/83/77
f 8/34/27 6/29/29 26/67/28
f 19/45/43 77/84/78 76/81/75
f 124/37/36 101/85/79 103/38/37
f 3/8/8 25/33/33 4/22/22
f 20/75/69 78/86/80 77/84/78
f 156/82/76 80/87/81 155/88/82
f 2/72/66 22/39/38 23/41/40
f 21/89/83 79/90/84 78/86/80
f 109/91/48 125/92/47 107/93/85
f 21/89/83 20/75/69 31/40/39
f 22/39/38 60/7/7 79/90/84
f 27/94/20 34/95/86 28/96/21
f 30/97/6 37/98/87 31/99/39
f 26/100/28 33/101/88 36/102/89
f 31/99/39 32/103/90 23/104/40
f 26/105/28 35/106/91 27/107/20
f 25/108/33 32/109/90 33/101/88
f 29/110/14 34/95/86 39/111/92
f 30/112/6 39/111/92 38/113/93
f 37/98/87 24/114/94 32/103/90
f 46/115/95 48/116/96 50/117/97
f 43/118/98 54/119/99 55/120/100
f 46/121/95 52/122/101 47/123/102
f 35/124/91 42/125/103 34/95/86
f 44/126/104 55/127/100 56/128/105
f 33/101/88 24/129/94 41/130/106
f 39/111/92 42/125/103 47/131/102
f 40/132/107 41/133/106 24/134/94
f 40/132/107 44/135/104 41/133/106
f 40/136/107 43/137/98 44/126/104
f 40/136/107 42/138/103 43/137/98
f 40/136/107 47/123/102 42/138/103
f 40/136/107 46/121/95 47/123/102
f 40/132/107 45/139/108 46/115/95
f 40/132/107 24/134/94 45/139/108
f 51/140/109 48/141/96 49/142/110
f 51/143/109 52/144/101 50/145/97
f 47/131/102 53/146/111 39/111/92
f 45/147/108 49/142/110 48/141/96
f 38/148/93 53/149/111 51/150/109
f 38/151/93 49/152/110 37/153/87
f 57/154/112 55/155/100 54/156/99
f 59/157/113 56/158/105 57/159/112
f 41/130/106 59/157/113 33/101/88
f 36/160/89 59/161/113 57/162/112
f 36/163/89 54/164/99 35/165/91
f 44/135/104 58/166/114 41/133/106
f 79/90/84 1/167/115 116/168/116
f 78/86/80 116/168/116 114/169/117
f 77/84/78 114/169/117 112/170/118
f 76/81/75 112/170/118 110/171/119
f 75/80/74 110/171/119 108/172/120
f 74/78/72 108/172/120 106/173/121
f 73/76/70 106/173/121 104/174/122
f 72/73/67 104/174/122 102/175/123
f 100/176/124 72/73/67 102/175/123
f 70/63/59 100/176/124 98/177/125
f 69/59/55 98/177/125 96/178/126
f 94/179/127 69/59/55 96/178/126
f 67/49/45 94/179/127 92/180/128
f 90/181/129 67/49/45 92/180/128
f 65/43/34 90/181/129 7/182/130
f 64/30/30 7/183/130 87/184/131
f 85/185/132 64/30/30 87/184/131
f 62/16/16 85/185/132 83/186/133
f 61/9/9 83/186/133 81/187/134
f 60/7/7 81/187/134 1/167/115
f 88/66/61 120/70/64 86/69/63
f 166/188/135 99/24/24 165/1/1
f 82/83/77 118/189/136 80/87/81
f 167/190/137 101/85/79 166/188/135
f 126/61/57 111/50/46 113/191/138
f 167/190/137 105/36/35 103/38/37
f 107/93/85 124/37/36 105/36/35
f 169/192/139 105/36/35 168/193/140
f 101/85/79 123/25/25 99/24/24
f 169/192/139 109/91/48 107/93/85
f 95/18/18 122/10/10 93/12/12
f 171/194/141 109/52/48 170/195/142
f 89/65/52 121/196/71 88/66/61
f 172/197/143 111/50/46 171/194/141
f 120/70/64 82/83/77 84/71/65
f 173/198/144 113/191/138 172/197/143
f 80/87/81 118/189/136 117/60/56
f 174/199/145 115/62/58 173/198/144
f 115/62/58 126/61/57 113/191/138
f 155/88/82 117/60/56 174/199/145
f 129/200/146 122/201/10 123/202/25
f 132/203/147 125/204/47 126/205/57
f 121/206/71 128/207/148 120/208/64
f 127/209/149 126/205/57 118/210/136
f 130/211/150 121/212/71 122/213/10
f 120/208/64 127/214/149 118/215/136
f 124/216/36 129/200/146 123/202/25
f 125/217/47 134/218/151 124/216/36
f 119/219/152 132/203/147 127/209/149
f 141/220/153 143/221/154 140/222/155
f 138/223/156 149/224/157 130/225/150
f 147/226/158 141/227/153 142/228/159
f 137/229/160 130/225/150 129/200/146
f 139/230/161 150/231/162 138/232/156
f 128/207/148 119/233/152 127/214/149
f 134/218/151 137/229/160 129/200/146
f 135/234/163 119/235/152 136/236/164
f 135/234/163 136/236/164 139/237/161
f 135/238/163 139/230/161 138/232/156
f 135/238/163 138/232/156 137/239/160
f 135/238/163 137/239/160 142/228/159
f 135/238/163 142/228/159 141/227/153
f 135/234/163 141/220/153 140/222/155
f 135/234/163 140/222/155 119/235/152
f 144/240/165 145/241/166 146/242/167
f 145/243/166 148/244/168 146/245/167
f 148/244/168 142/246/159 134/218/151
f 140/247/155 144/240/165 132/203/147
f 133/248/169 148/249/168 134/250/151
f 144/251/165 133/252/169 132/253/147
f 150/254/162 152/255/170 149/256/157
f 151/257/171 154/258/172 152/259/170
f 154/258/172 136/260/164 128/207/148
f 131/261/173 154/262/172 128/263/148
f 149/264/157 131/265/173 130/266/150
f 153/267/174 139/237/161 136/236/164
f 116/168/116 155/88/82 174/199/145
f 116/168/116 173/198/144 114/169/117
f 114/169/117 172/197/143 112/170/118
f 112/170/118 171/194/141 110/171/119
f 108/172/120 171/194/141 170/195/142
f 108/172/120 169/192/139 106/173/121
f 106/173/121 168/193/140 104/174/122
f 104/174/122 167/190/137 102/175/123
f 102/175/123 166/188/135 100/176/124
f 100/176/124 165/1/1 98/177/125
f 98/177/125 164/3/3 96/178/126
f 96/178/126 163/17/17 94/179/127
f 94/179/127 162/31/31 92/180/128
f 92/180/128 161/44/42 90/181/129
f 7/182/130 161/44/42 160/57/53
f 7/183/130 159/64/60 87/184/131
f 87/184/131 158/74/68 85/185/132
f 85/185/132 157/79/73 83/186/133
f 83/186/133 156/82/76 81/187/134
f 81/187/134 155/88/82 1/167/115
f 165/1/1 99/24/24 97/2/2
f 60/7/7 2/72/66 3/8/8
f 122/10/10 121/77/71 91/11/11
f 14/13/13 28/21/21 29/14/14
f 3/8/8 4/22/22 62/16/16
f 163/17/17 164/3/3 97/2/2
f 12/19/19 11/54/50 27/20/20
f 4/22/22 5/32/32 63/23/23
f 63/23/23 5/32/32 6/29/29
f 162/31/31 163/17/17 95/18/18
f 64/30/30 6/29/29 8/34/27
f 22/39/38 21/89/83 31/40/39
f 8/27/27 9/26/26 66/42/41
f 162/31/31 93/12/12 91/11/11
f 66/42/41 9/26/26 10/48/44
f 67/49/45 10/48/44 11/54/50
f 161/44/42 91/11/11 89/56/52
f 11/54/50 12/19/19 69/59/55
f 117/60/56 118/189/136 126/61/57
f 9/26/26 26/28/28 27/20/20
f 12/19/19 13/58/54 70/63/59
f 159/64/60 160/268/53 89/65/52
f 6/29/29 5/32/32 25/33/33
f 13/58/54 14/13/13 71/68/62
f 71/68/62 14/13/13 15/15/15
f 158/74/68 159/64/60 88/66/61
f 19/45/43 30/47/6 31/40/39
f 15/15/15 16/53/49 73/76/70
f 17/5/5 16/53/49 29/14/14
f 16/53/49 17/5/5 74/78/72
f 158/74/68 86/69/63 84/71/65
f 17/5/5 18/4/4 75/80/74
f 97/2/2 123/25/25 122/10/10
f 18/46/4 19/45/43 76/81/75
f 156/82/76 157/79/73 84/71/65
f 19/45/43 20/75/69 77/84/78
f 124/37/36 123/25/25 101/85/79
f 3/8/8 23/41/40 25/33/33
f 20/75/69 21/89/83 78/86/80
f 156/82/76 82/83/77 80/87/81
f 21/89/83 22/39/38 79/90/84
f 22/39/38 2/72/66 60/7/7
f 27/94/20 35/124/91 34/95/86
f 30/97/6 38/269/93 37/98/87
f 26/100/28 25/108/33 33/101/88
f 31/99/39 37/98/87 32/103/90
f 26/105/28 36/270/89 35/106/91
f 25/108/33 23/271/40 32/109/90
f 29/110/14 28/96/21 34/95/86
f 30/112/6 29/110/14 39/111/92
f 37/98/87 45/147/108 24/114/94
f 46/115/95 45/139/108 48/116/96
f 43/118/98 35/124/91 54/119/99
f 46/121/95 50/272/97 52/122/101
f 35/124/91 43/118/98 42/125/103
f 44/126/104 43/137/98 55/127/100
f 33/101/88 32/109/90 24/129/94
f 39/111/92 34/95/86 42/125/103
f 51/140/109 50/273/97 48/141/96
f 51/143/109 53/146/111 52/144/101
f 47/131/102 52/144/101 53/146/111
f 45/147/108 37/98/87 49/142/110
f 38/148/93 39/274/92 53/149/111
f 38/151/93 51/275/109 49/152/110
f 57/154/112 56/276/105 55/155/100
f 59/157/113 58/277/114 56/158/105
f 41/130/106 58/277/114 59/157/113
f 36/160/89 33/278/88 59/161/113
f 36/163/89 57/279/112 54/164/99
f 44/135/104 56/280/105 58/166/114
f 79/90/84 60/7/7 1/167/115
f 78/86/80 79/90/84 116/168/116
f 77/84/78 78/86/80 114/169/117
f 76/81/75 77/84/78 112/170/118
f 75/80/74 76/81/75 110/171/119
f 74/78/72 75/80/74 108/172/120
f 73/76/70 74/78/72 106/173/121
f 72/73/67 73/76/70 104/174/122
f 100/176/124 71/68/62 72/73/67
f 70/63/59 71/68/62 100/176/124
f 69/59/55 70/63/59 98/177/125
f 94/179/127 68/55/51 69/59/55
f 67/49/45 68/55/51 94/179/127
f 90/181/129 66/42/41 67/49/45
f 65/43/34 66/42/41 90/181/129
f 64/30/30 65/35/34 7/183/130
f 85/185/132 63/23/23 64/30/30
f 62/16/16 63/23/23 85/185/132
f 61/9/9 62/16/16 83/186/133
f 60/7/7 61/9/9 81/187/134
f 88/66/61 121/196/71 120/70/64
f 166/188/135 101/85/79 99/24/24
f 167/190/137 103/38/37 101/85/79
f 126/61/57 125/51/47 111/50/46
f 167/190/137 168/193/140 105/36/35
f 107/93/85 125/92/47 124/37/36
f 169/192/139 107/93/85 105/36/35
f 169/192/139 170/195/142 109/91/48
f 171/194/141 111/50/46 109/52/48
f 172/197/143 113/191/138 111/50/46
f 120/70/64 118/189/136 82/83/77
f 173/198/144 115/62/58 113/191/138
f 174/199/145 117/60/56 115/62/58
f 155/88/82 80/87/81 117/60/56
f 129/200/146 130/225/150 122/201/10
f 132/203/147 133/281/169 125/204/47
f 121/206/71 131/282/173 128/207/148
f 127/209/149 132/203/147 126/205/57
f 130/211/150 131/283/173 121/212/71
f 120/208/64 128/207/148 127/214/149
f 124/216/36 134/218/151 129/200/146
f 125/217/47 133/284/169 134/218/151
f 119/219/152 140/247/155 132/203/147
f 141/220/153 145/285/166 143/221/154
f 138/223/156 150/286/162 149/224/157
f 147/226/158 145/287/166 141/227/153
f 137/229/160 138/223/156 130/225/150
f 139/230/161 151/288/171 150/231/162
f 128/207/148 136/260/164 119/233/152
f 134/218/151 142/246/159 137/229/160
f 144/240/165 143/289/154 145/241/166
f 145/243/166 147/290/158 148/244/168
f 148/244/168 147/290/158 142/246/159
f 140/247/155 143/289/154 144/240/165
f 133/248/169 146/291/167 148/249/168
f 144/251/165 146/292/167 133/252/169
f 150/254/162 151/293/171 152/255/170
f 151/257/171 153/294/174 154/258/172
f 154/258/172 153/294/174 136/260/164
f 131/261/173 152/295/170 154/262/172
f 149/264/157 152/296/170 131/265/173
f 153/267/174 151/297/171 139/237/161
f 116/168/116 1/167/115 155/88/82
f 116/168/116 174/199/145 173/198/144
f 114/169/117 173/198/144 172/197/143
f 112/170/118 172/197/143 171/194/141
f 108/172/120 110/171/119 171/194/141
f 108/172/120 170/195/142 169/192/139
f 106/173/121 169/192/139 168/193/140
f 104/174/122 168/193/140 167/190/137
f 102/175/123 167/190/137 166/188/135
f 100/176/124 166/188/135 165/1/1
f 98/177/125 165/1/1 164/3/3
f 96/178/126 164/3/3 163/17/17
f 94/179/127 163/17/17 162/31/31
f 92/180/128 162/31/31 161/44/42
f 7/182/130 90/181/129 161/44/42
f 7/183/130 160/268/53 159/64/60
f 87/184/131 159/64/60 158/74/68
f 85/185/132 158/74/68 157/79/73
f 83/186/133 157/79/73 156/82/76
f 81/187/134 156/82/76 155/88/82
