[gd_scene load_steps=6 format=2]

[ext_resource path="res://scripts/Imp.gd" type="Script" id=1]
[ext_resource path="res://models/imp/model.obj" type="ArrayMesh" id=2]

[sub_resource type="SpatialMaterial" id=1]

render_priority = 0
flags_transparent = false
flags_unshaded = false
flags_vertex_lighting = false
flags_no_depth_test = false
flags_use_point_size = false
flags_world_triplanar = false
flags_fixed_size = false
flags_albedo_tex_force_srgb = false
flags_do_not_receive_shadows = false
flags_disable_ambient_light = false
flags_ensure_correct_normals = false
vertex_color_use_as_albedo = false
vertex_color_is_srgb = false
params_diffuse_mode = 0
params_specular_mode = 0
params_blend_mode = 0
params_cull_mode = 0
params_depth_draw_mode = 0
params_line_width = 1.0
params_point_size = 1.0
params_billboard_mode = 0
params_billboard_keep_scale = false
params_grow = false
params_use_alpha_scissor = false
albedo_color = Color( 0.992157, 0.0117647, 0.0117647, 1 )
metallic = 0.5
metallic_specular = 0.9
metallic_texture_channel = 0
roughness = 0.53
roughness_texture_channel = 0
emission_enabled = false
normal_enabled = false
rim_enabled = true
rim = 0.1
rim_tint = 0.75
clearcoat_enabled = false
anisotropy_enabled = false
ao_enabled = false
depth_enabled = false
subsurf_scatter_enabled = false
transmission_enabled = false
refraction_enabled = false
detail_enabled = false
uv1_scale = Vector3( 1, 1, 1 )
uv1_offset = Vector3( 0, 0, 0 )
uv1_triplanar = false
uv1_triplanar_sharpness = 1.0
uv2_scale = Vector3( 1, 1, 1 )
uv2_offset = Vector3( 0, 0, 0 )
uv2_triplanar = false
uv2_triplanar_sharpness = 1.0
proximity_fade_enable = false
distance_fade_mode = 0
_sections_unfolded = [ "Rim" ]

[sub_resource type="CylinderShape" id=2]

margin = 0.04
radius = 0.474869
height = 0.930387

[sub_resource type="RayShape" id=3]

margin = 0.04
length = 0.96
slips_on_slope = false

[node name="Imp" type="RigidBody"]
input_ray_pickable = true
input_capture_on_drag = false
collision_layer = 4
collision_mask = 215
mode = 2
mass = 2.04082
gravity_scale = 4.0
custom_integrator = false
continuous_cd = false
contacts_reported = 3
contact_monitor = true
sleeping = false
can_sleep = true
axis_lock_linear_x = false
axis_lock_linear_y = false
axis_lock_linear_z = false
axis_lock_angular_x = false
axis_lock_angular_y = false
axis_lock_angular_z = false
linear_velocity = Vector3( 0, 0, 0 )
linear_damp = -1.0
angular_velocity = Vector3( 0, 0, 0 )
angular_damp = -1.0
script = ExtResource( 1 )
_sections_unfolded = [ "Axis Lock", "Collision", "Transform", "collision" ]
sight_distance = 16.0

[node name="MeshInstance" type="MeshInstance" parent="."]
layers = 1
material_override = null
cast_shadow = 1
extra_cull_margin = 0.0
use_in_baked_light = false
lod_min_distance = 0.0
lod_min_hysteresis = 0.0
lod_max_distance = 0.0
lod_max_hysteresis = 0.0
mesh = ExtResource( 2 )
skeleton = NodePath("..")
material/0 = SubResource( 1 )
_sections_unfolded = [ "Transform", "material" ]

[node name="CollisionCylinder" type="CollisionShape" parent="."]
shape = SubResource( 2 )
disabled = false
_sections_unfolded = [ "Transform", "shape" ]

[node name="CollisionRay" type="CollisionShape" parent="."]
transform = Transform( 1, 0, 0, 0, -4.37114e-08, -1, 0, 1, -4.37114e-08, 0, 0, 0 )
shape = SubResource( 3 )
disabled = false
_sections_unfolded = [ "Transform", "shape" ]

[connection signal="body_entered" from="." to="." method="_on_Imp_body_entered"]
