# Blender v2.79 (sub 0) OBJ File: 'imp.blend'
# www.blender.org
v 0.000000 0.000000 -0.498823
v -0.184004 -0.361804 -0.222433
v -0.425325 0.138194 -0.222433
v 0.000000 0.347213 -0.222431
v 0.425325 0.138194 -0.222433
v 0.184004 -0.361804 -0.222432
v -0.340260 -0.138194 0.224787
v -0.262863 0.311804 0.224787
v 0.262863 0.311804 0.224787
v 0.340260 -0.138194 0.224787
v -0.000000 -0.377213 0.184785
v -0.000000 -0.000000 0.421177
v -0.249998 0.081228 -0.424150
v -0.154506 -0.212661 -0.424150
v -0.404506 -0.131434 -0.261692
v 0.000000 -0.425324 -0.261691
v 0.154506 -0.212661 -0.424150
v 0.000000 0.262865 -0.424149
v -0.249998 0.294095 -0.261691
v 0.249998 0.081228 -0.424150
v 0.249999 0.294095 -0.261691
v 0.404506 -0.131434 -0.261691
v -0.054077 -0.435529 0.001177
v 0.054077 -0.435529 0.001177
v -0.500000 0.000000 0.001177
v -0.283156 -0.293893 0.001177
v -0.154506 0.375529 0.001177
v -0.404508 0.293893 0.001177
v 0.404508 0.293893 0.001177
v 0.154506 0.375529 0.001177
v 0.283156 -0.293893 0.001177
v 0.500000 0.000000 0.001177
v -0.249999 -0.274095 0.194045
v -0.404506 0.131434 0.264046
v -0.000000 0.325324 0.264045
v 0.404506 0.131434 0.264046
v 0.249998 -0.274095 0.194045
v -0.249998 -0.081228 0.376504
v -0.000000 -0.232865 0.336503
v -0.154506 0.242661 0.386504
v 0.154506 0.242661 0.386504
v 0.249998 -0.081228 0.376505
v -0.760346 0.074934 0.041759
v -0.717598 0.146211 -0.077110
v 0.639257 0.229003 0.041760
v 0.717598 0.146211 -0.077110
v -0.639257 0.229003 0.041760
v 0.760346 0.074934 0.041759
v 0.701783 0.141074 0.174430
v -0.701783 0.141074 0.174430
v -0.852343 0.543347 0.074743
v 0.852343 0.543347 0.074744
vt 0.818181 0.000000
vt 0.772726 0.078731
vt 0.863635 0.078731
vt 0.727272 0.157461
vt 0.681818 0.078731
vt 0.636363 0.157461
vt 0.090909 0.000000
vt 0.045454 0.078731
vt 0.136363 0.078731
vt 0.272727 0.000000
vt 0.227273 0.078731
vt 0.318182 0.078731
vt 0.454545 0.000000
vt 0.409090 0.078731
vt 0.500000 0.078731
vt 0.681818 0.236191
vt 0.909090 0.157461
vt 0.818181 0.157461
vt 0.863635 0.236191
vt 0.181818 0.157461
vt 0.090909 0.157461
vt 0.136363 0.236191
vt 0.363636 0.157461
vt 0.272727 0.157461
vt 0.318182 0.236191
vt 0.545454 0.157461
vt 0.454545 0.157461
vt 0.500000 0.236191
vt 0.772726 0.236191
vt 0.227273 0.236191
vt 0.590909 0.236191
vt 0.818181 0.314921
vt 0.727272 0.314921
vt 0.772726 0.393651
vt 1.000000 0.314921
vt 0.909091 0.314921
vt 0.954545 0.393651
vt 0.272727 0.314921
vt 0.181818 0.314921
vt 0.227273 0.393651
vt 0.454545 0.314921
vt 0.363636 0.314921
vt 0.409090 0.393651
vt 0.636363 0.314921
vt 0.545454 0.314921
vt 0.590909 0.393651
vt 0.500000 0.393651
vt 0.545454 0.472382
vt 0.318182 0.393651
vt 0.363636 0.472382
vt 0.136363 0.393651
vt 0.181818 0.472382
vt 0.090909 0.314921
vt 0.863635 0.393651
vt 0.909090 0.472382
vt 0.681818 0.393651
vt 0.727272 0.472382
vt 0.409090 0.236191
vt 0.954545 0.236191
vt 0.045454 0.236191
vt 0.000000 0.157461
vt 0.590909 0.078731
vt 0.636363 0.000000
vt 0.363636 0.157461
vt 0.409090 0.236191
vt 0.318182 0.236191
vt 0.409090 0.236191
vt 0.363636 0.314921
vt 0.363636 0.157461
vt 0.318182 0.236191
vt 0.363636 0.314921
vt 0.954545 0.236191
vt 0.909091 0.314921
vt 0.863635 0.236191
vt 0.909091 0.314921
vt 0.863635 0.236191
vt 0.909090 0.157461
vt 0.909090 0.157461
vt 0.045454 0.236191
vt 0.000000 0.157461
vt 0.045454 0.236191
vn 0.0000 0.0000 -1.0000
vn -0.3336 -0.4543 -0.8260
vn -0.5031 0.1896 -0.8431
vn -0.5205 -0.8014 -0.2946
vn 0.0000 -0.9019 -0.4318
vn 0.0000 0.6508 -0.7592
vn 0.5031 0.1896 -0.8431
vn 0.3336 -0.4543 -0.8260
vn -0.2520 -0.9585 0.1335
vn -0.7240 0.2973 -0.6224
vn -0.8125 -0.3777 -0.4440
vn -0.6985 -0.7156 0.0063
vn 0.0000 0.9593 -0.2823
vn -0.4151 0.7785 -0.4707
vn -0.1540 0.9880 -0.0005
vn 0.7240 0.2973 -0.6224
vn 0.4151 0.7785 -0.4707
vn 0.4141 0.9097 -0.0322
vn 0.5205 -0.8014 -0.2946
vn 0.8125 -0.3777 -0.4440
vn 0.6815 -0.7273 0.0812
vn -0.6815 -0.7273 0.0812
vn 0.1540 0.9880 -0.0005
vn 0.2520 -0.9585 0.1335
vn -0.7741 -0.4619 0.4329
vn -0.5469 -0.7156 0.4345
vn -0.4459 -0.2959 0.8448
vn -0.3997 0.8258 0.3977
vn -0.6521 0.1771 0.7371
vn -0.2420 0.5089 0.8261
vn 0.3997 0.8258 0.3977
vn 0.0000 0.9257 0.3781
vn 0.2420 0.5089 0.8261
vn 0.7741 -0.4619 0.4329
vn 0.6521 0.1771 0.7371
vn 0.4459 -0.2959 0.8448
vn 0.0000 -0.8525 0.5227
vn 0.5469 -0.7156 0.4345
vn 0.0000 -0.5959 0.8031
vn 0.0000 -0.1020 0.9948
vn 0.6985 -0.7156 0.0063
vn -0.4141 0.9097 -0.0322
vn 0.4981 -0.0579 -0.8652
vn 0.7164 -0.6975 0.0140
vn -0.2611 0.9652 -0.0128
vn 0.3685 0.9272 0.0669
vn 0.3574 -0.1524 0.9214
vn 0.2611 0.9652 -0.0128
vn -0.3574 -0.1524 0.9214
vn -0.7164 -0.6975 0.0140
vn -0.3685 0.9272 0.0669
vn -0.4981 -0.0579 -0.8652
s 1
f 1/1/1 14/2/2 13/3/3
f 2/4/4 14/5/2 16/6/5
f 1/7/1 13/8/3 18/9/6
f 1/10/1 18/11/6 20/12/7
f 1/13/1 20/14/7 17/15/8
f 2/4/4 16/6/5 23/16/9
f 3/17/10 15/18/11 25/19/12
f 4/20/13 19/21/14 27/22/15
f 5/23/16 21/24/17 29/25/18
f 6/26/19 22/27/20 31/28/21
f 2/4/4 23/16/9 26/29/22
f 4/20/13 27/22/15 30/30/23
f 6/26/19 31/28/21 24/31/24
f 7/32/25 33/33/26 38/34/27
f 8/35/28 34/36/29 40/37/30
f 9/38/31 35/39/32 41/40/33
f 10/41/34 36/42/35 42/43/36
f 11/44/37 37/45/38 39/46/39
f 39/46/39 42/47/36 12/48/40
f 39/46/39 37/45/38 42/47/36
f 37/45/38 10/41/34 42/47/36
f 42/43/36 41/49/33 12/50/40
f 42/43/36 36/42/35 41/49/33
f 36/42/35 9/38/31 41/49/33
f 41/40/33 40/51/30 12/52/40
f 41/40/33 35/39/32 40/51/30
f 35/39/32 8/53/28 40/51/30
f 40/37/30 38/54/27 12/55/40
f 40/37/30 34/36/29 38/54/27
f 34/36/29 7/32/25 38/54/27
f 38/34/27 39/56/39 12/57/40
f 38/34/27 33/33/26 39/56/39
f 33/33/26 11/44/37 39/56/39
f 24/31/24 37/45/38 11/44/37
f 24/31/24 31/28/21 37/45/38
f 31/28/21 10/41/34 37/45/38
f 32/58/41 36/42/35 10/41/34
f 29/25/18 9/38/31 36/42/35
f 30/30/23 35/39/32 9/38/31
f 30/30/23 27/22/15 35/39/32
f 27/22/15 8/53/28 35/39/32
f 28/59/42 34/36/29 8/35/28
f 25/19/12 7/32/25 34/36/29
f 26/29/22 33/33/26 7/32/25
f 26/29/22 23/16/9 33/33/26
f 23/16/9 11/44/37 33/33/26
f 31/28/21 32/58/41 10/41/34
f 31/28/21 22/27/20 32/58/41
f 22/27/20 5/23/16 32/58/41
f 29/25/18 30/30/23 9/38/31
f 29/25/18 21/24/17 30/30/23
f 21/24/17 4/20/13 30/30/23
f 27/22/15 28/60/42 8/53/28
f 27/22/15 19/21/14 28/60/42
f 19/21/14 3/61/10 28/60/42
f 25/19/12 26/29/22 7/32/25
f 25/19/12 15/18/11 26/29/22
f 15/18/11 2/4/4 26/29/22
f 23/16/9 24/31/24 11/44/37
f 23/16/9 16/6/5 24/31/24
f 16/6/5 6/26/19 24/31/24
f 17/15/8 22/27/20 6/26/19
f 17/15/8 20/14/7 22/27/20
f 20/14/7 5/23/16 22/27/20
f 20/12/7 21/24/17 5/23/16
f 20/12/7 18/11/6 21/24/17
f 18/11/6 4/20/13 21/24/17
f 18/9/6 19/21/14 4/20/13
f 18/9/6 13/8/3 19/21/14
f 13/8/3 3/61/10 19/21/14
f 16/6/5 17/62/8 6/26/19
f 16/6/5 14/5/2 17/62/8
f 14/5/2 1/63/1 17/62/8
f 13/3/3 15/18/11 3/17/10
f 13/3/3 14/2/2 15/18/11
f 14/2/2 2/4/4 15/18/11
s 2
f 32/58/41 46/64/43 48/65/44
f 5/23/16 45/66/45 46/64/43
f 48/65/44 46/64/43 52/67/46
f 36/42/35 45/66/45 29/25/18
f 32/58/41 49/68/47 36/42/35
f 46/64/43 45/66/45 52/69/46
f 45/66/45 49/68/47 52/70/46
f 49/68/47 48/65/44 52/71/46
f 32/58/41 5/23/16 46/64/43
f 5/23/16 29/25/18 45/66/45
f 36/42/35 49/68/47 45/66/45
f 32/58/41 48/65/44 49/68/47
s 3
f 34/36/29 47/72/48 50/73/49
f 25/19/12 50/73/49 43/74/50
f 50/73/49 47/72/48 51/75/51
f 43/74/50 50/73/49 51/76/51
f 44/77/52 43/74/50 51/78/51
f 25/19/12 44/77/52 3/17/10
f 3/61/10 47/79/48 28/60/42
f 47/79/48 44/80/52 51/81/51
f 34/36/29 28/59/42 47/72/48
f 25/19/12 34/36/29 50/73/49
f 25/19/12 43/74/50 44/77/52
f 3/61/10 44/80/52 47/79/48
