# Blender v2.79 (sub 0) OBJ File: 'bench.blend'
# www.blender.org
v -0.625000 -0.375000 1.000000
v -0.625000 -0.500000 1.000000
v -0.625000 -0.375000 -1.000000
v -0.625000 -0.500000 -1.000000
v 0.625000 -0.375000 1.000000
v 0.625000 -0.500000 1.000000
v 0.625000 -0.375000 -1.000000
v 0.625000 -0.500000 -1.000000
v -0.625000 -0.375000 0.000000
v -0.625000 -0.500000 0.000000
v 0.625000 -0.375000 0.000000
v 0.625000 -0.500000 0.000000
v 0.000000 -0.375000 -1.000000
v 0.000000 -0.500000 -1.000000
v 0.000000 -0.375000 1.000000
v 0.000000 -0.500000 1.000000
v 0.000000 -0.500000 0.000000
v 0.000000 -0.375000 0.000000
v -0.375000 -0.500000 0.125000
v -0.500000 -0.500000 0.125000
v -0.500000 -0.500000 0.875000
v -0.375000 -0.500000 0.875000
v -0.375000 -0.500000 -0.875000
v -0.500000 -0.500000 -0.875000
v -0.500000 -0.500000 -0.125000
v -0.375000 -0.500000 -0.125000
v 0.500000 -0.500000 -0.875000
v 0.375000 -0.500000 -0.875000
v 0.375000 -0.500000 -0.125000
v 0.500000 -0.500000 -0.125000
v 0.500000 -0.500000 0.125000
v 0.375000 -0.500000 0.125000
v 0.375000 -0.500000 0.875000
v 0.500000 -0.500000 0.875000
v -0.500000 -1.000000 0.125000
v -0.375000 -1.000000 0.125000
v -0.500000 -1.000000 0.875000
v -0.375000 -1.000000 0.875000
v -0.500000 -1.000000 -0.875000
v -0.375000 -1.000000 -0.875000
v -0.500000 -1.000000 -0.125000
v -0.375000 -1.000000 -0.125000
v 0.375000 -1.000000 -0.875000
v 0.500000 -1.000000 -0.875000
v 0.375000 -1.000000 -0.125000
v 0.500000 -1.000000 -0.125000
v 0.375000 -1.000000 0.125000
v 0.500000 -1.000000 0.125000
v 0.375000 -1.000000 0.875000
v 0.500000 -1.000000 0.875000
vt 0.962963 0.000000
vt 0.925926 0.285714
vt 0.962963 0.285714
vt 0.925926 0.571429
vt 0.888889 0.750000
vt 0.925926 0.750000
vt 0.888889 0.571429
vt 0.925926 0.285714
vt 0.888889 0.285714
vt 0.925926 0.928571
vt 0.962963 0.750000
vt 0.925926 0.750000
vt 0.555555 0.571429
vt 0.740740 0.285714
vt 0.555555 0.285714
vt 0.037037 0.785714
vt 0.000000 1.000000
vt 0.037037 1.000000
vt 1.000000 0.214286
vt 0.962963 0.428571
vt 1.000000 0.428571
vt 0.740740 0.000000
vt 0.555555 0.000000
vt 0.925926 0.000000
vt 0.888889 0.000000
vt 0.925926 0.571429
vt 0.962963 0.571429
vt 0.370370 0.285714
vt 0.370370 0.000000
vt 1.000000 0.571429
vt 0.962963 0.785714
vt 1.000000 0.785714
vt 0.962963 0.214286
vt 1.000000 0.000000
vt 0.962963 0.000000
vt 0.370370 0.571428
vt 0.962963 0.571429
vt 0.925926 0.571429
vt 0.888889 0.928571
vt 0.925926 0.928571
vt 0.888889 0.428571
vt 0.740740 0.214286
vt 0.740740 0.428571
vt 0.000000 0.285714
vt 0.074074 0.250000
vt 0.037037 0.250000
vt 0.037037 0.035714
vt 0.000000 0.000000
vt 0.074074 0.035714
vt 0.185185 0.000000
vt 0.185185 0.285714
vt 0.074074 0.928571
vt 0.111111 0.785714
vt 0.074074 0.785714
vt 0.000000 0.571428
vt 0.074074 0.535714
vt 0.037037 0.535714
vt 0.037037 0.321429
vt 0.074074 0.321429
vt 0.185185 0.571429
vt 0.888889 0.785714
vt 0.740741 0.571429
vt 0.740741 0.785714
vt 0.370370 0.571429
vt 0.296296 0.535714
vt 0.296296 0.321429
vt 0.370370 0.285714
vt 0.333333 0.321429
vt 0.333333 0.535714
vt 0.037037 0.928571
vt 0.074074 0.785714
vt 0.037037 0.785714
vt 0.296296 0.250000
vt 0.296296 0.035714
vt 0.370370 0.000000
vt 0.333333 0.035714
vt 0.333333 0.250000
vt 0.444444 0.785714
vt 0.296296 0.571429
vt 0.296296 0.785714
vt 0.148148 0.928571
vt 0.185185 0.785714
vt 0.148148 0.785714
vt 0.111111 0.928571
vt 0.148148 0.785714
vt 0.111111 0.785714
vt 0.740741 0.785714
vt 0.592593 0.571429
vt 0.592593 0.785714
vt 0.814815 0.571429
vt 0.851851 0.428571
vt 0.814815 0.428571
vt 0.592593 0.785714
vt 0.444444 0.571429
vt 0.444444 0.785714
vt 0.777777 0.571429
vt 0.814814 0.428571
vt 0.777777 0.428571
vt 0.185185 0.928571
vt 0.222222 0.785714
vt 0.185185 0.785714
vt 0.296296 0.785714
vt 0.148148 0.571429
vt 0.148148 0.785714
vt 0.740740 0.571429
vt 0.777777 0.428571
vt 0.740740 0.428571
vt 0.148148 0.785714
vt 0.000000 0.571429
vt 0.000000 0.785714
vt 0.888889 0.214286
vt 0.740740 0.000000
vt 0.740740 0.214286
vt 0.925926 0.000000
vt 0.888889 0.571429
vt 0.925926 0.571429
vt 0.962963 0.928571
vt 0.740740 0.571429
vt 0.000000 0.785714
vt 0.962963 0.214286
vt 0.962963 0.571429
vt 1.000000 0.214286
vt 0.888889 0.214286
vt 0.111111 0.928571
vt 0.888889 0.571429
vt 0.074074 0.928571
vt 0.444444 0.571429
vt 0.185185 0.928571
vt 0.148148 0.928571
vt 0.740741 0.571429
vt 0.851852 0.571429
vt 0.592593 0.571429
vt 0.814815 0.571429
vt 0.222222 0.928571
vt 0.296296 0.571429
vt 0.777777 0.571429
vt 0.148148 0.571429
vt 0.888889 0.000000
vn -1.0000 0.0000 0.0000
vn 0.0000 0.0000 -1.0000
vn 1.0000 0.0000 0.0000
vn 0.0000 0.0000 1.0000
vn 0.0000 1.0000 0.0000
vn 0.0000 -1.0000 0.0000
s off
f 3/1/1 10/2/1 9/3/1
f 7/4/2 14/5/2 13/6/2
f 5/7/3 12/8/3 11/9/3
f 1/10/4 16/11/4 15/12/4
f 15/13/5 11/14/5 18/15/5
f 50/16/6 47/17/6 48/18/6
f 46/19/6 43/20/6 44/21/6
f 18/15/5 7/22/5 13/23/5
f 11/9/3 8/24/3 7/25/3
f 9/3/1 2/26/1 1/27/1
f 9/28/5 13/23/5 3/29/5
f 42/30/6 39/31/6 40/32/6
f 38/33/6 35/34/6 36/35/6
f 1/36/5 18/15/5 9/28/5
f 15/12/4 6/37/4 5/38/4
f 13/6/2 4/39/2 3/40/2
f 46/41/3 27/42/3 30/43/3
f 10/44/6 19/45/6 20/46/6
f 10/44/6 21/47/6 2/48/6
f 2/48/6 22/49/6 16/50/6
f 16/50/6 19/45/6 17/51/6
f 49/52/4 34/53/4 33/54/4
f 4/55/6 23/56/6 24/57/6
f 4/55/6 25/58/6 10/44/6
f 10/44/6 26/59/6 17/51/6
f 17/51/6 23/56/6 14/60/6
f 42/61/3 23/62/3 26/63/3
f 8/64/6 28/65/6 14/60/6
f 14/60/6 29/66/6 17/51/6
f 12/67/6 29/66/6 30/68/6
f 12/67/6 27/69/6 8/64/6
f 45/70/4 30/71/4 29/72/4
f 12/67/6 32/73/6 17/51/6
f 17/51/6 33/74/6 16/50/6
f 6/75/6 33/74/6 34/76/6
f 6/75/6 31/77/6 12/67/6
f 50/78/3 31/79/3 34/80/3
f 36/81/2 20/82/2 19/83/2
f 40/84/2 24/85/2 23/86/2
f 35/87/1 21/88/1 20/89/1
f 44/90/2 28/91/2 27/92/2
f 39/93/1 25/94/1 24/95/1
f 48/96/2 32/97/2 31/98/2
f 37/99/4 22/100/4 21/101/4
f 43/102/1 29/103/1 28/104/1
f 41/105/4 26/106/4 25/107/4
f 47/108/1 33/109/1 32/110/1
f 38/111/3 19/112/3 22/113/3
f 3/1/1 4/114/1 10/2/1
f 7/4/2 8/115/2 14/5/2
f 5/7/3 6/116/3 12/8/3
f 1/10/4 2/117/4 16/11/4
f 15/13/5 5/118/5 11/14/5
f 50/16/6 49/119/6 47/17/6
f 46/19/6 45/120/6 43/20/6
f 18/15/5 11/14/5 7/22/5
f 11/9/3 12/8/3 8/24/3
f 9/3/1 10/2/1 2/26/1
f 9/28/5 18/15/5 13/23/5
f 42/30/6 41/121/6 39/31/6
f 38/33/6 37/122/6 35/34/6
f 1/36/5 15/13/5 18/15/5
f 15/12/4 16/11/4 6/37/4
f 13/6/2 14/5/2 4/39/2
f 46/41/3 44/123/3 27/42/3
f 10/44/6 17/51/6 19/45/6
f 10/44/6 20/46/6 21/47/6
f 2/48/6 21/47/6 22/49/6
f 16/50/6 22/49/6 19/45/6
f 49/52/4 50/124/4 34/53/4
f 4/55/6 14/60/6 23/56/6
f 4/55/6 24/57/6 25/58/6
f 10/44/6 25/58/6 26/59/6
f 17/51/6 26/59/6 23/56/6
f 42/61/3 40/125/3 23/62/3
f 8/64/6 27/69/6 28/65/6
f 14/60/6 28/65/6 29/66/6
f 12/67/6 17/51/6 29/66/6
f 12/67/6 30/68/6 27/69/6
f 45/70/4 46/126/4 30/71/4
f 12/67/6 31/77/6 32/73/6
f 17/51/6 32/73/6 33/74/6
f 6/75/6 16/50/6 33/74/6
f 6/75/6 34/76/6 31/77/6
f 50/78/3 48/127/3 31/79/3
f 36/81/2 35/128/2 20/82/2
f 40/84/2 39/129/2 24/85/2
f 35/87/1 37/130/1 21/88/1
f 44/90/2 43/131/2 28/91/2
f 39/93/1 41/132/1 25/94/1
f 48/96/2 47/133/2 32/97/2
f 37/99/4 38/134/4 22/100/4
f 43/102/1 45/135/1 29/103/1
f 41/105/4 42/136/4 26/106/4
f 47/108/1 49/137/1 33/109/1
f 38/111/3 36/138/3 19/112/3
