# Blender v2.79 (sub 0) OBJ File: 'girder.blend'
# www.blender.org
mtllib robot.mtl
g Robot_Cylinder.001
v 0.000000 0.450961 -0.254167
v 0.000000 -0.049039 -0.441667
v 0.000000 0.200961 -0.629166
v 0.085352 -0.049039 -0.433260
v 0.121931 0.200961 -0.617157
v 0.167424 -0.049039 -0.408364
v 0.239177 0.200961 -0.581591
v 0.243062 -0.049039 -0.367935
v 0.347231 0.200961 -0.523835
v 0.309359 -0.049039 -0.313526
v 0.441942 0.200961 -0.446108
v 0.363768 -0.049039 -0.247228
v 0.519669 0.200961 -0.351398
v 0.404197 -0.049039 -0.171591
v 0.577425 0.200961 -0.243344
v 0.429094 -0.049039 -0.089519
v 0.612991 0.200961 -0.126098
v 0.437500 -0.049039 -0.004167
v 0.625000 0.200961 -0.004167
v 0.429094 -0.049039 0.081185
v 0.612991 0.200961 0.117765
v 0.404197 -0.049039 0.163257
v 0.577425 0.200961 0.235011
v 0.363768 -0.049039 0.238895
v 0.519669 0.200961 0.343065
v 0.309359 -0.049039 0.305193
v 0.441942 0.200961 0.437775
v 0.243062 -0.049039 0.359601
v 0.347231 0.200961 0.515502
v 0.167424 -0.049039 0.400031
v 0.239177 0.200961 0.573258
v 0.085352 -0.049039 0.424927
v 0.121931 0.200961 0.608824
v -0.000000 -0.049039 0.433333
v -0.000000 0.200961 0.620834
v -0.085352 -0.049039 0.424927
v -0.121932 0.200961 0.608824
v -0.167424 -0.049039 0.400031
v -0.239177 0.200961 0.573258
v -0.243062 -0.049039 0.359601
v -0.347232 0.200961 0.515502
v -0.309359 -0.049039 0.305192
v -0.441942 0.200961 0.437775
v -0.363768 -0.049039 0.238895
v -0.519669 0.200961 0.343065
v -0.404197 -0.049039 0.163257
v -0.577425 0.200961 0.235010
v -0.429094 -0.049039 0.081185
v -0.612991 0.200961 0.117764
v -0.437500 -0.049039 -0.004167
v -0.625000 0.200961 -0.004167
v -0.429093 -0.049039 -0.089519
v -0.612991 0.200961 -0.126099
v -0.404197 -0.049039 -0.171591
v -0.577424 0.200961 -0.243344
v -0.363768 -0.049039 -0.247229
v -0.519668 0.200961 -0.351399
v -0.309359 -0.049039 -0.313526
v -0.441941 0.200961 -0.446109
v -0.243061 -0.049039 -0.367935
v -0.347231 0.200961 -0.523835
v -0.167423 -0.049039 -0.408364
v -0.239176 0.200961 -0.581592
v -0.085351 -0.049039 -0.433260
v -0.121931 0.200961 -0.617157
v 0.054869 -0.799039 -0.280013
v 0.000000 -0.799039 -0.004167
v 0.000000 -0.799039 -0.285417
v 0.107630 -0.799039 -0.264008
v 0.156254 -0.799039 -0.238017
v 0.198874 -0.799039 -0.203040
v 0.233851 -0.799039 -0.160421
v 0.259841 -0.799039 -0.111796
v 0.275846 -0.799039 -0.059036
v 0.281250 -0.799039 -0.004167
v 0.275846 -0.799039 0.050702
v 0.259841 -0.799039 0.103463
v 0.233851 -0.799039 0.152088
v 0.198874 -0.799039 0.194707
v 0.156254 -0.799039 0.229684
v 0.107630 -0.799039 0.255675
v 0.054869 -0.799039 0.271679
v -0.000000 -0.799039 0.277083
v -0.054869 -0.799039 0.271679
v -0.107630 -0.799039 0.255674
v -0.156254 -0.799039 0.229684
v -0.198874 -0.799039 0.194707
v -0.233851 -0.799039 0.152087
v -0.259841 -0.799039 0.103463
v -0.275846 -0.799039 0.050702
v -0.281250 -0.799039 -0.004167
v -0.275846 -0.799039 -0.059036
v -0.259841 -0.799039 -0.111797
v -0.233851 -0.799039 -0.160421
v -0.198874 -0.799039 -0.203041
v -0.156254 -0.799039 -0.238018
v -0.107629 -0.799039 -0.264008
v -0.054869 -0.799039 -0.280013
v 0.000000 0.325961 -0.254167
v 0.000000 0.550961 -0.379167
v 0.048773 0.325961 -0.249363
v 0.095671 0.325961 -0.235137
v 0.138893 0.325961 -0.212034
v 0.176777 0.325961 -0.180943
v 0.207867 0.325961 -0.143059
v 0.230970 0.325961 -0.099838
v 0.245196 0.325961 -0.052939
v 0.250000 0.325961 -0.004167
v 0.245196 0.325961 0.044606
v 0.230970 0.325961 0.091504
v 0.207867 0.325961 0.134726
v 0.176777 0.325961 0.172610
v 0.138893 0.325961 0.203701
v 0.095671 0.325961 0.226803
v 0.048773 0.325961 0.241030
v -0.000000 0.325961 0.245833
v -0.048773 0.325961 0.241030
v -0.095671 0.325961 0.226803
v -0.138893 0.325961 0.203701
v -0.176777 0.325961 0.172610
v -0.207867 0.325961 0.134726
v -0.230970 0.325961 0.091504
v -0.245196 0.325961 0.044606
v -0.250000 0.325961 -0.004167
v -0.245196 0.325961 -0.052939
v -0.230970 0.325961 -0.099838
v -0.207867 0.325961 -0.143059
v -0.176776 0.325961 -0.180944
v -0.138892 0.325961 -0.212034
v -0.095670 0.325961 -0.235137
v -0.048772 0.325961 -0.249363
v 0.000000 0.677836 -0.440667
v 0.048773 0.450961 -0.249363
v 0.095671 0.450961 -0.235137
v 0.138893 0.450961 -0.212034
v 0.176777 0.450961 -0.180943
v 0.207867 0.450961 -0.143059
v 0.230970 0.450961 -0.099838
v 0.245196 0.450961 -0.052939
v 0.250000 0.450961 -0.004167
v 0.245196 0.450961 0.044606
v 0.230970 0.450961 0.091504
v 0.207867 0.450961 0.134726
v 0.176777 0.450961 0.172610
v 0.138893 0.450961 0.203701
v 0.095671 0.450961 0.226803
v 0.048773 0.450961 0.241030
v -0.000000 0.450961 0.245833
v -0.048773 0.450961 0.241030
v -0.095671 0.450961 0.226803
v -0.138893 0.450961 0.203701
v -0.176777 0.450961 0.172610
v -0.207867 0.450961 0.134726
v -0.230970 0.450961 0.091504
v -0.245196 0.450961 0.044606
v -0.250000 0.450961 -0.004167
v -0.245196 0.450961 -0.052939
v -0.230970 0.450961 -0.099838
v -0.207867 0.450961 -0.143059
v -0.176776 0.450961 -0.180944
v -0.138892 0.450961 -0.212034
v -0.095670 0.450961 -0.235137
v -0.048772 0.450961 -0.249363
v 0.000000 0.799086 -0.440667
v 0.073159 0.550961 -0.371961
v 0.143506 0.550961 -0.350621
v 0.208339 0.550961 -0.315968
v 0.265165 0.550961 -0.269332
v 0.311801 0.550961 -0.212505
v 0.346455 0.550961 -0.147673
v 0.367794 0.550961 -0.077325
v 0.375000 0.550961 -0.004167
v 0.367794 0.550961 0.068992
v 0.346455 0.550961 0.139340
v 0.311801 0.550961 0.204172
v 0.265165 0.550961 0.260998
v 0.208339 0.550961 0.307635
v 0.143506 0.550961 0.342288
v 0.073159 0.550961 0.363628
v -0.000000 0.550961 0.370833
v -0.073159 0.550961 0.363628
v -0.143506 0.550961 0.342288
v -0.208339 0.550961 0.307634
v -0.265165 0.550961 0.260998
v -0.311801 0.550961 0.204172
v -0.346455 0.550961 0.139339
v -0.367795 0.550961 0.068992
v -0.375000 0.550961 -0.004167
v -0.367794 0.550961 -0.077326
v -0.346455 0.550961 -0.147673
v -0.311801 0.550961 -0.212506
v -0.265165 0.550961 -0.269332
v -0.208338 0.550961 -0.315968
v -0.143506 0.550961 -0.350622
v -0.073158 0.550961 -0.371961
v 0.000000 0.925961 -0.392967
v 0.085157 0.677836 -0.432279
v 0.167041 0.677836 -0.407440
v 0.242506 0.677836 -0.367103
v 0.308652 0.677836 -0.312819
v 0.362937 0.677836 -0.246673
v 0.403273 0.677836 -0.171208
v 0.428113 0.677836 -0.089324
v 0.436500 0.677836 -0.004167
v 0.428113 0.677836 0.080990
v 0.403273 0.677836 0.162875
v 0.362937 0.677836 0.238340
v 0.308652 0.677836 0.304486
v 0.242506 0.677836 0.358770
v 0.167041 0.677836 0.399107
v 0.085157 0.677836 0.423946
v -0.000000 0.677836 0.432333
v -0.085157 0.677836 0.423946
v -0.167041 0.677836 0.399107
v -0.242507 0.677836 0.358770
v -0.308652 0.677836 0.304485
v -0.362937 0.677836 0.238340
v -0.403274 0.677836 0.162874
v -0.428113 0.677836 0.080990
v -0.436500 0.677836 -0.004167
v -0.428113 0.677836 -0.089324
v -0.403273 0.677836 -0.171208
v -0.362936 0.677836 -0.246673
v -0.308652 0.677836 -0.312819
v -0.242506 0.677836 -0.367103
v -0.167041 0.677836 -0.407440
v -0.085156 0.677836 -0.432280
v 0.000000 1.038461 -0.287667
v 0.085157 0.799086 -0.432279
v 0.167041 0.799086 -0.407440
v 0.242506 0.799086 -0.367103
v 0.308652 0.799086 -0.312819
v 0.362937 0.799086 -0.246673
v 0.403273 0.799086 -0.171208
v 0.428113 0.799086 -0.089324
v 0.436500 0.799086 -0.004167
v 0.428113 0.799086 0.080990
v 0.403273 0.799086 0.162875
v 0.362937 0.799086 0.238340
v 0.308652 0.799086 0.304486
v 0.242506 0.799086 0.358770
v 0.167041 0.799086 0.399107
v 0.085157 0.799086 0.423946
v -0.000000 0.799086 0.432333
v -0.085157 0.799086 0.423946
v -0.167041 0.799086 0.399107
v -0.242507 0.799086 0.358770
v -0.308652 0.799086 0.304485
v -0.362937 0.799086 0.238340
v -0.403274 0.799086 0.162874
v -0.428113 0.799086 0.080990
v -0.436500 0.799086 -0.004167
v -0.428113 0.799086 -0.089324
v -0.403273 0.799086 -0.171208
v -0.362936 0.799086 -0.246673
v -0.308652 0.799086 -0.312819
v -0.242506 0.799086 -0.367103
v -0.167041 0.799086 -0.407440
v -0.085156 0.799086 -0.432280
v 0.011615 1.100961 -0.122093
v 0.075851 0.925961 -0.385496
v 0.148787 0.925961 -0.363371
v 0.216006 0.925961 -0.327442
v 0.274923 0.925961 -0.279090
v 0.323275 0.925961 -0.220172
v 0.359204 0.925961 -0.152954
v 0.381329 0.925961 -0.080018
v 0.388800 0.925961 -0.004167
v 0.381329 0.925961 0.071684
v 0.359204 0.925961 0.144621
v 0.323275 0.925961 0.211839
v 0.274923 0.925961 0.270757
v 0.216006 0.925961 0.319109
v 0.148787 0.925961 0.355038
v 0.075851 0.925961 0.377163
v -0.000000 0.925961 0.384633
v -0.075851 0.925961 0.377163
v -0.148787 0.925961 0.355038
v -0.216006 0.925961 0.319109
v -0.274923 0.925961 0.270756
v -0.323276 0.925961 0.211839
v -0.359204 0.925961 0.144620
v -0.381329 0.925961 0.071684
v -0.388800 0.925961 -0.004167
v -0.381329 0.925961 -0.080018
v -0.359204 0.925961 -0.152954
v -0.323275 0.925961 -0.220173
v -0.274923 0.925961 -0.279090
v -0.216005 0.925961 -0.327442
v -0.148787 0.925961 -0.363371
v -0.075851 0.925961 -0.385496
v 0.055308 1.038461 -0.282219
v 0.108491 1.038461 -0.266086
v 0.157504 1.038461 -0.239888
v 0.200465 1.038461 -0.204631
v 0.235722 1.038461 -0.161671
v 0.261920 1.038461 -0.112657
v 0.278053 1.038461 -0.059475
v 0.283500 1.038461 -0.004167
v 0.278053 1.038461 0.051141
v 0.261920 1.038461 0.104324
v 0.235722 1.038461 0.153338
v 0.200465 1.038461 0.196298
v 0.157504 1.038461 0.231555
v 0.108491 1.038461 0.257753
v 0.055308 1.038461 0.273886
v -0.000000 1.038461 0.279333
v -0.055308 1.038461 0.273886
v -0.108491 1.038461 0.257753
v -0.157504 1.038461 0.231555
v -0.200465 1.038461 0.196298
v -0.235722 1.038461 0.153337
v -0.261920 1.038461 0.104324
v -0.278053 1.038461 0.051141
v -0.283500 1.038461 -0.004167
v -0.278053 1.038461 -0.059475
v -0.261920 1.038461 -0.112658
v -0.235721 1.038461 -0.161671
v -0.200464 1.038461 -0.204632
v -0.157504 1.038461 -0.239889
v -0.108490 1.038461 -0.266087
v -0.055308 1.038461 -0.282219
v 0.000000 1.100961 -0.004167
v 0.055859 1.100961 -0.108671
v 0.091599 1.100961 -0.079340
v 0.113394 1.100961 -0.038564
v 0.117926 1.100961 0.007448
v 0.104505 1.100961 0.051692
v 0.075174 1.100961 0.087432
v 0.034398 1.100961 0.109228
v -0.011615 1.100961 0.113759
v -0.055859 1.100961 0.100338
v -0.091599 1.100961 0.071007
v -0.113394 1.100961 0.030231
v -0.117926 1.100961 -0.015781
v -0.104505 1.100961 -0.060026
v -0.075173 1.100961 -0.095766
v -0.034398 1.100961 -0.117561
v 0.000000 -0.799039 -0.191667
v 0.000000 -0.899039 -0.164872
v 0.050000 -0.747275 -0.178269
v 0.051764 -0.799039 -0.184852
v 0.050000 -0.850803 -0.178269
v 0.044829 -0.899039 -0.158970
v 0.036603 -0.940460 -0.128269
v 0.025882 -0.972244 -0.088259
v 0.013397 -0.992224 -0.041667
v 0.096593 -0.747275 -0.158970
v 0.100000 -0.799039 -0.164872
v 0.096593 -0.850803 -0.158970
v 0.086603 -0.899039 -0.141667
v 0.070711 -0.940460 -0.114141
v 0.050000 -0.972244 -0.078269
v 0.025882 -0.992224 -0.036495
v 0.136602 -0.747275 -0.128269
v 0.141421 -0.799039 -0.133088
v 0.136602 -0.850803 -0.128269
v 0.122474 -0.899039 -0.114141
v 0.100000 -0.940460 -0.091667
v 0.070711 -0.972244 -0.062377
v 0.036603 -0.992224 -0.028269
v 0.167303 -0.747275 -0.088259
v 0.173205 -0.799039 -0.091667
v 0.167303 -0.850803 -0.088259
v 0.150000 -0.899039 -0.078269
v 0.122474 -0.940460 -0.062377
v 0.086603 -0.972244 -0.041667
v 0.044829 -0.992224 -0.017548
v 0.186602 -0.747275 -0.041667
v 0.193185 -0.799039 -0.043430
v 0.186602 -0.850803 -0.041667
v 0.167303 -0.899039 -0.036495
v 0.136602 -0.940460 -0.028269
v 0.096593 -0.972244 -0.017548
v 0.050000 -0.992224 -0.005064
v 0.193185 -0.747275 0.008333
v 0.200000 -0.799039 0.008333
v 0.193185 -0.850803 0.008333
v 0.173205 -0.899039 0.008333
v 0.141421 -0.940460 0.008333
v 0.100000 -0.972244 0.008333
v 0.051764 -0.992224 0.008333
v 0.186602 -0.747275 0.058333
v 0.193185 -0.799039 0.060097
v 0.186602 -0.850803 0.058333
v 0.167303 -0.899039 0.053162
v 0.136603 -0.940460 0.044936
v 0.096593 -0.972244 0.034215
v 0.050000 -0.992224 0.021731
v 0.167303 -0.747275 0.104926
v 0.173205 -0.799039 0.108333
v 0.167303 -0.850803 0.104926
v 0.150000 -0.899039 0.094936
v 0.122474 -0.940460 0.079044
v 0.086602 -0.972244 0.058333
v 0.044829 -0.992224 0.034215
v 0.136602 -0.747275 0.144936
v 0.141421 -0.799039 0.149755
v 0.136602 -0.850803 0.144936
v 0.122474 -0.899039 0.130808
v 0.100000 -0.940460 0.108333
v 0.070711 -0.972244 0.079044
v 0.036603 -0.992224 0.044936
v 0.096593 -0.747275 0.175637
v 0.100000 -0.799039 0.181538
v 0.096593 -0.850803 0.175637
v 0.086602 -0.899039 0.158333
v 0.070711 -0.940460 0.130808
v 0.050000 -0.972244 0.094936
v 0.025882 -0.992224 0.053162
v 0.050000 -0.747275 0.194936
v 0.051764 -0.799039 0.201519
v 0.050000 -0.850803 0.194936
v 0.044829 -0.899039 0.175637
v 0.036603 -0.940460 0.144936
v 0.025882 -0.972244 0.104926
v 0.013397 -0.992224 0.058333
v -0.000000 -0.747275 0.201518
v -0.000000 -0.799039 0.208333
v -0.000000 -0.850803 0.201519
v -0.000000 -0.899039 0.181538
v -0.000000 -0.940460 0.149755
v -0.000000 -0.972244 0.108333
v -0.000000 -0.992224 0.060097
v -0.050000 -0.747275 0.194936
v -0.051764 -0.799039 0.201519
v -0.050000 -0.850803 0.194936
v -0.044829 -0.899039 0.175637
v -0.036603 -0.940460 0.144936
v -0.025882 -0.972244 0.104926
v -0.013397 -0.992224 0.058333
v -0.096593 -0.747275 0.175637
v -0.100000 -0.799039 0.181538
v -0.096593 -0.850803 0.175637
v -0.086603 -0.899039 0.158333
v -0.070711 -0.940460 0.130808
v -0.050000 -0.972244 0.094936
v -0.025882 -0.992224 0.053162
v -0.136602 -0.747275 0.144936
v -0.141421 -0.799039 0.149755
v -0.136603 -0.850803 0.144936
v -0.122474 -0.899039 0.130808
v -0.100000 -0.940460 0.108333
v -0.070711 -0.972244 0.079044
v -0.036603 -0.992224 0.044936
v 0.000000 -0.999039 0.008333
v -0.167303 -0.747275 0.104926
v -0.173205 -0.799039 0.108333
v -0.167303 -0.850803 0.104926
v -0.150000 -0.899039 0.094936
v -0.122474 -0.940460 0.079044
v -0.086603 -0.972244 0.058333
v -0.044829 -0.992224 0.034215
v -0.186602 -0.747275 0.058333
v -0.193185 -0.799039 0.060097
v -0.186602 -0.850803 0.058333
v -0.167303 -0.899039 0.053162
v -0.136603 -0.940460 0.044936
v -0.096593 -0.972244 0.034215
v -0.050000 -0.992224 0.021731
v -0.193185 -0.747275 0.008333
v -0.200000 -0.799039 0.008333
v -0.193185 -0.850803 0.008333
v -0.173205 -0.899039 0.008333
v -0.141421 -0.940460 0.008333
v -0.100000 -0.972244 0.008333
v -0.051764 -0.992224 0.008333
v -0.186602 -0.747275 -0.041667
v -0.193185 -0.799039 -0.043430
v -0.186602 -0.850803 -0.041667
v -0.167303 -0.899039 -0.036495
v -0.136603 -0.940460 -0.028269
v -0.096593 -0.972244 -0.017549
v -0.050000 -0.992224 -0.005064
v -0.167303 -0.747275 -0.088259
v -0.173205 -0.799039 -0.091667
v -0.167303 -0.850803 -0.088259
v -0.150000 -0.899039 -0.078269
v -0.122474 -0.940460 -0.062377
v -0.086603 -0.972244 -0.041667
v -0.044829 -0.992224 -0.017548
v -0.136602 -0.747275 -0.128269
v -0.141421 -0.799039 -0.133088
v -0.136602 -0.850803 -0.128269
v -0.122474 -0.899039 -0.114141
v -0.100000 -0.940460 -0.091667
v -0.070711 -0.972244 -0.062377
v -0.036603 -0.992224 -0.028269
v -0.096593 -0.747275 -0.158970
v -0.100000 -0.799039 -0.164872
v -0.096593 -0.850803 -0.158970
v -0.086602 -0.899039 -0.141667
v -0.070711 -0.940460 -0.114141
v -0.050000 -0.972244 -0.078269
v -0.025882 -0.992224 -0.036495
v -0.050000 -0.747275 -0.178269
v -0.051764 -0.799039 -0.184852
v -0.050000 -0.850803 -0.178269
v -0.044829 -0.899039 -0.158970
v -0.036603 -0.940460 -0.128269
v -0.025882 -0.972244 -0.088259
v -0.013397 -0.992224 -0.041667
v -0.000000 -0.747275 -0.184852
v -0.000000 -0.850803 -0.184852
v -0.000000 -0.940460 -0.133088
v 0.000000 -0.972244 -0.091667
v 0.000000 -0.992224 -0.043430
v 0.121931 0.200961 -0.617157
v 0.000000 0.200961 -0.629166
v 0.239177 0.200961 -0.581591
v 0.347231 0.200961 -0.523835
v 0.441942 0.200961 -0.446108
v 0.519669 0.200961 -0.351398
v 0.577425 0.200961 -0.243344
v 0.612991 0.200961 -0.126098
v 0.625000 0.200961 -0.004167
v 0.612991 0.200961 0.117765
v 0.577425 0.200961 0.235011
v 0.519669 0.200961 0.343065
v 0.441942 0.200961 0.437775
v 0.347231 0.200961 0.515502
v 0.239177 0.200961 0.573258
v 0.121931 0.200961 0.608824
v -0.000000 0.200961 0.620834
v -0.121932 0.200961 0.608824
v -0.239177 0.200961 0.573258
v -0.347232 0.200961 0.515502
v -0.441942 0.200961 0.437775
v -0.519669 0.200961 0.343065
v -0.577425 0.200961 0.235010
v -0.612991 0.200961 0.117764
v -0.625000 0.200961 -0.004167
v -0.612991 0.200961 -0.126099
v -0.577424 0.200961 -0.243344
v -0.519668 0.200961 -0.351399
v -0.441941 0.200961 -0.446109
v -0.347231 0.200961 -0.523835
v -0.239176 0.200961 -0.581592
v -0.121931 0.200961 -0.617157
v 0.000000 -0.799039 -0.285417
v 0.054869 -0.799039 -0.280013
v 0.107630 -0.799039 -0.264008
v 0.156254 -0.799039 -0.238017
v 0.198874 -0.799039 -0.203040
v 0.233851 -0.799039 -0.160421
v 0.259841 -0.799039 -0.111796
v 0.275846 -0.799039 -0.059036
v 0.281250 -0.799039 -0.004167
v 0.275846 -0.799039 0.050702
v 0.259841 -0.799039 0.103463
v 0.233851 -0.799039 0.152088
v 0.198874 -0.799039 0.194707
v 0.156254 -0.799039 0.229684
v 0.107630 -0.799039 0.255675
v 0.054869 -0.799039 0.271679
v -0.000000 -0.799039 0.277083
v -0.054869 -0.799039 0.271679
v -0.107630 -0.799039 0.255674
v -0.156254 -0.799039 0.229684
v -0.198874 -0.799039 0.194707
v -0.233851 -0.799039 0.152087
v -0.259841 -0.799039 0.103463
v -0.275846 -0.799039 0.050702
v -0.281250 -0.799039 -0.004167
v -0.275846 -0.799039 -0.059036
v -0.259841 -0.799039 -0.111797
v -0.233851 -0.799039 -0.160421
v -0.198874 -0.799039 -0.203041
v -0.156254 -0.799039 -0.238018
v -0.107629 -0.799039 -0.264008
v -0.054869 -0.799039 -0.280013
v 0.048773 0.325961 -0.249363
v 0.000000 0.325961 -0.254167
v 0.095671 0.325961 -0.235137
v 0.138893 0.325961 -0.212034
v 0.176777 0.325961 -0.180943
v 0.207867 0.325961 -0.143059
v 0.230970 0.325961 -0.099838
v 0.245196 0.325961 -0.052939
v 0.250000 0.325961 -0.004167
v 0.245196 0.325961 0.044606
v 0.230970 0.325961 0.091504
v 0.207867 0.325961 0.134726
v 0.176777 0.325961 0.172610
v 0.138893 0.325961 0.203701
v 0.095671 0.325961 0.226803
v 0.048773 0.325961 0.241030
v -0.000000 0.325961 0.245833
v -0.048773 0.325961 0.241030
v -0.095671 0.325961 0.226803
v -0.138893 0.325961 0.203701
v -0.176777 0.325961 0.172610
v -0.207867 0.325961 0.134726
v -0.230970 0.325961 0.091504
v -0.245196 0.325961 0.044606
v -0.250000 0.325961 -0.004167
v -0.245196 0.325961 -0.052939
v -0.230970 0.325961 -0.099838
v -0.207867 0.325961 -0.143059
v -0.176776 0.325961 -0.180944
v -0.138892 0.325961 -0.212034
v -0.095670 0.325961 -0.235137
v -0.048772 0.325961 -0.249363
v 0.048773 0.450961 -0.249363
v 0.000000 0.450961 -0.254167
v 0.095671 0.450961 -0.235137
v 0.138893 0.450961 -0.212034
v 0.176777 0.450961 -0.180943
v 0.207867 0.450961 -0.143059
v 0.230970 0.450961 -0.099838
v 0.245196 0.450961 -0.052939
v 0.250000 0.450961 -0.004167
v 0.245196 0.450961 0.044606
v 0.230970 0.450961 0.091504
v 0.207867 0.450961 0.134726
v 0.176777 0.450961 0.172610
v 0.138893 0.450961 0.203701
v 0.095671 0.450961 0.226803
v 0.048773 0.450961 0.241030
v -0.000000 0.450961 0.245833
v -0.048773 0.450961 0.241030
v -0.095671 0.450961 0.226803
v -0.138893 0.450961 0.203701
v -0.176777 0.450961 0.172610
v -0.207867 0.450961 0.134726
v -0.230970 0.450961 0.091504
v -0.245196 0.450961 0.044606
v -0.250000 0.450961 -0.004167
v -0.245196 0.450961 -0.052939
v -0.230970 0.450961 -0.099838
v -0.207867 0.450961 -0.143059
v -0.176776 0.450961 -0.180944
v -0.138892 0.450961 -0.212034
v -0.095670 0.450961 -0.235137
v -0.048772 0.450961 -0.249363
vt 0.704166 0.215708
vt 0.748067 0.011576
vt 0.725604 0.211635
vt 0.217113 0.395353
vt 0.212942 0.476177
vt 0.191449 0.474742
vt 0.597142 0.431071
vt 0.550809 0.653473
vt 0.575690 0.429140
vt 0.933510 0.873030
vt 0.963944 0.813567
vt 0.981926 0.831408
vt 0.624189 0.103290
vt 0.580531 0.323116
vt 0.602713 0.099317
vt 0.907822 0.847544
vt 0.949815 0.792569
vt 0.774757 0.207399
vt 0.796269 0.008853
vt 0.800584 0.207399
vt 0.887639 0.817546
vt 0.940084 0.769218
vt 0.171972 0.699588
vt 0.873736 0.784188
vt 0.935122 0.744413
vt 0.526522 0.426822
vt 0.502599 0.651791
vt 0.500697 0.426523
vt 0.866649 0.748752
vt 0.935122 0.719107
vt 0.553520 0.095184
vt 0.532304 0.320459
vt 0.527693 0.095184
vt 0.866649 0.712601
vt 0.940084 0.694273
vt 0.142240 0.473560
vt 0.123735 0.699020
vt 0.116415 0.473858
vt 0.873736 0.677123
vt 0.949815 0.670864
vt 0.849815 0.211635
vt 0.841746 0.014195
vt 0.871326 0.215708
vt 0.887639 0.643682
vt 0.963944 0.649781
vt 0.451487 0.427705
vt 0.457147 0.653473
vt 0.429994 0.429140
vt 0.907822 0.613563
vt 0.981926 0.631833
vt 0.478502 0.099317
vt 0.486877 0.325670
vt 0.457028 0.103291
vt 0.395119 0.350366
vt 0.067247 0.476177
vt 0.078336 0.701751
vt 0.045794 0.478108
vt 0.425824 0.348316
vt 0.475361 0.426822
vt 0.763390 0.009773
vt 0.749439 0.208829
vt 0.459929 0.347054
vt 0.535480 0.652551
vt 0.551844 0.427705
vt 0.496124 0.346628
vt 0.578852 0.096579
vt 0.565192 0.321356
vt 0.533017 0.347054
vt 0.812561 0.009773
vt 0.825928 0.208829
vt 0.569191 0.348316
vt 0.167576 0.473858
vt 0.156625 0.699020
vt 0.603256 0.350366
vt 0.486312 0.651983
vt 0.438767 0.108348
vt 0.421207 0.020434
vt 0.516020 0.321356
vt 0.502363 0.096579
vt 0.107457 0.699588
vt 0.091092 0.474742
vt 0.485970 0.010847
vt 0.231229 0.478108
vt 0.185789 0.700510
vt 0.445391 0.654715
vt 0.411707 0.431071
vt 0.559053 0.008853
vt 0.475137 0.328922
vt 0.642452 0.108348
vt 0.594337 0.325670
vt 0.629328 0.014757
vt 0.779666 0.008853
vt 0.660007 0.020434
vt 0.519201 0.651983
vt 0.686098 0.027659
vt 0.548907 0.320459
vt 0.009034 0.400161
vt 0.140337 0.698828
vt 0.039681 0.397403
vt 0.827917 0.011576
vt 0.073746 0.395353
vt 0.470964 0.652551
vt 0.146814 0.393665
vt 0.500681 0.323116
vt 0.183008 0.394091
vt 0.092127 0.700510
vt 0.734286 0.014195
vt 0.247817 0.397403
vt 0.564600 0.654715
vt 0.933510 0.587923
vt 0.633903 0.353125
vt 0.395119 0.027659
vt 0.451884 0.014757
vt 0.197545 0.701751
vt 0.522157 0.008853
vt 0.595240 0.010847
vt 0.606078 0.328922
vt 0.109921 0.394091
vt 0.009034 0.174327
vt 0.112408 0.199637
vt 0.009034 0.210484
vt 0.174919 0.375958
vt 0.193261 0.265827
vt 0.211166 0.375958
vt 0.377051 0.210484
vt 0.259615 0.185174
vt 0.377051 0.174327
vt 0.174919 0.008853
vt 0.193261 0.118985
vt 0.178762 0.118985
vt 0.075744 0.334980
vt 0.151147 0.257471
vt 0.105882 0.355068
vt 0.356109 0.279351
vt 0.243183 0.239209
vt 0.251238 0.227184
vt 0.280203 0.029744
vt 0.232931 0.135376
vt 0.220876 0.127341
vt 0.050114 0.075398
vt 0.120785 0.157628
vt 0.029976 0.105461
vt 0.016105 0.245946
vt 0.120785 0.227184
vt 0.029976 0.279350
vt 0.246716 0.368905
vt 0.220876 0.257471
vt 0.280203 0.355068
vt 0.369980 0.138865
vt 0.251238 0.157628
vt 0.356109 0.105461
vt 0.105882 0.029744
vt 0.164542 0.121806
vt 0.151147 0.127341
vt 0.016106 0.138865
vt 0.112408 0.185174
vt 0.139369 0.368905
vt 0.178762 0.265827
vt 0.369980 0.245946
vt 0.259615 0.199637
vt 0.246716 0.015907
vt 0.211166 0.008853
vt 0.050114 0.309414
vt 0.139092 0.249436
vt 0.310341 0.334980
vt 0.335971 0.309414
vt 0.335971 0.075398
vt 0.310341 0.049831
vt 0.115236 0.213822
vt 0.207481 0.263005
vt 0.256786 0.170990
vt 0.139369 0.015907
vt 0.139092 0.135376
vt 0.128840 0.145603
vt 0.115237 0.170990
vt 0.164542 0.263005
vt 0.256786 0.213822
vt 0.207481 0.121806
vt 0.128840 0.239209
vt 0.232931 0.249436
vt 0.243183 0.145603
vt 0.075744 0.049831
vt 0.734964 0.908536
vt 0.695652 0.981841
vt 0.682059 0.972843
vt 0.670499 0.961374
vt 0.661417 0.947875
vt 0.655160 0.932864
vt 0.651971 0.916918
vt 0.651971 0.900650
vt 0.655160 0.884685
vt 0.661417 0.869636
vt 0.670499 0.856083
vt 0.682059 0.844545
vt 0.695652 0.835466
vt 0.710756 0.829195
vt 0.726789 0.825974
vt 0.743138 0.825925
vt 0.759172 0.829051
vt 0.774275 0.835231
vt 0.787868 0.844229
vt 0.799428 0.855698
vt 0.808511 0.869197
vt 0.814767 0.884208
vt 0.817956 0.900154
vt 0.817956 0.916422
vt 0.814767 0.932387
vt 0.808510 0.947436
vt 0.799428 0.960989
vt 0.787868 0.972527
vt 0.774275 0.981606
vt 0.759171 0.987876
vt 0.743137 0.991098
vt 0.726789 0.991147
vt 0.710755 0.988021
vt 0.948085 0.048467
vt 0.984113 0.062958
vt 0.948085 0.062930
vt 0.930017 0.254679
vt 0.891396 0.244452
vt 0.928768 0.244452
vt 0.584919 0.818799
vt 0.546494 0.806773
vt 0.582602 0.806774
vt 0.927786 0.100661
vt 0.889739 0.087299
vt 0.927110 0.087299
vt 0.948919 0.034275
vt 0.984113 0.048496
vt 0.582602 0.737218
vt 0.548812 0.725192
vt 0.584919 0.725192
vt 0.927110 0.176233
vt 0.890415 0.162871
vt 0.927786 0.162871
vt 0.928768 0.019080
vt 0.892645 0.008853
vt 0.930017 0.008853
vt 0.928768 0.112686
vt 0.890415 0.100661
vt 0.926766 0.190418
vt 0.889739 0.176233
vt 0.950555 0.020899
vt 0.984947 0.034304
vt 0.581006 0.750580
vt 0.546494 0.737217
vt 0.927786 0.031105
vt 0.891396 0.019080
vt 0.930017 0.122913
vt 0.891396 0.112686
vt 0.926766 0.204880
vt 0.889394 0.190418
vt 0.952930 0.008853
vt 0.986584 0.020928
vt 0.580192 0.764765
vt 0.544898 0.750580
vt 0.927110 0.044467
vt 0.890415 0.031105
vt 0.950555 0.090455
vt 0.988959 0.102488
vt 0.952931 0.102459
vt 0.927110 0.219065
vt 0.889394 0.204880
vt 0.928768 0.150846
vt 0.892645 0.140619
vt 0.930017 0.140619
vt 0.580192 0.779228
vt 0.544085 0.764764
vt 0.926766 0.058652
vt 0.889739 0.044467
vt 0.948919 0.077107
vt 0.986584 0.090483
vt 0.927786 0.232427
vt 0.889739 0.219065
vt 0.891396 0.150846
vt 0.581006 0.793412
vt 0.544085 0.779227
vt 0.926766 0.073114
vt 0.889394 0.058652
vt 0.984948 0.077136
vt 0.890415 0.232427
vt 0.544898 0.793412
vt 0.889394 0.073114
vt 0.892645 0.254679
vt 0.548812 0.818798
vt 0.892645 0.122913
vt 0.988959 0.008882
vt 0.775152 0.625139
vt 0.751729 0.587988
vt 0.773526 0.587923
vt 0.694115 0.691561
vt 0.656224 0.666269
vt 0.696950 0.677370
vt 0.802830 0.763521
vt 0.833167 0.783392
vt 0.815043 0.795497
vt 0.544898 0.793412
vt 0.508226 0.824164
vt 0.505832 0.804121
vt 0.746368 0.628046
vt 0.760620 0.625182
vt 0.694115 0.706021
vt 0.651971 0.687556
vt 0.825188 0.745196
vt 0.814912 0.755451
vt 0.548812 0.818798
vt 0.546494 0.806773
vt 0.732942 0.633620
vt 0.730350 0.592284
vt 0.696950 0.720195
vt 0.651971 0.709247
vt 0.546494 0.737217
vt 0.511702 0.701791
vt 0.548812 0.725192
vt 0.746368 0.769224
vt 0.710212 0.795810
vt 0.732942 0.763730
vt 0.814912 0.641409
vt 0.848580 0.627620
vt 0.825188 0.651603
vt 0.692088 0.612750
vt 0.710212 0.600645
vt 0.760620 0.772002
vt 0.730350 0.804051
vt 0.702511 0.733539
vt 0.656224 0.730508
vt 0.544898 0.750580
vt 0.508226 0.719830
vt 0.802830 0.633411
vt 0.833167 0.612328
vt 0.710584 0.651945
vt 0.720860 0.641690
vt 0.775152 0.771959
vt 0.751729 0.808219
vt 0.710584 0.745538
vt 0.664565 0.750523
vt 0.504612 0.761150
vt 0.505832 0.739873
vt 0.794905 0.592091
vt 0.815043 0.600331
vt 0.702511 0.663993
vt 0.676675 0.628133
vt 0.794905 0.803858
vt 0.773526 0.808154
vt 0.720860 0.755732
vt 0.676675 0.768522
vt 0.544085 0.779227
vt 0.544085 0.764764
vt 0.789404 0.627917
vt 0.664565 0.646205
vt 0.789404 0.769095
vt 0.692088 0.783814
vt 0.504612 0.782845
vt 0.018656 0.894056
vt 0.046646 0.883888
vt 0.051401 0.904724
vt 0.388357 0.583394
vt 0.349142 0.610395
vt 0.348243 0.585637
vt 0.392073 0.486953
vt 0.350603 0.491259
vt 0.352569 0.473379
vt 0.462753 0.759372
vt 0.987249 0.436166
vt 0.948035 0.409165
vt 0.988022 0.414896
vt 0.014570 0.876156
vt 0.043112 0.860673
vt 0.390384 0.624694
vt 0.389129 0.604664
vt 0.390384 0.502314
vt 0.349142 0.512273
vt 0.462753 0.784624
vt 0.986988 0.457858
vt 0.947135 0.433923
vt 0.009665 0.834989
vt 0.011535 0.856211
vt 0.392073 0.642714
vt 0.350603 0.633709
vt 0.466961 0.832719
vt 0.464174 0.809390
vt 0.987249 0.479140
vt 0.946831 0.459173
vt 0.040201 0.810728
vt 0.040936 0.835970
vt 0.476156 0.672421
vt 0.516126 0.686450
vt 0.511702 0.842201
vt 0.948035 0.507287
vt 0.947135 0.483945
vt 0.009665 0.791989
vt 0.009034 0.813304
vt 0.466961 0.711275
vt 0.471007 0.690278
vt 0.389129 0.520368
vt 0.348243 0.535615
vt 0.516126 0.857540
vt 0.471007 0.853715
vt 0.988022 0.499193
vt 0.949495 0.528301
vt 0.388096 0.561702
vt 0.388357 0.540420
vt 0.011535 0.771865
vt 0.040936 0.785919
vt 0.989277 0.394866
vt 0.951461 0.364876
vt 0.990966 0.376847
vt 0.989277 0.517247
vt 0.951461 0.546181
vt 0.347939 0.560387
vt 0.014570 0.753704
vt 0.043112 0.762494
vt 0.464174 0.734605
vt 0.949495 0.385851
vt 0.915213 0.364457
vt 0.913247 0.527883
vt 0.311691 0.560805
vt 0.046646 0.741354
vt 0.078046 0.761545
vt 0.429150 0.734604
vt 0.913247 0.385432
vt 0.086335 0.903775
vt 0.311995 0.586056
vt 0.316321 0.473798
vt 0.427729 0.759371
vt 0.911787 0.408746
vt 0.081580 0.882940
vt 0.312894 0.610814
vt 0.314355 0.491678
vt 0.427729 0.784623
vt 0.910887 0.433504
vt 0.078046 0.859724
vt 0.352569 0.654684
vt 0.314355 0.634128
vt 0.429150 0.809390
vt 0.910583 0.458754
vt 0.075870 0.835021
vt 0.354964 0.672514
vt 0.316321 0.655103
vt 0.431936 0.832719
vt 0.910887 0.483526
vt 0.075135 0.809780
vt 0.435982 0.690277
vt 0.312894 0.512692
vt 0.917609 0.346628
vt 0.953857 0.347047
vt 0.911787 0.506868
vt 0.311995 0.536034
vt 0.075870 0.784970
vt 0.431936 0.711274
vt 0.874652 0.479021
vt 0.116523 0.787916
vt 0.115869 0.810015
vt 0.402471 0.699206
vt 0.276561 0.519748
vt 0.878505 0.372964
vt 0.880639 0.357083
vt 0.875453 0.499812
vt 0.275759 0.540539
vt 0.398867 0.717908
vt 0.876754 0.391647
vt 0.131005 0.909464
vt 0.092129 0.921430
vt 0.275489 0.562604
vt 0.121609 0.748222
vt 0.118461 0.767051
vt 0.396385 0.738689
vt 0.125844 0.893738
vt 0.275759 0.585094
vt 0.086335 0.722364
vt 0.081580 0.740406
vt 0.395119 0.783242
vt 0.395119 0.760750
vt 0.874652 0.434466
vt 0.875453 0.412413
vt 0.121609 0.875180
vt 0.277862 0.627914
vt 0.276561 0.607147
vt 0.277862 0.501030
vt 0.118461 0.854501
vt 0.279613 0.646597
vt 0.396385 0.805302
vt 0.874381 0.456957
vt 0.116523 0.832498
vt 0.281747 0.662478
vt 0.435982 0.853714
vt 0.398867 0.826082
vt 0.677528 0.389634
vt 0.697926 0.425923
vt 0.664975 0.408464
vt 0.800408 0.350588
vt 0.811965 0.389685
vt 0.796680 0.383721
vt 0.157983 0.828238
vt 0.677849 0.534425
vt 0.698100 0.504373
vt 0.707314 0.517769
vt 0.718743 0.400445
vt 0.707080 0.412192
vt 0.840248 0.370853
vt 0.821371 0.358767
vt 0.157983 0.795730
vt 0.157506 0.811844
vt 0.665213 0.516053
vt 0.691741 0.489418
vt 0.245867 0.549905
vt 0.246452 0.534746
vt 0.693523 0.373524
vt 0.732467 0.391132
vt 0.856313 0.386379
vt 0.825729 0.398497
vt 0.656492 0.495543
vt 0.688481 0.473478
vt 0.733270 0.351810
vt 0.712345 0.360752
vt 0.168543 0.884359
vt 0.245867 0.582394
vt 0.245670 0.565994
vt 0.159396 0.780516
vt 0.651971 0.451312
vt 0.652021 0.473683
vt 0.755494 0.347041
vt 0.747725 0.384612
vt 0.161691 0.859360
vt 0.164780 0.872893
vt 0.712791 0.562037
vt 0.748078 0.543867
vt 0.733754 0.570217
vt 0.164780 0.755069
vt 0.161691 0.766787
vt 0.691634 0.441108
vt 0.688444 0.457166
vt 0.780460 0.380834
vt 0.763930 0.381135
vt 0.719028 0.529090
vt 0.732792 0.537903
vt 0.131005 0.719458
vt 0.125844 0.732151
vt 0.656345 0.429290
vt 0.778164 0.346628
vt 0.159396 0.844282
vt 0.693914 0.549952
vt 0.775245 0.430898
vt 0.856277 0.454110
vt 0.807854 0.451776
vt 0.853016 0.438170
vt 0.750454 0.490725
vt 0.761905 0.498056
vt 0.812290 0.536455
vt 0.797032 0.542976
vt 0.788881 0.497565
vt 0.742730 0.452961
vt 0.856313 0.470422
vt 0.810567 0.465036
vt 0.788738 0.433300
vt 0.807913 0.478395
vt 0.742789 0.479581
vt 0.750345 0.441539
vt 0.853123 0.486479
vt 0.846831 0.501665
vt 0.775399 0.500458
vt 0.837444 0.409819
vt 0.800189 0.440631
vt 0.780827 0.546453
vt 0.764297 0.546754
vt 0.800298 0.489818
vt 0.740077 0.466320
vt 0.761763 0.433791
vt 0.846657 0.423215
vt 0.837677 0.515395
vt 0.826015 0.527142
vt 0.775322 0.465678
vt 0.848580 0.768008
vt 0.476156 0.871569
vt 0.990966 0.532607
vt 0.915213 0.545763
vt 0.318716 0.672933
vt 0.876754 0.518531
vt 0.402471 0.844783
vt 0.168543 0.745813
vt 0.549989 0.934290
vt 0.544024 0.918750
vt 0.553920 0.927721
vt 0.371647 0.908444
vt 0.388443 0.897360
vt 0.387336 0.909453
vt 0.565444 0.937287
vt 0.563409 0.940687
vt 0.403373 0.901448
vt 0.402381 0.912290
vt 0.577811 0.946795
vt 0.415757 0.916763
vt 0.416568 0.907910
vt 0.357491 0.897241
vt 0.372793 0.895925
vt 0.568321 0.934511
vt 0.536430 0.910984
vt 0.551885 0.911166
vt 0.333702 0.898176
vt 0.315589 0.908804
vt 0.318363 0.896842
vt 0.559478 0.922358
vt 0.301185 0.909983
vt 0.303864 0.898429
vt 0.404667 0.892988
vt 0.299500 0.923571
vt 0.571845 0.932548
vt 0.287282 0.925371
vt 0.288792 0.913188
vt 0.546058 0.901695
vt 0.561513 0.905803
vt 0.329339 0.923318
vt 0.313845 0.922871
vt 0.566287 0.918566
vt 0.328764 0.938014
vt 0.313250 0.938085
vt 0.572252 0.903027
vt 0.573880 0.916603
vt 0.298926 0.938267
vt 0.575776 0.931532
vt 0.286767 0.938547
vt 0.557850 0.895127
vt 0.287282 0.951818
vt 0.579845 0.931532
vt 0.571002 0.891727
vt 0.583369 0.903027
vt 0.329339 0.952816
vt 0.313845 0.953410
vt 0.581741 0.916603
vt 0.299500 0.953070
vt 0.301185 0.966970
vt 0.583776 0.932548
vt 0.288792 0.964281
vt 0.584619 0.891727
vt 0.594108 0.905803
vt 0.331023 0.966716
vt 0.315589 0.967800
vt 0.589335 0.918566
vt 0.597771 0.895127
vt 0.603736 0.911166
vt 0.333702 0.978767
vt 0.318363 0.980276
vt 0.596143 0.922359
vt 0.303864 0.979020
vt 0.587300 0.934511
vt 0.291194 0.975085
vt 0.256561 0.974132
vt 0.240408 0.967117
vt 0.255403 0.963830
vt 0.590177 0.937287
vt 0.609563 0.901695
vt 0.611597 0.918750
vt 0.226075 0.980256
vt 0.209459 0.967475
vt 0.224738 0.968360
vt 0.601701 0.927721
vt 0.241700 0.978608
vt 0.617156 0.928039
vt 0.605632 0.934290
vt 0.239495 0.953571
vt 0.592212 0.940687
vt 0.254584 0.951685
vt 0.268030 0.948807
vt 0.268699 0.958723
vt 0.208545 0.953928
vt 0.223792 0.954336
vt 0.267684 0.938061
vt 0.208073 0.939249
vt 0.223303 0.939139
vt 0.607667 0.941615
vt 0.239022 0.938891
vt 0.593265 0.944479
vt 0.254160 0.938524
vt 0.593265 0.948405
vt 0.239022 0.924080
vt 0.254160 0.925244
vt 0.267684 0.927217
vt 0.208073 0.924437
vt 0.223303 0.923804
vt 0.620034 0.938399
vt 0.607667 0.949200
vt 0.617156 0.959486
vt 0.605632 0.956526
vt 0.239495 0.910144
vt 0.592212 0.952197
vt 0.254584 0.912750
vt 0.268030 0.917016
vt 0.208545 0.910502
vt 0.223792 0.909378
vt 0.590177 0.955597
vt 0.268699 0.908152
vt 0.209459 0.898393
vt 0.224738 0.896842
vt 0.601701 0.963094
vt 0.240408 0.898036
vt 0.255403 0.901894
vt 0.587300 0.958373
vt 0.479431 0.895551
vt 0.467196 0.910508
vt 0.464463 0.900264
vt 0.453080 0.915848
vt 0.450849 0.907484
vt 0.494732 0.893665
vt 0.512373 0.906161
vt 0.497888 0.905493
vt 0.611597 0.968774
vt 0.596143 0.968457
vt 0.482479 0.906976
vt 0.442209 0.929622
vt 0.441093 0.922633
vt 0.484635 0.920478
vt 0.583776 0.960336
vt 0.469129 0.922613
vt 0.454658 0.925732
vt 0.514529 0.919663
vt 0.500120 0.919472
vt 0.579845 0.961352
vt 0.470129 0.935756
vt 0.455475 0.936463
vt 0.515644 0.934322
vt 0.501275 0.934648
vt 0.442787 0.937210
vt 0.485751 0.935137
vt 0.581741 0.974212
vt 0.575776 0.961352
vt 0.485751 0.949954
vt 0.470129 0.949040
vt 0.455475 0.947310
vt 0.515644 0.949139
vt 0.501275 0.949987
vt 0.442787 0.944880
vt 0.514529 0.963104
vt 0.500120 0.964445
vt 0.454658 0.957533
vt 0.442209 0.952108
vt 0.484635 0.963918
vt 0.573880 0.974212
vt 0.571845 0.960336
vt 0.469129 0.961561
vt 0.568321 0.958373
vt 0.467196 0.972464
vt 0.453080 0.966435
vt 0.512373 0.975265
vt 0.497888 0.977035
vt 0.441093 0.958403
vt 0.482479 0.976080
vt 0.566287 0.972249
vt 0.372793 0.979349
vt 0.387335 0.966432
vt 0.388443 0.977941
vt 0.553920 0.963094
vt 0.565444 0.955597
vt 0.402381 0.963377
vt 0.403373 0.973695
vt 0.415757 0.958475
vt 0.416568 0.966900
vt 0.356384 0.966314
vt 0.371647 0.967434
vt 0.551885 0.976359
vt 0.559478 0.968457
vt 0.355688 0.952755
vt 0.370926 0.953397
vt 0.538465 0.959486
vt 0.549989 0.956526
vt 0.386640 0.952874
vt 0.563409 0.952197
vt 0.401757 0.951220
vt 0.415248 0.948549
vt 0.386402 0.938189
vt 0.401544 0.938054
vt 0.562356 0.948405
vt 0.415074 0.937799
vt 0.355450 0.938070
vt 0.370681 0.938194
vt 0.535588 0.949125
vt 0.547954 0.949200
vt 0.386640 0.923379
vt 0.547954 0.941615
vt 0.562356 0.944479
vt 0.401757 0.924776
vt 0.415248 0.926957
vt 0.355688 0.923260
vt 0.370926 0.922862
vt 0.535588 0.938399
vt 0.356384 0.909334
vt 0.538465 0.928039
vt 0.331023 0.909730
vt 0.389885 0.887924
vt 0.619191 0.910984
vt 0.210750 0.978965
vt 0.620034 0.949125
vt 0.509325 0.894736
vt 0.603736 0.976359
vt 0.589335 0.972249
vt 0.357491 0.977822
vt 0.544024 0.968774
vn 0.8914 -0.4170 0.1773
vn 0.9790 -0.2039 0.0000
vn 0.9089 -0.4170 0.0000
vn 0.0000 -0.6000 -0.8000
vn 0.1773 -0.4170 -0.8914
vn 0.0000 -0.4170 -0.9089
vn -0.1773 -0.4170 0.8914
vn 0.0000 -0.2039 0.9790
vn 0.0000 -0.4170 0.9089
vn 0.1561 -0.6000 -0.7846
vn 0.3478 -0.4170 -0.8397
vn -0.8914 -0.4170 -0.1773
vn -0.9790 -0.2039 0.0000
vn -0.9089 -0.4170 0.0000
vn 0.3061 -0.6000 -0.7391
vn 0.5050 -0.4170 -0.7557
vn 0.8397 -0.4170 -0.3478
vn 0.8140 -0.2039 -0.5439
vn 0.7557 -0.4170 -0.5050
vn 0.4444 -0.6000 -0.6652
vn 0.6427 -0.4170 -0.6427
vn 0.0000 -0.2039 -0.9790
vn 0.5657 -0.6000 -0.5657
vn 0.3478 -0.4170 0.8397
vn 0.5439 -0.2039 0.8140
vn 0.5050 -0.4170 0.7557
vn 0.6652 -0.6000 -0.4444
vn -0.8397 -0.4170 0.3478
vn -0.8140 -0.2039 0.5439
vn -0.7557 -0.4170 0.5050
vn 0.7391 -0.6000 -0.3061
vn 0.8914 -0.4170 -0.1773
vn -0.3478 -0.4170 -0.8397
vn -0.5439 -0.2039 -0.8140
vn -0.5050 -0.4170 -0.7557
vn 0.7846 -0.6000 -0.1561
vn 0.3746 -0.2039 -0.9044
vn 0.8000 -0.6000 0.0000
vn 0.7557 -0.4170 0.5050
vn 0.9044 -0.2039 0.3746
vn 0.8397 -0.4170 0.3478
vn 0.7846 -0.6000 0.1561
vn -0.5050 -0.4170 0.7557
vn -0.3746 -0.2039 0.9044
vn -0.3478 -0.4170 0.8397
vn 0.7391 -0.6000 0.3061
vn -0.7557 -0.4170 -0.5050
vn -0.9044 -0.2039 -0.3746
vn -0.8397 -0.4170 -0.3478
vn 0.6652 -0.6000 0.4444
vn 0.6427 -0.4170 0.6427
vn 0.9601 -0.2039 -0.1910
vn 0.5657 -0.6000 0.5657
vn 0.1910 -0.2039 0.9601
vn 0.1773 -0.4170 0.8914
vn 0.4444 -0.6000 0.6652
vn -0.8914 -0.4170 0.1773
vn -0.9601 -0.2039 0.1910
vn 0.3061 -0.6000 0.7391
vn 0.6922 -0.2039 -0.6922
vn 0.1561 -0.6000 0.7846
vn -0.1773 -0.4170 -0.8914
vn -0.1910 -0.2039 -0.9601
vn 0.0000 -0.6000 0.8000
vn 0.6922 -0.2039 0.6922
vn -0.3061 -0.6000 0.7391
vn -0.6922 -0.2039 0.6922
vn -0.6427 -0.4170 0.6427
vn -0.6922 -0.2039 -0.6922
vn -0.6427 -0.4170 -0.6427
vn -0.5657 -0.6000 0.5657
vn 0.1910 -0.2039 -0.9601
vn 0.9601 -0.2039 0.1910
vn -0.7391 -0.6000 0.3061
vn -0.1910 -0.2039 0.9601
vn -0.9601 -0.2039 -0.1910
vn -0.8000 -0.6000 0.0000
vn 0.9044 -0.2039 -0.3746
vn -0.7846 -0.6000 -0.1561
vn 0.3746 -0.2039 0.9044
vn -0.7391 -0.6000 -0.3061
vn -0.9044 -0.2039 0.3746
vn -0.3746 -0.2039 -0.9044
vn -0.6652 -0.6000 -0.4444
vn 0.5439 -0.2039 -0.8140
vn -0.5657 -0.6000 -0.5657
vn 0.8140 -0.2039 0.5439
vn -0.3061 -0.6000 -0.7391
vn -0.5439 -0.2039 0.8140
vn -0.1561 -0.6000 -0.7846
vn -0.8140 -0.2039 -0.5439
vn -0.1561 -0.6000 0.7846
vn -0.4444 -0.6000 0.6652
vn -0.6652 -0.6000 0.4444
vn -0.7846 -0.6000 0.1560
vn -0.4444 -0.6000 -0.6652
vn 0.1757 0.9487 -0.2629
vn 0.2236 0.9487 -0.2236
vn 0.2629 0.9487 0.1757
vn 0.2236 0.9487 0.2236
vn -0.1757 0.9487 0.2629
vn -0.2236 0.9487 0.2236
vn -0.2236 0.9487 -0.2236
vn -0.2629 0.9487 -0.1757
vn 0.3162 0.9487 0.0000
vn 0.3101 0.9487 0.0617
vn -0.0617 0.9487 0.3101
vn 0.0000 0.9487 0.3162
vn -0.3101 0.9487 -0.0617
vn -0.3162 0.9487 0.0000
vn 0.0000 0.9487 -0.3162
vn 0.0617 0.9487 -0.3101
vn 0.2629 0.9487 -0.1757
vn 0.2922 0.9487 -0.1210
vn 0.1757 0.9487 0.2629
vn 0.1210 0.9487 0.2922
vn -0.2629 0.9487 0.1757
vn -0.2922 0.9487 0.1210
vn -0.1210 0.9487 -0.2922
vn -0.1757 0.9487 -0.2629
vn 0.1210 0.9487 -0.2922
vn 0.2922 0.9487 0.1210
vn -0.1210 0.9487 0.2922
vn -0.2922 0.9487 -0.1210
vn 0.3101 0.9487 -0.0617
vn 0.0617 0.9487 0.3101
vn -0.3101 0.9487 0.0617
vn -0.0617 0.9487 -0.3101
vn 0.0000 -1.0000 0.0000
vn 0.8314 0.0000 -0.5556
vn 0.9239 0.0000 -0.3827
vn -0.9808 0.0000 -0.1951
vn -0.9239 0.0000 -0.3827
vn -0.3827 0.0000 0.9239
vn -0.5556 0.0000 0.8314
vn 0.8314 0.0000 0.5556
vn 0.7071 0.0000 0.7071
vn 0.7071 0.0000 -0.7071
vn -1.0000 0.0000 0.0000
vn -0.1951 0.0000 -0.9808
vn 0.0000 0.0000 -1.0000
vn -0.1951 0.0000 0.9808
vn 0.9239 0.0000 0.3827
vn -0.3827 0.0000 -0.9239
vn 0.5556 0.0000 -0.8314
vn -0.9808 0.0000 0.1951
vn 0.0000 0.0000 1.0000
vn 0.9808 0.0000 0.1951
vn -0.5556 0.0000 -0.8314
vn 0.3827 0.0000 -0.9239
vn -0.9239 0.0000 0.3827
vn 0.1951 0.0000 0.9808
vn 1.0000 0.0000 0.0000
vn -0.7071 0.0000 -0.7071
vn 0.1951 0.0000 -0.9808
vn -0.8314 0.0000 0.5556
vn 0.3827 0.0000 0.9239
vn 0.9808 0.0000 -0.1951
vn -0.8314 0.0000 -0.5556
vn -0.7071 0.0000 0.7071
vn 0.5556 0.0000 0.8314
vn 0.2391 -0.7808 0.5771
vn 0.4371 -0.6172 0.6542
vn 0.3011 -0.6172 0.7269
vn 0.5771 -0.7808 -0.2391
vn 0.7716 -0.6172 -0.1535
vn 0.6127 -0.7808 -0.1219
vn -0.5194 -0.7808 -0.3471
vn -0.7269 -0.6172 -0.3011
vn -0.6542 -0.6172 -0.4371
vn -0.4417 -0.7808 0.4417
vn -0.4371 -0.6172 0.6542
vn -0.5563 -0.6172 0.5563
vn 0.4417 -0.7808 0.4417
vn 0.3471 -0.7808 0.5194
vn 0.5194 -0.7808 -0.3471
vn 0.7269 -0.6172 -0.3011
vn -0.6127 -0.7808 -0.1219
vn -0.5771 -0.7808 -0.2391
vn -0.2391 -0.7808 0.5771
vn -0.3471 -0.7808 0.5194
vn 0.5194 -0.7808 0.3471
vn 0.5563 -0.6172 0.5563
vn 0.4417 -0.7808 -0.4417
vn 0.6542 -0.6172 -0.4371
vn -0.6247 -0.7808 0.0000
vn -0.7716 -0.6172 -0.1535
vn -0.1219 -0.7808 -0.6127
vn 0.0000 -0.6172 -0.7867
vn 0.0000 -0.7808 -0.6247
vn -0.1219 -0.7808 0.6127
vn -0.3011 -0.6172 0.7269
vn 0.7269 -0.6172 0.3011
vn 0.6542 -0.6172 0.4371
vn -0.2391 -0.7808 -0.5771
vn -0.1535 -0.6172 -0.7716
vn 0.3471 -0.7808 -0.5194
vn 0.5563 -0.6172 -0.5563
vn -0.6127 -0.7808 0.1219
vn -0.7867 -0.6172 0.0000
vn 0.0000 -0.7808 0.6247
vn -0.1535 -0.6172 0.7716
vn 0.6127 -0.7808 0.1219
vn 0.5771 -0.7808 0.2391
vn -0.3471 -0.7808 -0.5194
vn -0.3011 -0.6172 -0.7269
vn 0.2391 -0.7808 -0.5771
vn 0.4371 -0.6172 -0.6542
vn -0.7269 -0.6172 0.3011
vn -0.7716 -0.6172 0.1535
vn 0.1535 -0.6172 0.7716
vn 0.0000 -0.6172 0.7867
vn 0.6247 -0.7808 0.0000
vn 0.7716 -0.6172 0.1535
vn -0.5563 -0.6172 -0.5563
vn -0.4371 -0.6172 -0.6542
vn 0.1219 -0.7808 -0.6127
vn 0.3011 -0.6172 -0.7269
vn -0.5194 -0.7808 0.3471
vn -0.5771 -0.7808 0.2391
vn 0.1219 -0.7808 0.6127
vn 0.7867 -0.6172 0.0000
vn -0.4417 -0.7808 -0.4417
vn 0.1535 -0.6172 -0.7716
vn -0.6542 -0.6172 0.4371
vn 0.9753 -0.2208 0.0000
vn 0.9566 -0.2208 0.1903
vn -0.6896 -0.2208 -0.6897
vn -0.5419 -0.2208 -0.8109
vn 0.1903 -0.2208 -0.9566
vn 0.3732 -0.2208 -0.9011
vn -0.9011 -0.2208 0.3732
vn 0.1903 -0.2208 0.9566
vn 0.9566 -0.2208 -0.1903
vn 0.0000 -0.2208 -0.9753
vn -0.8109 -0.2208 0.5419
vn 0.3732 -0.2208 0.9011
vn -0.8109 -0.2208 -0.5419
vn -0.5419 -0.2208 0.8109
vn -0.6897 -0.2208 0.6897
vn 0.5419 -0.2208 0.8109
vn 0.8109 -0.2208 -0.5419
vn 0.9011 -0.2208 -0.3732
vn -0.9011 -0.2208 -0.3732
vn 0.8109 -0.2208 0.5419
vn 0.6897 -0.2208 0.6897
vn -0.9753 -0.2208 0.0000
vn -0.9566 -0.2208 -0.1903
vn -0.1903 -0.2208 -0.9566
vn -0.3732 -0.2208 0.9011
vn 0.9011 -0.2208 0.3732
vn 0.6897 -0.2208 -0.6897
vn -0.1903 -0.2208 0.9566
vn -0.3732 -0.2208 -0.9011
vn 0.5419 -0.2208 -0.8109
vn -0.9566 -0.2208 0.1903
vn 0.0000 -0.2208 0.9753
vn -0.1920 0.1769 0.9653
vn 0.9093 0.1769 0.3766
vn -0.3766 0.1769 -0.9093
vn 0.5468 0.1769 -0.8184
vn -0.9653 0.1769 0.1920
vn 0.0000 0.1769 0.9842
vn 0.9653 0.1769 0.1920
vn -0.5468 0.1769 -0.8184
vn 0.3766 0.1769 -0.9093
vn -0.9093 0.1769 0.3766
vn 0.1920 0.1769 0.9653
vn 0.9842 0.1769 0.0000
vn -0.6959 0.1769 -0.6959
vn 0.1920 0.1769 -0.9653
vn -0.8184 0.1769 0.5468
vn 0.3766 0.1769 0.9093
vn 0.9653 0.1769 -0.1920
vn -0.8184 0.1769 -0.5468
vn -0.6959 0.1769 0.6959
vn 0.5468 0.1769 0.8184
vn 0.9093 0.1769 -0.3766
vn -0.9093 0.1769 -0.3766
vn -0.5468 0.1769 0.8184
vn 0.6959 0.1769 0.6959
vn 0.8184 0.1769 -0.5468
vn -0.9653 0.1769 -0.1920
vn 0.0000 0.1769 -0.9842
vn -0.3766 0.1769 0.9093
vn 0.8184 0.1769 0.5468
vn -0.1920 0.1769 -0.9653
vn 0.6959 0.1769 -0.6959
vn -0.9842 0.1769 0.0000
vn 0.6030 0.5224 0.6030
vn 0.6030 0.5224 -0.6030
vn 0.7090 0.5224 -0.4737
vn -0.8363 0.5224 -0.1663
vn 0.0000 0.5224 -0.8527
vn -0.1663 0.5224 0.8363
vn -0.3263 0.5224 0.7878
vn 0.7090 0.5224 0.4737
vn -0.1663 0.5224 -0.8363
vn -0.8527 0.5224 0.0000
vn 0.0000 0.5224 0.8527
vn 0.7878 0.5224 0.3263
vn -0.3263 0.5224 -0.7878
vn 0.3263 0.5224 -0.7878
vn 0.4737 0.5224 -0.7090
vn -0.8363 0.5224 0.1663
vn 0.8363 0.5224 0.1663
vn -0.4737 0.5224 -0.7090
vn -0.7090 0.5224 0.4737
vn -0.7878 0.5224 0.3263
vn 0.3263 0.5224 0.7878
vn 0.1663 0.5224 0.8363
vn 0.8527 0.5224 0.0000
vn -0.7090 0.5224 -0.4737
vn -0.6030 0.5224 -0.6030
vn 0.1663 0.5224 -0.8363
vn 0.8363 0.5224 -0.1663
vn -0.7878 0.5224 -0.3263
vn -0.6030 0.5224 0.6030
vn 0.4737 0.5224 0.7090
vn 0.7878 0.5224 -0.3263
vn -0.4737 0.5224 0.7090
vn -0.3995 0.8246 0.4005
vn 0.4005 0.8246 0.3995
vn 0.3137 0.8246 0.4707
vn 0.5224 0.8246 -0.2171
vn -0.5547 0.8246 -0.1110
vn -0.5229 0.8246 -0.2159
vn -0.2159 0.8246 0.5229
vn -0.3148 0.8246 0.4700
vn 0.3995 0.8246 -0.4005
vn 0.4707 0.8246 -0.3137
vn -0.5657 0.8246 0.0006
vn -0.1097 0.8246 -0.5549
vn -0.0006 0.8246 -0.5657
vn -0.1110 0.8246 0.5547
vn 0.4700 0.8246 0.3148
vn -0.5549 0.8246 0.1097
vn 0.5229 0.8246 0.2159
vn -0.3137 0.8246 -0.4707
vn -0.2171 0.8246 -0.5224
vn 0.3148 0.8246 -0.4700
vn 0.0006 0.8246 0.5657
vn 0.5657 0.8246 -0.0006
vn 0.5547 0.8246 0.1110
vn 0.1110 0.8246 -0.5547
vn 0.2159 0.8246 -0.5229
vn -0.4707 0.8246 0.3137
vn -0.5224 0.8246 0.2171
vn 0.2171 0.8246 0.5224
vn 0.1097 0.8246 0.5549
vn -0.4700 0.8246 -0.3148
vn -0.4005 0.8246 -0.3995
vn 0.5549 0.8246 -0.1097
vn 0.0574 0.9803 0.1892
vn 0.1968 0.9803 0.0194
vn -0.1744 0.9803 -0.0932
vn -0.1254 0.9803 -0.1528
vn 0.0194 0.9803 -0.1968
vn -0.1528 0.9803 0.1254
vn 0.1892 0.9803 -0.0574
vn 0.1254 0.9803 0.1528
vn 0.1528 0.9803 -0.1254
vn -0.1968 0.9803 -0.0194
vn -0.0932 0.9803 0.1744
vn -0.0574 0.9803 -0.1892
vn 0.1744 0.9803 0.0932
vn 0.0932 0.9803 -0.1744
vn -0.1892 0.9803 0.0574
vn -0.0194 0.9803 0.1968
vn 0.0000 1.0000 0.0000
vn 0.0000 -0.8613 -0.5080
vn 0.1844 -0.7017 -0.6882
vn 0.1315 -0.8613 -0.4907
vn 0.2502 -0.2561 -0.9337
vn 0.0000 -0.2561 -0.9666
vn 0.0696 -0.9632 -0.2597
vn 0.0000 -0.9632 -0.2689
vn 0.2248 -0.4953 -0.8391
vn 0.0000 -0.4953 -0.8687
vn 0.0000 -0.7017 -0.7125
vn 0.2566 0.1305 -0.9576
vn 0.2588 0.0000 -0.9659
vn 0.1344 -0.9632 -0.2329
vn 0.3562 -0.7017 -0.6170
vn 0.5000 0.0000 -0.8660
vn 0.2540 -0.8613 -0.4400
vn 0.4833 -0.2561 -0.8371
vn 0.4343 -0.4953 -0.7523
vn 0.6835 -0.2561 -0.6835
vn 0.1901 -0.9632 -0.1901
vn 0.6142 -0.4953 -0.6142
vn 0.5038 -0.7017 -0.5038
vn 0.7010 0.1305 -0.7010
vn 0.3592 -0.8613 -0.3592
vn 0.8586 0.1305 -0.4957
vn 0.8660 0.0000 -0.5000
vn 0.6170 -0.7017 -0.3562
vn 0.4400 -0.8613 -0.2540
vn 0.8371 -0.2561 -0.4833
vn 0.2329 -0.9632 -0.1344
vn 0.7523 -0.4953 -0.4343
vn 0.8391 -0.4953 -0.2248
vn 0.2597 -0.9632 -0.0696
vn 0.6882 -0.7017 -0.1844
vn 0.9576 0.1305 -0.2566
vn 0.9659 0.0000 -0.2588
vn 0.4907 -0.8613 -0.1315
vn 0.9337 -0.2561 -0.2502
vn 0.9666 -0.2561 0.0000
vn 0.2689 -0.9632 0.0000
vn 0.8687 -0.4953 0.0000
vn 0.7125 -0.7017 0.0000
vn 0.9914 0.1305 0.0000
vn 0.5080 -0.8613 0.0000
vn 0.6882 -0.7017 0.1844
vn 0.9576 0.1305 0.2566
vn 0.9659 0.0000 0.2588
vn 0.4907 -0.8613 0.1315
vn 0.9337 -0.2561 0.2502
vn 0.2597 -0.9632 0.0696
vn 0.8391 -0.4953 0.2248
vn 0.8371 -0.2561 0.4833
vn 0.7523 -0.4953 0.4343
vn 0.2329 -0.9632 0.1344
vn 0.6170 -0.7017 0.3562
vn 0.8586 0.1305 0.4957
vn 0.8660 0.0000 0.5000
vn 0.4400 -0.8613 0.2540
vn 0.5038 -0.7017 0.5038
vn 0.3592 -0.8613 0.3592
vn 0.6835 -0.2561 0.6835
vn 0.1901 -0.9632 0.1901
vn 0.6142 -0.4953 0.6142
vn 0.7010 0.1305 0.7010
vn 0.3562 -0.7017 0.6170
vn 0.4957 0.1305 0.8586
vn 0.5000 0.0000 0.8660
vn 0.2540 -0.8613 0.4400
vn 0.4833 -0.2561 0.8371
vn 0.1344 -0.9632 0.2329
vn 0.4343 -0.4953 0.7523
vn 0.0696 -0.9632 0.2597
vn 0.2502 -0.2561 0.9337
vn 0.2248 -0.4953 0.8391
vn 0.1844 -0.7017 0.6882
vn 0.2566 0.1305 0.9576
vn 0.2588 0.0000 0.9659
vn 0.1315 -0.8613 0.4907
vn 0.0000 -0.7017 0.7125
vn 0.0000 -0.8613 0.5080
vn 0.0000 -0.2561 0.9666
vn 0.0000 -0.9632 0.2689
vn 0.0000 -0.4953 0.8687
vn 0.0000 0.1305 0.9914
vn -0.0696 -0.9632 0.2597
vn -0.1844 -0.7017 0.6882
vn -0.2566 0.1305 0.9576
vn -0.2588 0.0000 0.9659
vn -0.1315 -0.8613 0.4907
vn -0.2502 -0.2561 0.9337
vn -0.2248 -0.4953 0.8391
vn -0.1344 -0.9632 0.2329
vn -0.4343 -0.4953 0.7523
vn -0.3562 -0.7017 0.6170
vn -0.4957 0.1305 0.8586
vn -0.5000 0.0000 0.8660
vn -0.2540 -0.8613 0.4400
vn -0.4833 -0.2561 0.8371
vn -0.3592 -0.8613 0.3592
vn -0.6835 -0.2561 0.6835
vn -0.1901 -0.9632 0.1901
vn -0.6142 -0.4953 0.6142
vn -0.5038 -0.7017 0.5038
vn -0.7010 0.1305 0.7010
vn -0.2329 -0.9632 0.1344
vn -0.7523 -0.4953 0.4343
vn -0.6170 -0.7017 0.3562
vn -0.8586 0.1305 0.4957
vn -0.8660 0.0000 0.5000
vn -0.4400 -0.8613 0.2540
vn -0.8371 -0.2561 0.4833
vn -0.2597 -0.9632 0.0696
vn -0.9337 -0.2561 0.2502
vn -0.8391 -0.4953 0.2248
vn -0.6882 -0.7017 0.1844
vn -0.9576 0.1305 0.2566
vn -0.9659 0.0000 0.2588
vn -0.4907 -0.8613 0.1315
vn -0.9914 0.1305 0.0000
vn -0.7125 -0.7017 0.0000
vn -0.5080 -0.8613 0.0000
vn -0.9666 -0.2561 0.0000
vn -0.2689 -0.9632 0.0000
vn -0.8687 -0.4953 0.0000
vn -0.2597 -0.9632 -0.0696
vn -0.8391 -0.4953 -0.2248
vn -0.6882 -0.7017 -0.1844
vn -0.9576 0.1305 -0.2566
vn -0.9659 0.0000 -0.2588
vn -0.4907 -0.8613 -0.1315
vn -0.9337 -0.2561 -0.2502
vn -0.8371 -0.2561 -0.4833
vn -0.4400 -0.8613 -0.2540
vn -0.2329 -0.9632 -0.1344
vn -0.7523 -0.4953 -0.4343
vn -0.6170 -0.7017 -0.3562
vn -0.8586 0.1305 -0.4957
vn -0.8660 0.0000 -0.5000
vn -0.7010 0.1305 -0.7010
vn -0.5038 -0.7017 -0.5038
vn -0.3592 -0.8613 -0.3592
vn -0.6835 -0.2561 -0.6835
vn -0.1901 -0.9632 -0.1901
vn -0.6142 -0.4953 -0.6142
vn -0.4833 -0.2561 -0.8371
vn -0.4343 -0.4953 -0.7523
vn -0.1344 -0.9632 -0.2329
vn -0.3562 -0.7017 -0.6170
vn -0.4957 0.1305 -0.8586
vn -0.5000 0.0000 -0.8660
vn -0.2540 -0.8613 -0.4400
vn -0.2502 -0.2561 -0.9337
vn -0.1315 -0.8613 -0.4907
vn -0.0696 -0.9632 -0.2597
vn -0.2248 -0.4953 -0.8391
vn -0.1844 -0.7017 -0.6882
vn -0.2566 0.1305 -0.9576
vn -0.2588 0.0000 -0.9659
vn 0.0000 0.1305 -0.9914
vn 0.4957 0.1305 -0.8586
usemtl Material.001
s 1
f 20/1/1 548/2/2 18/3/3
f 509/4/4 4/5/5 2/6/6
f 36/7/7 556/8/8 34/9/9
f 508/10/10 6/11/11 4/12/5
f 52/13/12 564/14/13 50/15/14
f 510/16/15 8/17/16 6/11/11
f 14/18/17 545/19/18 12/20/19
f 9/21/20 10/22/21 8/17/16
f 4/5/5 540/23/22 2/6/6
f 11/24/23 12/25/19 10/22/21
f 30/26/24 553/27/25 28/28/26
f 513/29/27 14/30/17 12/25/19
f 46/31/28 561/32/29 44/33/30
f 514/34/31 16/35/32 14/30/17
f 62/36/33 569/37/34 60/38/35
f 515/39/36 18/40/3 16/35/32
f 8/41/16 542/42/37 6/43/11
f 19/44/38 20/45/1 18/40/3
f 24/46/39 550/47/40 22/48/41
f 21/49/42 22/50/41 20/45/1
f 40/51/43 558/52/44 38/53/45
f 518/54/46 24/46/39 22/48/41
f 56/55/47 566/56/48 54/57/49
f 25/58/50 26/59/51 24/46/39
f 18/3/3 547/60/52 16/61/32
f 27/62/53 28/28/26 26/59/51
f 34/9/9 555/63/54 32/64/55
f 29/65/56 30/26/24 28/28/26
f 48/66/57 564/14/13 563/67/58
f 31/68/59 32/64/55 30/26/24
f 12/20/19 544/69/60 10/70/21
f 523/71/61 34/9/9 32/64/55
f 64/72/62 540/23/22 571/73/63
f 35/74/64 36/7/7 34/9/9
f 28/28/26 552/75/65 26/59/51
f 36/76/7 526/77/66 38/53/45
f 44/33/30 560/78/67 42/79/68
f 526/77/66 40/51/43 38/53/45
f 60/38/35 568/80/69 58/81/70
f 40/51/43 43/82/71 42/79/68
f 6/83/11 541/84/72 4/5/5
f 43/82/71 44/33/30 42/79/68
f 22/48/41 549/85/73 20/86/1
f 44/33/30 47/87/74 46/31/28
f 38/53/45 557/88/75 36/76/7
f 47/87/74 48/66/57 46/31/28
f 54/89/49 565/90/76 52/13/12
f 48/66/57 51/91/77 50/15/14
f 16/61/32 546/92/78 14/18/17
f 50/15/14 53/93/79 52/13/12
f 32/64/55 554/94/80 30/26/24
f 52/13/12 55/95/81 54/89/49
f 46/31/28 563/67/58 562/96/82
f 55/97/81 56/55/47 54/57/49
f 64/72/62 570/98/83 62/36/33
f 57/99/84 58/81/70 56/55/47
f 10/70/21 543/100/85 8/41/16
f 59/101/86 60/38/35 58/81/70
f 26/59/51 551/102/87 24/46/39
f 60/38/35 63/103/88 62/36/33
f 42/79/68 559/104/89 40/51/43
f 62/36/33 65/105/90 64/72/62
f 58/81/70 567/106/91 56/55/47
f 64/72/62 509/4/4 2/6/6
f 20/1/1 549/107/73 548/2/2
f 509/4/4 508/108/10 4/5/5
f 36/7/7 557/109/75 556/8/8
f 508/10/10 510/16/15 6/11/11
f 52/13/12 565/90/76 564/14/13
f 510/16/15 9/21/20 8/17/16
f 14/18/17 546/92/78 545/19/18
f 9/21/20 11/24/23 10/22/21
f 4/5/5 541/84/72 540/23/22
f 11/24/23 513/29/27 12/25/19
f 30/26/24 554/94/80 553/27/25
f 513/29/27 514/34/31 14/30/17
f 46/31/28 562/96/82 561/32/29
f 514/34/31 515/39/36 16/35/32
f 62/36/33 570/98/83 569/37/34
f 515/39/36 19/44/38 18/40/3
f 8/41/16 543/100/85 542/42/37
f 19/44/38 21/49/42 20/45/1
f 24/46/39 551/102/87 550/47/40
f 21/49/42 518/110/46 22/50/41
f 40/51/43 559/104/89 558/52/44
f 518/54/46 25/58/50 24/46/39
f 56/55/47 567/106/91 566/56/48
f 25/58/50 27/62/53 26/59/51
f 18/3/3 548/2/2 547/60/52
f 27/62/53 29/65/56 28/28/26
f 34/9/9 556/8/8 555/63/54
f 29/65/56 31/68/59 30/26/24
f 48/66/57 50/15/14 564/14/13
f 31/68/59 523/71/61 32/64/55
f 12/20/19 545/19/18 544/69/60
f 523/71/61 35/74/64 34/9/9
f 64/72/62 2/6/6 540/23/22
f 35/74/64 37/111/92 36/7/7
f 28/28/26 553/27/25 552/75/65
f 36/76/7 37/112/92 526/77/66
f 44/33/30 561/32/29 560/78/67
f 526/77/66 41/113/93 40/51/43
f 60/38/35 569/37/34 568/80/69
f 40/51/43 41/113/93 43/82/71
f 6/83/11 542/114/37 541/84/72
f 43/82/71 45/115/94 44/33/30
f 22/48/41 550/47/40 549/85/73
f 44/33/30 45/115/94 47/87/74
f 38/53/45 558/52/44 557/88/75
f 47/87/74 531/116/95 48/66/57
f 54/89/49 566/117/48 565/90/76
f 48/66/57 531/116/95 51/91/77
f 16/61/32 547/60/52 546/92/78
f 50/15/14 51/91/77 53/93/79
f 32/64/55 555/63/54 554/94/80
f 52/13/12 53/93/79 55/95/81
f 46/31/28 48/66/57 563/67/58
f 55/97/81 57/99/84 56/55/47
f 64/72/62 571/73/63 570/98/83
f 57/99/84 59/101/86 58/81/70
f 10/70/21 544/69/60 543/100/85
f 59/101/86 61/118/96 60/38/35
f 26/59/51 552/75/65 551/102/87
f 60/38/35 61/118/96 63/103/88
f 42/79/68 560/78/67 559/104/89
f 62/36/33 63/103/88 65/105/90
f 58/81/70 568/80/69 567/106/91
f 64/72/62 65/105/90 509/4/4
s 2
f 511/119/97 576/120/98 512/121/98
f 519/122/99 584/123/100 520/124/100
f 527/125/101 592/126/102 528/127/102
f 536/128/103 599/129/104 600/130/103
f 516/131/105 581/132/106 517/133/106
f 525/134/107 588/135/108 589/136/107
f 533/137/109 596/138/110 597/139/109
f 3/140/111 572/141/112 5/142/112
f 13/143/113 578/144/114 15/145/114
f 521/146/115 586/147/116 522/148/116
f 529/149/117 594/150/118 530/151/118
f 538/152/119 601/153/120 602/154/119
f 7/155/121 575/156/97 511/119/97
f 23/157/122 583/158/99 519/122/99
f 39/159/123 591/160/101 527/125/101
f 534/161/124 599/129/104 535/162/104
f 17/163/125 580/164/105 516/131/105
f 33/165/126 588/135/108 524/166/108
f 49/167/127 596/138/110 532/168/110
f 512/121/98 577/169/113 13/143/113
f 520/124/100 585/170/115 521/146/115
f 529/149/117 592/126/102 593/171/117
f 536/128/103 601/153/120 537/172/120
f 3/140/111 603/173/128 573/174/111
f 5/142/112 574/175/121 7/155/121
f 517/133/106 582/176/122 23/157/122
f 525/134/107 590/177/123 39/159/123
f 534/161/124 597/139/109 598/178/124
f 15/145/114 579/179/125 17/163/125
f 522/148/116 587/180/126 33/165/126
f 530/151/118 595/181/127 49/167/127
f 538/152/119 603/173/128 539/182/128
f 511/119/97 575/156/97 576/120/98
f 519/122/99 583/158/99 584/123/100
f 527/125/101 591/160/101 592/126/102
f 536/128/103 535/162/104 599/129/104
f 516/131/105 580/164/105 581/132/106
f 525/134/107 524/166/108 588/135/108
f 533/137/109 532/168/110 596/138/110
f 3/140/111 573/174/111 572/141/112
f 13/143/113 577/169/113 578/144/114
f 521/146/115 585/170/115 586/147/116
f 529/149/117 593/171/117 594/150/118
f 538/152/119 537/172/120 601/153/120
f 7/155/121 574/175/121 575/156/97
f 23/157/122 582/176/122 583/158/99
f 39/159/123 590/177/123 591/160/101
f 534/161/124 598/178/124 599/129/104
f 17/163/125 579/179/125 580/164/105
f 33/165/126 587/180/126 588/135/108
f 49/167/127 595/181/127 596/138/110
f 512/121/98 576/120/98 577/169/113
f 520/124/100 584/123/100 585/170/115
f 529/149/117 528/127/102 592/126/102
f 536/128/103 600/130/103 601/153/120
f 3/140/111 539/182/128 603/173/128
f 5/142/112 572/141/112 574/175/121
f 517/133/106 581/132/106 582/176/122
f 525/134/107 589/136/107 590/177/123
f 534/161/124 533/137/109 597/139/109
f 15/145/114 578/144/114 579/179/125
f 522/148/116 586/147/116 587/180/126
f 530/151/118 594/150/118 595/181/127
f 538/152/119 602/154/119 603/173/128
s 3
f 67/183/129 68/184/129 66/185/129
f 67/183/129 66/185/129 69/186/129
f 67/183/129 69/186/129 70/187/129
f 67/183/129 70/187/129 71/188/129
f 67/183/129 71/188/129 72/189/129
f 67/183/129 72/189/129 73/190/129
f 67/183/129 73/190/129 74/191/129
f 67/183/129 74/191/129 75/192/129
f 67/183/129 75/192/129 76/193/129
f 67/183/129 76/193/129 77/194/129
f 67/183/129 77/194/129 78/195/129
f 67/183/129 78/195/129 79/196/129
f 67/183/129 79/196/129 80/197/129
f 67/183/129 80/197/129 81/198/129
f 67/183/129 81/198/129 82/199/129
f 67/183/129 82/199/129 83/200/129
f 67/183/129 83/200/129 84/201/129
f 67/183/129 84/201/129 85/202/129
f 67/183/129 85/202/129 86/203/129
f 67/183/129 86/203/129 87/204/129
f 67/183/129 87/204/129 88/205/129
f 67/183/129 88/205/129 89/206/129
f 67/183/129 89/206/129 90/207/129
f 67/183/129 90/207/129 91/208/129
f 67/183/129 91/208/129 92/209/129
f 67/183/129 92/209/129 93/210/129
f 67/183/129 93/210/129 94/211/129
f 67/183/129 94/211/129 95/212/129
f 67/183/129 95/212/129 96/213/129
f 67/183/129 96/213/129 97/214/129
f 67/183/129 97/214/129 98/215/129
f 67/183/129 98/215/129 68/184/129
s 4
f 105/216/130 610/217/131 106/218/131
f 125/219/132 630/220/133 126/221/133
f 118/222/134 623/223/135 119/224/135
f 111/225/136 616/226/137 112/227/137
f 104/228/138 609/229/130 105/216/130
f 124/230/139 629/231/132 125/232/132
f 131/233/140 605/234/141 99/235/141
f 117/236/142 622/237/134 118/238/134
f 110/239/143 615/240/136 111/225/136
f 130/241/144 635/242/140 131/233/140
f 103/243/145 608/244/138 104/228/138
f 123/245/146 628/246/139 124/230/139
f 116/247/147 621/248/142 117/236/142
f 109/249/148 614/250/143 110/239/143
f 129/251/149 634/252/144 130/241/144
f 102/253/150 607/254/145 103/243/145
f 122/255/151 627/256/146 123/245/146
f 115/257/152 620/258/147 116/247/147
f 108/259/153 613/260/148 109/261/148
f 128/262/154 633/263/149 129/251/149
f 101/264/155 606/265/150 102/266/150
f 121/267/156 626/268/151 122/255/151
f 114/269/157 619/270/152 115/257/152
f 107/271/158 612/272/153 108/259/153
f 127/273/159 632/274/154 128/262/154
f 99/235/141 604/275/155 101/264/155
f 120/276/160 625/277/156 121/267/156
f 113/278/161 618/279/157 114/269/157
f 106/218/131 611/280/158 107/271/158
f 126/221/133 631/281/159 127/273/159
f 119/224/135 624/282/160 120/276/160
f 112/227/137 617/283/161 113/278/161
f 105/216/130 609/229/130 610/217/131
f 125/219/132 629/284/132 630/220/133
f 118/222/134 622/285/134 623/223/135
f 111/225/136 615/240/136 616/226/137
f 104/228/138 608/244/138 609/229/130
f 124/230/139 628/246/139 629/231/132
f 131/233/140 635/242/140 605/234/141
f 117/236/142 621/248/142 622/237/134
f 110/239/143 614/250/143 615/240/136
f 130/241/144 634/252/144 635/242/140
f 103/243/145 607/254/145 608/244/138
f 123/245/146 627/256/146 628/246/139
f 116/247/147 620/258/147 621/248/142
f 109/249/148 613/286/148 614/250/143
f 129/251/149 633/263/149 634/252/144
f 102/253/150 606/287/150 607/254/145
f 122/255/151 626/268/151 627/256/146
f 115/257/152 619/270/152 620/258/147
f 108/259/153 612/272/153 613/260/148
f 128/262/154 632/274/154 633/263/149
f 101/264/155 604/275/155 606/265/150
f 121/267/156 625/277/156 626/268/151
f 114/269/157 618/279/157 619/270/152
f 107/271/158 611/280/158 612/272/153
f 127/273/159 631/281/159 632/274/154
f 99/235/141 605/234/141 604/275/155
f 120/276/160 624/282/160 625/277/156
f 113/278/161 617/283/161 618/279/157
f 106/218/131 610/217/131 611/280/158
f 126/221/133 630/220/133 631/281/159
f 119/224/135 623/223/135 624/282/160
f 112/227/137 616/226/137 617/283/161
s 5
f 146/288/162 177/289/163 178/290/164
f 138/291/165 171/292/166 139/293/167
f 159/294/168 190/295/169 191/296/170
f 152/297/171 183/298/172 184/299/173
f 144/300/174 177/289/163 145/301/175
f 137/302/176 170/303/177 138/291/165
f 157/304/178 190/295/169 158/305/179
f 150/306/180 183/298/172 151/307/181
f 143/308/182 176/309/183 144/300/174
f 136/310/184 169/311/185 137/302/176
f 156/312/186 189/313/187 157/314/178
f 163/315/188 100/316/189 1/317/190
f 149/318/191 182/319/192 150/320/180
f 143/308/182 174/321/193 175/322/194
f 162/323/195 195/324/196 163/315/188
f 135/325/197 168/326/198 136/310/184
f 155/327/199 188/328/200 156/312/186
f 148/329/201 181/330/202 149/318/191
f 141/331/203 174/321/193 142/332/204
f 161/333/205 194/334/206 162/323/195
f 134/335/207 167/336/208 135/325/197
f 155/327/199 186/337/209 187/338/210
f 148/329/201 179/339/211 180/340/212
f 140/341/213 173/342/214 141/331/203
f 161/333/205 192/343/215 193/344/216
f 133/345/217 166/346/218 134/335/207
f 153/347/219 186/337/209 154/348/220
f 146/288/162 179/339/211 147/349/221
f 140/341/213 171/292/166 172/350/222
f 159/294/168 192/343/215 160/351/223
f 1/317/190 165/352/224 133/345/217
f 152/297/171 185/353/225 153/347/219
f 173/354/214 204/355/226 205/356/227
f 193/357/216 224/358/228 225/359/229
f 166/360/218 197/361/230 198/362/231
f 185/353/225 218/363/232 186/337/209
f 178/364/164 211/365/233 179/366/211
f 172/367/222 203/368/234 204/355/226
f 191/369/170 224/358/228 192/370/215
f 165/371/224 132/372/235 197/361/230
f 184/299/173 217/373/236 185/353/225
f 177/374/163 210/375/237 178/364/164
f 170/376/177 203/368/234 171/377/166
f 190/378/169 223/379/238 191/369/170
f 184/299/173 215/380/239 216/381/240
f 176/382/183 209/383/241 177/374/163
f 170/376/177 201/384/242 202/385/243
f 189/313/187 222/386/244 190/387/169
f 182/388/192 215/380/239 183/298/172
f 176/382/183 207/389/245 208/390/246
f 168/391/198 201/384/242 169/392/185
f 189/313/187 220/393/247 221/394/248
f 100/395/189 227/396/249 132/372/235
f 181/397/202 214/398/250 182/388/192
f 175/399/194 206/400/251 207/389/245
f 194/401/206 227/396/249 195/402/196
f 167/403/208 200/404/252 168/391/198
f 187/338/210 220/393/247 188/328/200
f 180/405/212 213/406/253 181/407/202
f 174/408/193 205/409/227 206/400/251
f 193/357/216 226/410/254 194/401/206
f 166/411/218 199/412/255 167/403/208
f 187/338/210 218/363/232 219/413/256
f 180/405/212 211/365/233 212/414/257
f 212/414/257 245/415/258 213/406/253
f 205/409/227 238/416/259 206/400/251
f 225/359/229 258/417/260 226/410/254
f 198/418/231 231/419/261 199/412/255
f 218/363/232 251/420/262 219/413/256
f 211/365/233 244/421/263 212/414/257
f 204/355/226 237/422/264 205/356/227
f 224/358/228 257/423/265 225/359/229
f 197/361/230 230/424/266 198/362/231
f 217/373/236 250/425/267 218/363/232
f 210/375/237 243/426/268 211/365/233
f 203/368/234 236/427/269 204/355/226
f 223/379/238 256/428/270 224/358/228
f 132/372/235 229/429/271 197/361/230
f 216/381/240 249/430/272 217/373/236
f 209/383/241 242/431/273 210/375/237
f 202/385/243 235/432/274 203/368/234
f 222/433/244 255/434/275 223/379/238
f 215/380/239 248/435/276 216/381/240
f 208/390/246 241/436/277 209/383/241
f 201/384/242 234/437/278 202/385/243
f 221/438/248 254/439/279 222/433/244
f 214/398/250 247/440/280 215/380/239
f 207/389/245 240/441/281 208/390/246
f 200/404/252 233/442/282 201/384/242
f 220/393/247 253/443/283 221/394/248
f 227/396/249 164/444/284 132/372/235
f 213/406/253 246/445/285 214/446/250
f 206/400/251 239/447/286 207/389/245
f 226/410/254 259/448/287 227/396/249
f 199/412/255 232/449/288 200/404/252
f 219/413/256 252/450/289 220/393/247
f 239/447/286 272/451/290 240/441/281
f 233/442/282 264/452/291 265/453/292
f 252/450/289 285/454/293 253/443/283
f 259/448/287 196/455/294 164/444/284
f 246/445/285 277/456/295 278/457/296
f 238/416/259 271/458/297 239/447/286
f 258/417/260 291/459/298 259/448/287
f 231/419/261 264/452/291 232/449/288
f 251/420/262 284/460/299 252/450/289
f 245/415/258 276/461/300 277/456/295
f 237/422/264 270/462/301 238/463/259
f 257/423/265 290/464/302 258/417/260
f 231/419/261 262/465/303 263/466/304
f 250/425/267 283/467/305 251/420/262
f 243/426/268 276/461/300 244/421/263
f 236/427/269 269/468/306 237/422/264
f 256/428/270 289/469/307 257/423/265
f 229/470/271 262/465/303 230/471/266
f 250/425/267 281/472/308 282/473/309
f 243/426/268 274/474/310 275/475/311
f 235/432/274 268/476/312 236/427/269
f 256/428/270 287/477/313 288/478/314
f 164/444/284 261/479/315 229/429/271
f 248/435/276 281/472/308 249/430/272
f 241/436/277 274/474/310 242/431/273
f 234/437/278 267/480/316 235/432/274
f 255/434/275 286/481/317 287/477/313
f 247/440/280 280/482/318 248/435/276
f 241/436/277 272/451/290 273/483/319
f 233/442/282 266/484/320 234/437/278
f 254/439/279 285/485/293 286/481/317
f 246/486/285 279/487/321 247/440/280
f 279/488/321 311/489/322 280/490/318
f 273/491/319 303/492/323 304/493/324
f 265/453/292 297/494/325 266/484/320
f 286/495/317 316/496/326 317/497/327
f 279/488/321 309/498/328 310/499/329
f 271/500/297 303/492/323 272/501/290
f 265/453/292 295/502/330 296/503/331
f 285/504/293 315/505/332 316/496/326
f 196/455/294 322/506/333 228/507/334
f 278/508/296 308/509/335 309/498/328
f 270/510/301 302/511/336 271/500/297
f 290/464/302 322/506/333 291/459/298
f 263/466/304 295/502/330 264/452/291
f 284/512/299 314/513/337 315/505/332
f 276/514/300 308/509/335 277/515/295
f 269/468/306 301/516/338 270/462/301
f 290/464/302 320/517/339 321/518/340
f 262/465/303 294/519/341 263/466/304
f 282/520/309 314/513/337 283/521/305
f 275/522/311 307/523/342 276/514/300
f 269/468/306 299/524/343 300/525/344
f 288/526/314 320/527/339 289/528/307
f 262/465/303 292/529/345 293/530/346
f 282/520/309 312/531/347 313/532/348
f 275/522/311 305/533/349 306/534/350
f 267/480/316 299/524/343 268/476/312
f 288/526/314 318/535/351 319/536/352
f 196/537/294 292/529/345 261/538/315
f 281/539/308 311/489/322 312/531/347
f 273/491/319 305/533/349 274/540/310
f 266/484/320 298/541/353 267/480/316
f 287/542/313 317/497/327 318/535/351
f 306/534/350 305/533/349 330/543/354
f 298/544/353 327/545/355 299/546/343
f 319/536/352 336/547/356 337/548/357
f 292/549/345 228/550/334 260/551/358
f 312/531/347 311/489/322 333/552/359
f 304/493/324 330/543/354 305/533/349
f 298/544/353 297/553/325 326/554/360
f 318/535/351 317/497/327 336/547/356
f 310/499/329 333/552/359 311/489/322
f 304/493/324 303/492/323 329/555/361
f 297/553/325 325/556/362 326/554/360
f 317/497/327 335/557/363 336/547/356
f 310/499/329 309/498/328 332/558/364
f 302/511/336 329/555/361 303/492/323
f 296/559/331 295/560/330 325/556/362
f 316/496/326 315/505/332 335/557/363
f 228/550/334 338/561/365 260/551/358
f 308/509/335 332/558/364 309/498/328
f 302/511/336 301/562/338 328/563/366
f 322/564/333 321/565/340 338/561/365
f 295/560/330 324/566/367 325/556/362
f 315/505/332 334/567/368 335/557/363
f 308/509/335 307/523/342 331/568/369
f 300/569/344 328/563/366 301/562/338
f 320/527/339 338/561/365 321/565/340
f 294/570/341 293/571/346 324/566/367
f 314/513/337 313/532/348 334/567/368
f 306/534/350 331/568/369 307/523/342
f 300/569/344 299/546/343 327/545/355
f 320/527/339 319/536/352 337/548/357
f 292/549/345 324/566/367 293/571/346
f 313/532/348 333/552/359 334/567/368
f 323/572/370 324/566/367 260/551/358
f 323/572/370 325/556/362 324/566/367
f 323/572/370 326/554/360 325/556/362
f 323/572/370 327/545/355 326/554/360
f 323/572/370 328/563/366 327/545/355
f 323/572/370 329/555/361 328/563/366
f 323/572/370 330/543/354 329/555/361
f 323/572/370 331/568/369 330/543/354
f 323/572/370 332/558/364 331/568/369
f 323/572/370 333/552/359 332/558/364
f 323/572/370 334/567/368 333/552/359
f 323/572/370 335/557/363 334/567/368
f 323/572/370 336/547/356 335/557/363
f 323/572/370 337/548/357 336/547/356
f 323/572/370 338/561/365 337/548/357
f 323/572/370 260/551/358 338/561/365
f 146/288/162 145/301/175 177/289/163
f 138/291/165 170/303/177 171/292/166
f 159/294/168 158/305/179 190/295/169
f 152/297/171 151/307/181 183/298/172
f 144/300/174 176/309/183 177/289/163
f 137/302/176 169/311/185 170/303/177
f 157/304/178 189/573/187 190/295/169
f 150/306/180 182/388/192 183/298/172
f 143/308/182 175/322/194 176/309/183
f 136/310/184 168/326/198 169/311/185
f 156/312/186 188/328/200 189/313/187
f 163/315/188 195/324/196 100/316/189
f 149/318/191 181/330/202 182/319/192
f 143/308/182 142/332/204 174/321/193
f 162/323/195 194/334/206 195/324/196
f 135/325/197 167/336/208 168/326/198
f 155/327/199 187/338/210 188/328/200
f 148/329/201 180/340/212 181/330/202
f 141/331/203 173/342/214 174/321/193
f 161/333/205 193/344/216 194/334/206
f 134/335/207 166/346/218 167/336/208
f 155/327/199 154/348/220 186/337/209
f 148/329/201 147/349/221 179/339/211
f 140/341/213 172/350/222 173/342/214
f 161/333/205 160/351/223 192/343/215
f 133/345/217 165/352/224 166/346/218
f 153/347/219 185/353/225 186/337/209
f 146/288/162 178/290/164 179/339/211
f 140/341/213 139/293/167 171/292/166
f 159/294/168 191/296/170 192/343/215
f 1/317/190 100/316/189 165/352/224
f 152/297/171 184/299/173 185/353/225
f 173/354/214 172/367/222 204/355/226
f 193/357/216 192/370/215 224/358/228
f 166/360/218 165/371/224 197/361/230
f 185/353/225 217/373/236 218/363/232
f 178/364/164 210/375/237 211/365/233
f 172/367/222 171/377/166 203/368/234
f 191/369/170 223/379/238 224/358/228
f 165/371/224 100/395/189 132/372/235
f 184/299/173 216/381/240 217/373/236
f 177/374/163 209/383/241 210/375/237
f 170/376/177 202/385/243 203/368/234
f 190/378/169 222/433/244 223/379/238
f 184/299/173 183/298/172 215/380/239
f 176/382/183 208/390/246 209/383/241
f 170/376/177 169/392/185 201/384/242
f 189/313/187 221/394/248 222/386/244
f 182/388/192 214/398/250 215/380/239
f 176/382/183 175/399/194 207/389/245
f 168/391/198 200/404/252 201/384/242
f 189/313/187 188/328/200 220/393/247
f 100/395/189 195/402/196 227/396/249
f 181/397/202 213/574/253 214/398/250
f 175/399/194 174/408/193 206/400/251
f 194/401/206 226/410/254 227/396/249
f 167/403/208 199/412/255 200/404/252
f 187/338/210 219/413/256 220/393/247
f 180/405/212 212/414/257 213/406/253
f 174/408/193 173/575/214 205/409/227
f 193/357/216 225/359/229 226/410/254
f 166/411/218 198/418/231 199/412/255
f 187/338/210 186/337/209 218/363/232
f 180/405/212 179/366/211 211/365/233
f 212/414/257 244/421/263 245/415/258
f 205/409/227 237/576/264 238/416/259
f 225/359/229 257/423/265 258/417/260
f 198/418/231 230/471/266 231/419/261
f 218/363/232 250/425/267 251/420/262
f 211/365/233 243/426/268 244/421/263
f 204/355/226 236/427/269 237/422/264
f 224/358/228 256/428/270 257/423/265
f 197/361/230 229/429/271 230/424/266
f 217/373/236 249/430/272 250/425/267
f 210/375/237 242/431/273 243/426/268
f 203/368/234 235/432/274 236/427/269
f 223/379/238 255/434/275 256/428/270
f 132/372/235 164/444/284 229/429/271
f 216/381/240 248/435/276 249/430/272
f 209/383/241 241/436/277 242/431/273
f 202/385/243 234/437/278 235/432/274
f 222/433/244 254/439/279 255/434/275
f 215/380/239 247/440/280 248/435/276
f 208/390/246 240/441/281 241/436/277
f 201/384/242 233/442/282 234/437/278
f 221/438/248 253/577/283 254/439/279
f 214/398/250 246/486/285 247/440/280
f 207/389/245 239/447/286 240/441/281
f 200/404/252 232/449/288 233/442/282
f 220/393/247 252/450/289 253/443/283
f 227/396/249 259/448/287 164/444/284
f 213/406/253 245/415/258 246/445/285
f 206/400/251 238/416/259 239/447/286
f 226/410/254 258/417/260 259/448/287
f 199/412/255 231/419/261 232/449/288
f 219/413/256 251/420/262 252/450/289
f 239/447/286 271/458/297 272/451/290
f 233/442/282 232/449/288 264/452/291
f 252/450/289 284/460/299 285/454/293
f 259/448/287 291/459/298 196/455/294
f 246/445/285 245/415/258 277/456/295
f 238/416/259 270/578/301 271/458/297
f 258/417/260 290/464/302 291/459/298
f 231/419/261 263/466/304 264/452/291
f 251/420/262 283/467/305 284/460/299
f 245/415/258 244/421/263 276/461/300
f 237/422/264 269/468/306 270/462/301
f 257/423/265 289/469/307 290/464/302
f 231/419/261 230/471/266 262/465/303
f 250/425/267 282/473/309 283/467/305
f 243/426/268 275/475/311 276/461/300
f 236/427/269 268/476/312 269/468/306
f 256/428/270 288/478/314 289/469/307
f 229/470/271 261/538/315 262/465/303
f 250/425/267 249/430/272 281/472/308
f 243/426/268 242/431/273 274/474/310
f 235/432/274 267/480/316 268/476/312
f 256/428/270 255/434/275 287/477/313
f 164/444/284 196/455/294 261/479/315
f 248/435/276 280/482/318 281/472/308
f 241/436/277 273/483/319 274/474/310
f 234/437/278 266/484/320 267/480/316
f 255/434/275 254/439/279 286/481/317
f 247/440/280 279/487/321 280/482/318
f 241/436/277 240/441/281 272/451/290
f 233/442/282 265/453/292 266/484/320
f 254/439/279 253/577/283 285/485/293
f 246/486/285 278/579/296 279/487/321
f 279/488/321 310/499/329 311/489/322
f 273/491/319 272/501/290 303/492/323
f 265/453/292 296/503/331 297/494/325
f 286/495/317 285/504/293 316/496/326
f 279/488/321 278/508/296 309/498/328
f 271/500/297 302/511/336 303/492/323
f 265/453/292 264/452/291 295/502/330
f 285/504/293 284/512/299 315/505/332
f 196/455/294 291/459/298 322/506/333
f 278/508/296 277/515/295 308/509/335
f 270/510/301 301/562/338 302/511/336
f 290/464/302 321/518/340 322/506/333
f 263/466/304 294/519/341 295/502/330
f 284/512/299 283/521/305 314/513/337
f 276/514/300 307/523/342 308/509/335
f 269/468/306 300/525/344 301/516/338
f 290/464/302 289/469/307 320/517/339
f 262/465/303 293/530/346 294/519/341
f 282/520/309 313/532/348 314/513/337
f 275/522/311 306/534/350 307/523/342
f 269/468/306 268/476/312 299/524/343
f 288/526/314 319/536/352 320/527/339
f 262/465/303 261/538/315 292/529/345
f 282/520/309 281/539/308 312/531/347
f 275/522/311 274/540/310 305/533/349
f 267/480/316 298/541/353 299/524/343
f 288/526/314 287/542/313 318/535/351
f 196/537/294 228/580/334 292/529/345
f 281/539/308 280/490/318 311/489/322
f 273/491/319 304/493/324 305/533/349
f 266/484/320 297/494/325 298/541/353
f 287/542/313 286/495/317 317/497/327
f 298/544/353 326/554/360 327/545/355
f 319/536/352 318/535/351 336/547/356
f 304/493/324 329/555/361 330/543/354
f 310/499/329 332/558/364 333/552/359
f 297/553/325 296/559/331 325/556/362
f 317/497/327 316/496/326 335/557/363
f 302/511/336 328/563/366 329/555/361
f 228/550/334 322/564/333 338/561/365
f 308/509/335 331/568/369 332/558/364
f 295/560/330 294/570/341 324/566/367
f 315/505/332 314/513/337 334/567/368
f 300/569/344 327/545/355 328/563/366
f 320/527/339 337/548/357 338/561/365
f 306/534/350 330/543/354 331/568/369
f 292/549/345 260/551/358 324/566/367
f 313/532/348 312/531/347 333/552/359
s 6
f 506/581/371 345/582/372 346/583/373
f 339/584/141 343/585/374 504/586/375
f 506/581/371 347/587/376 507/588/377
f 504/586/375 344/589/378 340/590/379
f 446/591/129 507/588/377 347/587/376
f 505/592/380 344/589/378 345/593/372
f 339/584/141 341/594/381 342/595/382
f 446/591/129 347/587/376 354/596/383
f 344/597/378 352/598/384 345/582/372
f 341/599/381 349/600/385 342/601/382
f 345/582/372 353/602/386 346/583/373
f 342/601/382 350/603/387 343/604/374
f 347/587/376 353/602/386 354/596/383
f 343/585/374 351/605/388 344/589/378
f 349/600/385 357/606/389 350/603/387
f 353/602/386 361/607/390 354/596/383
f 350/603/387 358/608/391 351/609/388
f 446/591/129 354/596/383 361/607/390
f 351/610/388 359/611/392 352/598/384
f 349/600/385 355/612/393 356/613/138
f 353/602/386 359/611/392 360/614/394
f 356/613/138 362/615/395 363/616/396
f 360/614/394 366/617/397 367/618/398
f 356/613/138 364/619/399 357/606/389
f 360/614/394 368/620/400 361/607/390
f 357/606/389 365/621/401 358/608/391
f 446/591/129 361/607/390 368/620/400
f 358/622/391 366/617/397 359/611/392
f 364/619/399 372/623/402 365/621/401
f 446/591/129 368/620/400 375/624/403
f 365/625/401 373/626/404 366/617/397
f 363/616/396 369/627/405 370/628/406
f 367/618/398 373/626/404 374/629/407
f 363/616/396 371/630/408 364/619/399
f 367/618/398 375/624/403 368/620/400
f 370/628/406 378/631/409 371/630/408
f 374/629/407 382/632/410 375/624/403
f 372/623/402 378/631/409 379/633/411
f 446/591/129 375/624/403 382/632/410
f 372/634/402 380/635/412 373/626/404
f 370/628/406 376/636/413 377/637/153
f 374/629/407 380/635/412 381/638/414
f 379/639/411 387/640/415 380/635/412
f 377/637/153 383/641/416 384/642/417
f 380/635/412 388/643/418 381/638/414
f 377/637/153 385/644/419 378/631/409
f 381/638/414 389/645/420 382/632/410
f 378/631/409 386/646/421 379/633/411
f 446/591/129 382/632/410 389/645/420
f 386/647/421 392/648/422 393/649/423
f 446/591/129 389/645/420 396/650/424
f 386/651/421 394/652/425 387/640/415
f 384/653/417 390/654/426 391/655/427
f 388/643/418 394/652/425 395/656/428
f 384/653/417 392/648/422 385/657/419
f 388/643/418 396/650/424 389/645/420
f 395/656/428 401/658/429 402/659/430
f 391/655/427 399/660/431 392/648/422
f 395/656/428 403/661/432 396/650/424
f 392/648/422 400/662/433 393/649/423
f 446/591/129 396/650/424 403/661/432
f 393/649/423 401/663/429 394/664/425
f 391/655/427 397/665/434 398/666/137
f 400/662/433 408/667/435 401/663/429
f 398/666/137 404/668/436 405/669/437
f 401/658/429 409/670/438 402/659/430
f 398/666/137 406/671/439 399/660/431
f 402/659/430 410/672/440 403/661/432
f 400/662/433 406/671/439 407/673/441
f 446/591/129 403/661/432 410/672/440
f 409/670/438 417/674/442 410/672/440
f 407/673/441 413/675/443 414/676/444
f 446/591/129 410/672/440 417/674/442
f 407/673/441 415/677/445 408/667/435
f 405/669/437 411/678/446 412/679/447
f 408/680/435 416/681/448 409/670/438
f 405/669/437 413/675/443 406/671/439
f 416/681/448 422/682/449 423/683/450
f 412/679/447 420/684/451 413/675/443
f 416/681/448 424/685/452 417/674/442
f 414/676/444 420/684/451 421/686/453
f 446/591/129 417/674/442 424/685/452
f 414/676/444 422/687/449 415/677/445
f 412/679/447 418/688/454 419/689/147
f 446/591/129 424/685/452 431/690/455
f 421/686/453 429/691/456 422/687/449
f 419/689/147 425/692/457 426/693/458
f 422/682/449 430/694/459 423/683/450
f 419/689/147 427/695/460 420/684/451
f 423/683/450 431/690/455 424/685/452
f 421/686/453 427/695/460 428/696/461
f 430/694/459 438/697/462 431/690/455
f 427/698/460 435/699/463 428/700/461
f 446/591/129 431/690/455 438/697/462
f 428/700/461 436/701/464 429/702/456
f 426/703/458 432/704/465 433/705/466
f 429/706/456 437/707/467 430/694/459
f 426/703/458 434/708/468 427/698/460
f 436/701/464 444/709/469 437/710/467
f 433/705/466 441/711/470 434/708/468
f 437/707/467 445/712/471 438/697/462
f 434/708/468 442/713/472 435/699/463
f 446/591/129 438/697/462 445/712/471
f 435/699/463 443/714/473 436/701/464
f 433/705/466 439/715/474 440/716/160
f 446/591/129 445/712/471 453/717/475
f 443/714/473 450/718/476 451/719/477
f 440/716/160 447/720/478 448/721/479
f 444/709/469 451/719/477 452/722/480
f 440/716/160 449/723/481 441/711/470
f 445/712/471 452/724/480 453/717/475
f 441/711/470 450/718/476 442/713/472
f 452/724/480 460/725/482 453/717/475
f 450/718/476 456/726/483 457/727/484
f 446/591/129 453/717/475 460/725/482
f 450/718/476 458/728/485 451/719/477
f 448/721/479 454/729/486 455/730/487
f 452/722/480 458/728/485 459/731/488
f 448/721/479 456/726/483 449/723/481
f 455/730/487 461/732/489 462/733/139
f 459/731/488 465/734/490 466/735/491
f 455/730/487 463/736/492 456/726/483
f 459/737/488 467/738/493 460/725/482
f 457/727/484 463/736/492 464/739/494
f 446/591/129 460/725/482 467/738/493
f 458/728/485 464/739/494 465/734/490
f 446/591/129 467/738/493 474/740/495
f 465/734/490 471/741/496 472/742/497
f 462/733/139 468/743/498 469/744/499
f 466/735/491 472/742/497 473/745/500
f 462/733/139 470/746/501 463/736/492
f 466/747/491 474/740/495 467/738/493
f 464/739/494 470/746/501 471/741/496
f 469/748/499 477/749/502 470/750/501
f 474/740/495 480/751/503 481/752/504
f 470/750/501 478/753/505 471/754/496
f 446/591/129 474/740/495 481/752/504
f 471/754/496 479/755/506 472/756/497
f 469/748/499 475/757/507 476/758/508
f 472/759/497 480/751/503 473/760/500
f 476/758/508 482/761/509 483/762/154
f 480/751/503 486/763/510 487/764/511
f 476/758/508 484/765/512 477/749/502
f 480/751/503 488/766/513 481/752/504
f 478/753/505 484/765/512 485/767/514
f 446/591/129 481/752/504 488/766/513
f 478/753/505 486/768/510 479/755/506
f 485/767/514 491/769/515 492/770/516
f 446/591/129 488/766/513 495/771/517
f 485/767/514 493/772/518 486/768/510
f 483/762/154 489/773/519 490/774/520
f 487/764/511 493/775/518 494/776/521
f 483/762/154 491/769/515 484/765/512
f 487/764/511 495/771/517 488/766/513
f 490/774/520 498/777/522 491/769/515
f 495/771/517 501/778/523 502/779/524
f 491/769/515 499/780/525 492/770/516
f 446/591/129 495/771/517 502/779/524
f 492/770/516 500/781/526 493/772/518
f 490/774/520 496/782/527 497/783/528
f 494/776/521 500/784/526 501/778/523
f 499/780/525 505/592/380 500/781/526
f 497/783/528 503/785/529 339/584/141
f 501/778/523 505/786/380 506/581/371
f 497/783/528 504/586/375 498/777/522
f 501/778/523 507/588/377 502/779/524
f 498/777/522 340/590/379 499/780/525
f 446/591/129 502/779/524 507/588/377
f 506/581/371 505/786/380 345/582/372
f 339/584/141 342/595/382 343/585/374
f 506/581/371 346/583/373 347/587/376
f 504/586/375 343/585/374 344/589/378
f 505/592/380 340/590/379 344/589/378
f 339/584/141 503/785/529 341/594/381
f 344/597/378 351/610/388 352/598/384
f 341/599/381 348/787/530 349/600/385
f 345/582/372 352/598/384 353/602/386
f 342/601/382 349/600/385 350/603/387
f 347/587/376 346/583/373 353/602/386
f 343/585/374 350/788/387 351/605/388
f 349/600/385 356/613/138 357/606/389
f 353/602/386 360/614/394 361/607/390
f 350/603/387 357/606/389 358/608/391
f 351/610/388 358/622/391 359/611/392
f 349/600/385 348/787/530 355/612/393
f 353/602/386 352/598/384 359/611/392
f 356/613/138 355/612/393 362/615/395
f 360/614/394 359/611/392 366/617/397
f 356/613/138 363/616/396 364/619/399
f 360/614/394 367/618/398 368/620/400
f 357/606/389 364/619/399 365/621/401
f 358/622/391 365/625/401 366/617/397
f 364/619/399 371/630/408 372/623/402
f 365/625/401 372/634/402 373/626/404
f 363/616/396 362/615/395 369/627/405
f 367/618/398 366/617/397 373/626/404
f 363/616/396 370/628/406 371/630/408
f 367/618/398 374/629/407 375/624/403
f 370/628/406 377/637/153 378/631/409
f 374/629/407 381/638/414 382/632/410
f 372/623/402 371/630/408 378/631/409
f 372/634/402 379/639/411 380/635/412
f 370/628/406 369/627/405 376/636/413
f 374/629/407 373/626/404 380/635/412
f 379/639/411 386/651/421 387/640/415
f 377/637/153 376/636/413 383/641/416
f 380/635/412 387/640/415 388/643/418
f 377/637/153 384/642/417 385/644/419
f 381/638/414 388/643/418 389/645/420
f 378/631/409 385/644/419 386/646/421
f 386/647/421 385/657/419 392/648/422
f 386/651/421 393/789/423 394/652/425
f 384/653/417 383/790/416 390/654/426
f 388/643/418 387/640/415 394/652/425
f 384/653/417 391/655/427 392/648/422
f 388/643/418 395/656/428 396/650/424
f 395/656/428 394/652/425 401/658/429
f 391/655/427 398/666/137 399/660/431
f 395/656/428 402/659/430 403/661/432
f 392/648/422 399/660/431 400/662/433
f 393/649/423 400/662/433 401/663/429
f 391/655/427 390/654/426 397/665/434
f 400/662/433 407/673/441 408/667/435
f 398/666/137 397/665/434 404/668/436
f 401/658/429 408/680/435 409/670/438
f 398/666/137 405/669/437 406/671/439
f 402/659/430 409/670/438 410/672/440
f 400/662/433 399/660/431 406/671/439
f 409/670/438 416/681/448 417/674/442
f 407/673/441 406/671/439 413/675/443
f 407/673/441 414/676/444 415/677/445
f 405/669/437 404/668/436 411/678/446
f 408/680/435 415/791/445 416/681/448
f 405/669/437 412/679/447 413/675/443
f 416/681/448 415/791/445 422/682/449
f 412/679/447 419/689/147 420/684/451
f 416/681/448 423/683/450 424/685/452
f 414/676/444 413/675/443 420/684/451
f 414/676/444 421/686/453 422/687/449
f 412/679/447 411/678/446 418/688/454
f 421/686/453 428/696/461 429/691/456
f 419/689/147 418/688/454 425/692/457
f 422/682/449 429/706/456 430/694/459
f 419/689/147 426/693/458 427/695/460
f 423/683/450 430/694/459 431/690/455
f 421/686/453 420/684/451 427/695/460
f 430/694/459 437/707/467 438/697/462
f 427/698/460 434/708/468 435/699/463
f 428/700/461 435/699/463 436/701/464
f 426/703/458 425/792/457 432/704/465
f 429/706/456 436/793/464 437/707/467
f 426/703/458 433/705/466 434/708/468
f 436/701/464 443/714/473 444/709/469
f 433/705/466 440/716/160 441/711/470
f 437/707/467 444/794/469 445/712/471
f 434/708/468 441/711/470 442/713/472
f 435/699/463 442/713/472 443/714/473
f 433/705/466 432/704/465 439/715/474
f 443/714/473 442/713/472 450/718/476
f 440/716/160 439/715/474 447/720/478
f 444/709/469 443/714/473 451/719/477
f 440/716/160 448/721/479 449/723/481
f 445/712/471 444/794/469 452/724/480
f 441/711/470 449/723/481 450/718/476
f 452/724/480 459/737/488 460/725/482
f 450/718/476 449/723/481 456/726/483
f 450/718/476 457/727/484 458/728/485
f 448/721/479 447/720/478 454/729/486
f 452/722/480 451/719/477 458/728/485
f 448/721/479 455/730/487 456/726/483
f 455/730/487 454/729/486 461/732/489
f 459/731/488 458/728/485 465/734/490
f 455/730/487 462/733/139 463/736/492
f 459/737/488 466/747/491 467/738/493
f 457/727/484 456/726/483 463/736/492
f 458/728/485 457/727/484 464/739/494
f 465/734/490 464/739/494 471/741/496
f 462/733/139 461/732/489 468/743/498
f 466/735/491 465/734/490 472/742/497
f 462/733/139 469/744/499 470/746/501
f 466/747/491 473/760/500 474/740/495
f 464/739/494 463/736/492 470/746/501
f 469/748/499 476/758/508 477/749/502
f 474/740/495 473/760/500 480/751/503
f 470/750/501 477/749/502 478/753/505
f 471/754/496 478/753/505 479/755/506
f 469/748/499 468/795/498 475/757/507
f 472/759/497 479/796/506 480/751/503
f 476/758/508 475/757/507 482/761/509
f 480/751/503 479/796/506 486/763/510
f 476/758/508 483/762/154 484/765/512
f 480/751/503 487/764/511 488/766/513
f 478/753/505 477/749/502 484/765/512
f 478/753/505 485/767/514 486/768/510
f 485/767/514 484/765/512 491/769/515
f 485/767/514 492/770/516 493/772/518
f 483/762/154 482/761/509 489/773/519
f 487/764/511 486/763/510 493/775/518
f 483/762/154 490/774/520 491/769/515
f 487/764/511 494/776/521 495/771/517
f 490/774/520 497/783/528 498/777/522
f 495/771/517 494/776/521 501/778/523
f 491/769/515 498/777/522 499/780/525
f 492/770/516 499/780/525 500/781/526
f 490/774/520 489/773/519 496/782/527
f 494/776/521 493/775/518 500/784/526
f 499/780/525 340/590/379 505/592/380
f 497/783/528 496/782/527 503/785/529
f 501/778/523 500/784/526 505/786/380
f 497/783/528 339/584/141 504/586/375
f 501/778/523 506/581/371 507/588/377
f 498/777/522 504/586/375 340/590/379
